Timestamp;Battery_Measured_power;Battery_Requested_Power
2022-11-10 10:00:00;0.15;2
2022-11-10 10:30:00;0.15;
2022-11-10 11:00:00;0.15;2
2022-11-10 11:30:00;0.15000000000000002;
2022-11-10 12:00:00;0.15;1
2022-11-10 12:30:00;0.15;
2022-11-10 13:00:00;0.15000000000000002;1
2022-11-10 13:30:00;0.15000000000000002;
2022-11-10 14:00:00;-0.9272727272727272;-1
2022-11-10 14:30:00;-1.0166666666666666;
2022-11-10 15:00:00;-1.0777777777777777;-1
2022-11-10 15:30:00;-0.8705882352941177;
2022-11-10 16:00:00;0.04927536231884058;0
2022-11-10 16:30:00;0.05;
2022-11-10 17:00:00;0.05061728395061729;0
2022-11-10 17:30:00;0.049152542372881365;
2022-11-10 18:00:00;0.05;0
2022-11-10 18:30:00;0.05;
2022-11-10 19:00:00;0.05;0
2022-11-10 19:30:00;0.05066666666666667;
2022-11-10 20:00:00;0.04936708860759494;0
2022-11-10 20:30:00;0.05263157894736842;
2022-11-10 21:00:00;0.05000000000000001;0
2022-11-10 21:30:00;0.04933333333333333;
2022-11-10 22:00:00;0.05;0
2022-11-10 22:30:00;0.050769230769230775;
2022-11-10 23:00:00;0.05;0
2022-11-10 23:30:00;0.04938271604938271;
2022-11-11 00:00:00;0.05;0
2022-11-11 00:30:00;0.05064935064935065;
2022-11-11 01:00:00;0.04923076923076923;0
2022-11-11 01:30:00;0.05070422535211268;
2022-11-11 02:00:00;-0.8888888888888888;-1
2022-11-11 02:30:00;-1.2333333333333334;
2022-11-11 03:00:00;-1.1241379310344828;-1
2022-11-11 03:30:00;-1.1500000000000001;
2022-11-11 04:00:00;-1.1638888888888888;-1
2022-11-11 04:30:00;-1.1580645161290322;
2022-11-11 05:00:00;-1.163265306122449;-1
2022-11-11 05:30:00;-1.1313432835820896;
2022-11-11 06:00:00;-1.1192982456140352;-1
2022-11-11 06:30:00;-1.048780487804878;
2022-11-11 07:00:00;-1.1591836734693877;-1
2022-11-11 07:30:00;-1.15;
2022-11-11 08:00:00;-1.1172413793103448;-1
2022-11-11 08:30:00;-1.1944444444444444;
2022-11-11 09:00:00;0.0071428571428571435;0
2022-11-11 09:30:00;0.05;
2022-11-11 10:00:00;1.756896551724138;2
2022-11-11 10:30:00;1.8377551020408163;
2022-11-11 11:00:00;2.785858585858586;3
2022-11-11 11:30:00;2.873584905660377;
2022-11-11 12:00:00;3.7481481481481485;4
2022-11-11 12:30:00;3.8231884057971017;
2022-11-11 13:00:00;2.8337837837837836;3
2022-11-11 13:30:00;2.781481481481481;
2022-11-11 14:00:00;0.4606557377049181;1
2022-11-11 14:30:00;0.05;
2022-11-11 15:00:00;-0.8888888888888888;-1
2022-11-11 15:30:00;-1.1375;
2022-11-11 16:00:00;-0.9750000000000001;-1
2022-11-11 16:30:00;-1.124;
2022-11-11 17:00:00;-1.1536585365853658;-1
2022-11-11 17:30:00;-1.1073170731707316;
2022-11-11 18:00:00;-1.0740740740740742;-1
2022-11-11 18:30:00;-1.1493333333333333;
2022-11-11 19:00:00;0.03333333333333334;0
2022-11-11 19:30:00;0.05;
2022-11-11 20:00:00;0.049315068493150684;0
2022-11-11 20:30:00;0.050684931506849315;
2022-11-11 21:00:00;0.04942528735632184;0
2022-11-11 21:30:00;0.05070422535211268;
2022-11-11 22:00:00;0.05;0
2022-11-11 22:30:00;0.04912280701754387;
2022-11-11 23:00:00;0.05;0
2022-11-11 23:30:00;0.05;
2022-11-12 00:00:00;0.05;0
2022-11-12 00:30:00;0.05061728395061729;
2022-11-12 01:00:00;0.05000000000000001;0
2022-11-12 01:30:00;0.04936708860759494;
2022-11-12 02:00:00;0.05;0
2022-11-12 02:30:00;0.05;
2022-11-12 03:00:00;0.049999999999999996;0
2022-11-12 03:30:00;0.05;
2022-11-12 04:00:00;0.05;0
2022-11-12 04:30:00;0.05;
2022-11-12 05:00:00;0.05;0
2022-11-12 05:30:00;0.05;
2022-11-12 06:00:00;0.04933333333333333;0
2022-11-12 06:30:00;0.04905660377358491;
2022-11-12 07:00:00;-1.0651162790697675;-1
2022-11-12 07:30:00;-1.1326530612244898;
2022-11-12 08:00:00;-1.2014925373134329;-1
2022-11-12 08:30:00;-1.1966101694915254;
2022-11-12 09:00:00;0.3111111111111111;1
2022-11-12 09:30:00;0.725;
2022-11-12 10:00:00;4.5597938144329895;5
2022-11-12 10:30:00;4.768468468468468;
2022-11-12 11:00:00;4.670731707317073;5
2022-11-12 11:30:00;4.321875;
2022-11-12 12:00:00;-0.7714285714285715;-1
2022-11-12 12:30:00;-1.2295081967213115;
2022-11-12 13:00:00;0.24027777777777778;1
2022-11-12 13:30:00;0.05063291139240506;
2022-11-12 14:00:00;0.049315068493150684;0
2022-11-12 14:30:00;0.050684931506849315;
2022-11-12 15:00:00;-0.8538461538461538;-1
2022-11-12 15:30:00;-1.0833333333333333;
2022-11-12 16:00:00;-1.1083333333333334;-1
2022-11-12 16:30:00;-1.1590909090909092;
2022-11-12 17:00:00;-1.1500000000000001;-1
2022-11-12 17:30:00;-1.0820512820512822;
2022-11-12 18:00:00;-1.2209302325581395;-1
2022-11-12 18:30:00;-1.1725806451612903;
2022-11-12 19:00:00;-1.1492307692307693;
2022-11-12 19:30:00;-1.1178082191780823;
2022-11-12 20:00:00;-1.216;-1
2022-11-12 20:30:00;-1.1671641791044776;
2022-11-12 21:00:00;-0.008860759493670885;0
2022-11-12 21:30:00;0.05;
2022-11-12 22:00:00;0.05;0
2022-11-12 22:30:00;0.05;
2022-11-12 23:00:00;0.05;0
2022-11-12 23:30:00;0.050724637681159424;
2022-11-13 00:00:00;0.04927536231884058;0
2022-11-13 00:30:00;0.05;
2022-11-13 01:00:00;0.05;0
2022-11-13 01:30:00;0.05064935064935065;
2022-11-13 02:00:00;0.05;0
2022-11-13 02:30:00;0.04942528735632184;
2022-11-13 03:00:00;0.05;0
2022-11-13 03:30:00;0.05;
2022-11-13 04:00:00;0.05;0
2022-11-13 04:30:00;0.05;
2022-11-13 05:00:00;0.05;0
2022-11-13 05:30:00;0.050769230769230775;
2022-11-13 06:00:00;0.05;0
2022-11-13 06:30:00;0.05;
2022-11-13 07:00:00;0.05064935064935065;0
2022-11-13 07:30:00;0.05;
2022-11-13 08:00:00;0.5444444444444445;1
2022-11-13 08:30:00;0.725;
2022-11-13 09:00:00;3.791111111111111;4
2022-11-13 09:30:00;3.8163793103448276;
2022-11-13 10:00:00;5.553191489361702;6
2022-11-13 10:30:00;5.380392156862745;
2022-11-13 11:00:00;1.2933333333333334;0.0000059975834964563714
2022-11-13 11:30:00;0.15000000000000002;
2022-11-13 12:00:00;0.15;0
2022-11-13 12:30:00;0.15;
2022-11-13 13:00:00;0.125;0
2022-11-13 13:30:00;0.15;
2022-11-13 14:00:00;0.1;1
2022-11-13 14:30:00;0.10555555555555557;
2022-11-13 15:00:00;0.15;0
2022-11-13 15:30:00;0.0642857142857143;
2022-11-13 16:00:00;0.075;0
2022-11-13 16:30:00;0.06571428571428573;
2022-11-13 17:00:00;0.05909090909090909;0
2022-11-13 17:30:00;0.05757575757575758;
2022-11-13 18:00:00;0.057971014492753624;0
2022-11-13 18:30:00;0.05844155844155844;
2022-11-13 19:00:00;0.05777777777777778;
2022-11-13 19:30:00;0.05053763440860215;
2022-11-13 20:00:00;0.05294117647058824;0
2022-11-13 20:30:00;0.05454545454545456;
2022-11-13 21:00:00;0.049999999999999996;0
2022-11-13 21:30:00;0.052054794520547946;
2022-11-13 22:00:00;0.05;0
2022-11-13 22:30:00;0.049999999999999996;
2022-11-13 23:00:00;0.05;0
2022-11-13 23:30:00;0.05;
2022-11-14 00:00:00;0.05;
2022-11-14 00:30:00;0.05;
2022-11-14 01:00:00;0.05;
2022-11-14 01:30:00;0.05;
2022-11-14 02:00:00;0.05;
2022-11-14 02:30:00;0.05074626865671642;
2022-11-14 03:00:00;0.049315068493150684;
2022-11-14 03:30:00;0.05;
2022-11-14 04:00:00;0.05;
2022-11-14 04:30:00;0.05;
2022-11-14 05:00:00;-0.6894736842105263;-1
2022-11-14 05:30:00;-1.16;
2022-11-14 06:00:00;-0.9875;-1
2022-11-14 06:30:00;-0.9555555555555555;
2022-11-14 07:00:00;0.03424657534246575;0
2022-11-14 07:30:00;0.04923076923076923;
2022-11-14 08:00:00;0.05;0
2022-11-14 08:30:00;0.05;
2022-11-14 09:00:00;-1.034375;-1
2022-11-14 09:30:00;-1.1870967741935483;
2022-11-14 10:00:00;-1.22;-1
2022-11-14 10:30:00;-0.9372093023255815;
2022-11-14 11:00:00;-1.2135135135135136;0
2022-11-14 11:30:00;-0.6726190476190477;
2022-11-14 12:00:00;5.317142857142857;6
2022-11-14 12:30:00;5.73135593220339;
2022-11-14 13:00:00;1.1711111111111112;1
2022-11-14 13:30:00;0.19846153846153847;
2022-11-14 14:00:00;0.05;0
2022-11-14 14:30:00;0.050793650793650794;
2022-11-14 15:00:00;0.04923076923076923;0
2022-11-14 15:30:00;0.050724637681159424;
2022-11-14 16:00:00;0.04933333333333333;0
2022-11-14 16:30:00;0.05;
2022-11-14 17:00:00;-0.7200000000000001;-1
2022-11-14 17:30:00;-1.0363636363636364;
2022-11-14 18:00:00;0.05000000000000001;0
2022-11-14 18:30:00;0.05000000000000001;
2022-11-14 19:00:00;0.04933333333333333;0
2022-11-14 19:30:00;0.05063291139240506;
2022-11-14 20:00:00;0.04943820224719102;
2022-11-14 20:30:00;0.05056179775280899;
2022-11-14 21:00:00;0.05000000000000001;
2022-11-14 21:30:00;0.05;
2022-11-14 22:00:00;0.04927536231884058;
2022-11-14 22:30:00;0.049999999999999996;
2022-11-14 23:00:00;0.05064935064935065;
2022-11-14 23:30:00;0.05;
2022-11-15 00:00:00;0.05;
2022-11-15 00:30:00;0.04943820224719102;
2022-11-15 01:00:00;0.05;
2022-11-15 01:30:00;0.05;
2022-11-15 02:00:00;0.05;