﻿"Time","Wind Speed"
2022-02-01 00:00:00,
2022-02-01 01:00:00,3.61
2022-02-01 02:00:00,3.31
2022-02-01 03:00:00,3.01
2022-02-01 04:00:00,3.06
2022-02-01 05:00:00,3.10
2022-02-01 06:00:00,3.27
2022-02-01 07:00:00,3.44
2022-02-01 08:00:00,3.51
2022-02-01 09:00:00,3.58
2022-02-01 10:00:00,4.04
2022-02-01 11:00:00,4.50
2022-02-01 12:00:00,3.91
2022-02-01 13:00:00,3.33
2022-02-01 14:00:00,3.13
2022-02-01 15:00:00,2.92
2022-02-01 16:00:00,2.05
2022-02-01 17:00:00,1.17
2022-02-01 18:00:00,0.829
2022-02-01 19:00:00,0.485
2022-02-01 20:00:00,0.933
2022-02-01 21:00:00,1.38
2022-02-01 22:00:00,1.39
2022-02-01 23:00:00,1.40
2022-02-02 00:00:00,1.39
2022-02-02 01:00:00,1.38
2022-02-02 02:00:00,1.39
2022-02-02 03:00:00,1.41
2022-02-02 04:00:00,1.05
2022-02-02 05:00:00,0.683
2022-02-02 06:00:00,0.551
2022-02-02 07:00:00,0.418
2022-02-02 08:00:00,0.579
2022-02-02 09:00:00,0.740
2022-02-02 10:00:00,2.08
2022-02-02 11:00:00,3.42
2022-02-02 12:00:00,4.32
2022-02-02 13:00:00,5.22
2022-02-02 14:00:00,4.79
2022-02-02 15:00:00,4.37
2022-02-02 16:00:00,4.12
2022-02-02 17:00:00,3.88
2022-02-02 18:00:00,3.43
2022-02-02 19:00:00,2.99
2022-02-02 20:00:00,2.42
2022-02-02 21:00:00,1.84
2022-02-02 22:00:00,1.23
2022-02-02 23:00:00,0.622
2022-02-03 00:00:00,0.926
2022-02-03 01:00:00,1.23
2022-02-03 02:00:00,1.39
2022-02-03 03:00:00,1.56
2022-02-03 04:00:00,1.44
2022-02-03 05:00:00,1.33
2022-02-03 06:00:00,1.56
2022-02-03 07:00:00,1.78
2022-02-03 08:00:00,1.70
2022-02-03 09:00:00,1.61
2022-02-03 10:00:00,1.62
2022-02-03 11:00:00,1.64
2022-02-03 12:00:00,2.09
2022-02-03 13:00:00,2.54
2022-02-03 14:00:00,1.72
2022-02-03 15:00:00,0.897
2022-02-03 16:00:00,0.834
2022-02-03 17:00:00,0.772
2022-02-03 18:00:00,0.786
2022-02-03 19:00:00,0.800
2022-02-03 20:00:00,0.623
2022-02-03 21:00:00,0.447
2022-02-03 22:00:00,0.626
2022-02-03 23:00:00,0.805
2022-02-04 00:00:00,0.719
2022-02-04 01:00:00,0.633
2022-02-04 02:00:00,0.878
2022-02-04 03:00:00,1.12
2022-02-04 04:00:00,0.812
2022-02-04 05:00:00,0.502
2022-02-04 06:00:00,0.488
2022-02-04 07:00:00,0.473
2022-02-04 08:00:00,0.574
2022-02-04 09:00:00,0.675
2022-02-04 10:00:00,0.676
2022-02-04 11:00:00,0.677
2022-02-04 12:00:00,1.77
2022-02-04 13:00:00,2.86
2022-02-04 14:00:00,2.03
2022-02-04 15:00:00,1.20
2022-02-04 16:00:00,1.07
2022-02-04 17:00:00,0.942
2022-02-04 18:00:00,0.714
2022-02-04 19:00:00,0.487
2022-02-04 20:00:00,0.425
2022-02-04 21:00:00,0.363
2022-02-04 22:00:00,0.547
2022-02-04 23:00:00,0.730
2022-02-05 00:00:00,0.669
2022-02-05 01:00:00,0.608
2022-02-05 02:00:00,0.608
2022-02-05 03:00:00,0.607
2022-02-05 04:00:00,0.610
2022-02-05 05:00:00,0.613
2022-02-05 06:00:00,1.98
2022-02-05 07:00:00,3.35
2022-02-05 08:00:00,3.57
2022-02-05 09:00:00,3.79
2022-02-05 10:00:00,4.22
2022-02-05 11:00:00,4.66
2022-02-05 12:00:00,4.30
2022-02-05 13:00:00,3.94
2022-02-05 14:00:00,4.08
2022-02-05 15:00:00,4.22
2022-02-05 16:00:00,3.52
2022-02-05 17:00:00,2.83
2022-02-05 18:00:00,2.81
2022-02-05 19:00:00,2.79
2022-02-05 20:00:00,2.77
2022-02-05 21:00:00,2.76
2022-02-05 22:00:00,2.41
2022-02-05 23:00:00,2.06
2022-02-06 00:00:00,1.31
2022-02-06 01:00:00,0.555
2022-02-06 02:00:00,0.541
2022-02-06 03:00:00,0.527
2022-02-06 04:00:00,0.536
2022-02-06 05:00:00,0.545
2022-02-06 06:00:00,0.707
2022-02-06 07:00:00,0.870
2022-02-06 08:00:00,0.935
2022-02-06 09:00:00,1
2022-02-06 10:00:00,1.01
2022-02-06 11:00:00,1.03
2022-02-06 12:00:00,1.52
2022-02-06 13:00:00,2.01
2022-02-06 14:00:00,1.61
2022-02-06 15:00:00,1.21
2022-02-06 16:00:00,1.02
2022-02-06 17:00:00,0.843
2022-02-06 18:00:00,1.09
2022-02-06 19:00:00,1.34
2022-02-06 20:00:00,1.32
2022-02-06 21:00:00,1.30
2022-02-06 22:00:00,1.29
2022-02-06 23:00:00,1.28
2022-02-07 00:00:00,1.03
2022-02-07 01:00:00,0.778
2022-02-07 02:00:00,0.832
2022-02-07 03:00:00,0.885
2022-02-07 04:00:00,0.808
2022-02-07 05:00:00,0.730
2022-02-07 06:00:00,1.93
2022-02-07 07:00:00,3.14
2022-02-07 08:00:00,3.24
2022-02-07 09:00:00,3.35
2022-02-07 10:00:00,3.97
2022-02-07 11:00:00,4.60
2022-02-07 12:00:00,4.25
2022-02-07 13:00:00,3.90
2022-02-07 14:00:00,3.65
2022-02-07 15:00:00,3.40
2022-02-07 16:00:00,3.85
2022-02-07 17:00:00,4.30
2022-02-07 18:00:00,3.41
2022-02-07 19:00:00,2.52
2022-02-07 20:00:00,2.39
2022-02-07 21:00:00,2.26
2022-02-07 22:00:00,1.72
2022-02-07 23:00:00,1.18
2022-02-08 00:00:00,0.907
2022-02-08 01:00:00,0.637
2022-02-08 02:00:00,0.611
2022-02-08 03:00:00,0.585
2022-02-08 04:00:00,0.648
2022-02-08 05:00:00,0.712
2022-02-08 06:00:00,1.03
2022-02-08 07:00:00,1.35
2022-02-08 08:00:00,1.62
2022-02-08 09:00:00,1.89
2022-02-08 10:00:00,1.66
2022-02-08 11:00:00,1.43
2022-02-08 12:00:00,1.39
2022-02-08 13:00:00,1.35
2022-02-08 14:00:00,1.27
2022-02-08 15:00:00,1.18
2022-02-08 16:00:00,0.908
2022-02-08 17:00:00,0.632
2022-02-08 18:00:00,1.03
2022-02-08 19:00:00,1.44
2022-02-08 20:00:00,1.54
2022-02-08 21:00:00,1.64
2022-02-08 22:00:00,1.76
2022-02-08 23:00:00,1.88
2022-02-09 00:00:00,1.90
2022-02-09 01:00:00,1.91
2022-02-09 02:00:00,1.69
2022-02-09 03:00:00,1.47
2022-02-09 04:00:00,1.66
2022-02-09 05:00:00,1.86
2022-02-09 06:00:00,1.80
2022-02-09 07:00:00,1.75
2022-02-09 08:00:00,1.35
2022-02-09 09:00:00,0.952
2022-02-09 10:00:00,1.22
2022-02-09 11:00:00,1.50
2022-02-09 12:00:00,2.29
2022-02-09 13:00:00,3.09
2022-02-09 14:00:00,2.54
2022-02-09 15:00:00,2.00
2022-02-09 16:00:00,1.59
2022-02-09 17:00:00,1.18
2022-02-09 18:00:00,0.893
2022-02-09 19:00:00,0.602
2022-02-09 20:00:00,0.708
2022-02-09 21:00:00,0.815
2022-02-09 22:00:00,0.741
2022-02-09 23:00:00,0.667
2022-02-10 00:00:00,0.660
2022-02-10 01:00:00,0.653
2022-02-10 02:00:00,0.776
2022-02-10 03:00:00,0.898
2022-02-10 04:00:00,0.778
2022-02-10 05:00:00,0.657
2022-02-10 06:00:00,0.993
2022-02-10 07:00:00,1.33
2022-02-10 08:00:00,0.886
2022-02-10 09:00:00,0.442
2022-02-10 10:00:00,0.700
2022-02-10 11:00:00,0.840
2022-02-10 12:00:00,0.898
2022-02-10 13:00:00,0.957
2022-02-10 14:00:00,0.811
2022-02-10 15:00:00,0.665
2022-02-10 16:00:00,0.552
2022-02-10 17:00:00,0.438
2022-02-10 18:00:00,0.846
2022-02-10 19:00:00,1.25
2022-02-10 20:00:00,1.22
2022-02-10 21:00:00,1.19
2022-02-10 22:00:00,1.00
2022-02-10 23:00:00,0.813
2022-02-11 00:00:00,0.792
2022-02-11 01:00:00,0.770
2022-02-11 02:00:00,0.857
2022-02-11 03:00:00,0.943
2022-02-11 04:00:00,0.944
2022-02-11 05:00:00,0.945
2022-02-11 06:00:00,1.04
2022-02-11 07:00:00,1.14
2022-02-11 08:00:00,1.94
2022-02-11 09:00:00,2.74
2022-02-11 10:00:00,2.96
2022-02-11 11:00:00,3.17
2022-02-11 12:00:00,3.30
2022-02-11 13:00:00,3.42
2022-02-11 14:00:00,3.65
2022-02-11 15:00:00,3.89
2022-02-11 16:00:00,4.03
2022-02-11 17:00:00,4.18
2022-02-11 18:00:00,3.43
2022-02-11 19:00:00,2.67
2022-02-11 20:00:00,2.18
2022-02-11 21:00:00,1.69
2022-02-11 22:00:00,1.18
2022-02-11 23:00:00,0.678
2022-02-12 00:00:00,1.07
2022-02-12 01:00:00,1.47
2022-02-12 02:00:00,1.32
2022-02-12 03:00:00,1.17
2022-02-12 04:00:00,1.53
2022-02-12 05:00:00,1.89
2022-02-12 06:00:00,1.94
2022-02-12 07:00:00,1.99
2022-02-12 08:00:00,2.03
2022-02-12 09:00:00,2.08
2022-02-12 10:00:00,1.83
2022-02-12 11:00:00,1.58
2022-02-12 12:00:00,1.19
2022-02-12 13:00:00,0.803
2022-02-12 14:00:00,0.870
2022-02-12 15:00:00,0.937
2022-02-12 16:00:00,0.697
2022-02-12 17:00:00,0.457
2022-02-12 18:00:00,0.584
2022-02-12 19:00:00,0.712
2022-02-12 20:00:00,0.836
2022-02-12 21:00:00,0.960
2022-02-12 22:00:00,1.05
2022-02-12 23:00:00,1.14
2022-02-13 00:00:00,0.833
2022-02-13 01:00:00,0.532
2022-02-13 02:00:00,1.17
2022-02-13 03:00:00,1.81
2022-02-13 04:00:00,1.62
2022-02-13 05:00:00,1.44
2022-02-13 06:00:00,1.34
2022-02-13 07:00:00,1.24
2022-02-13 08:00:00,1.31
2022-02-13 09:00:00,1.38
2022-02-13 10:00:00,1.03
2022-02-13 11:00:00,0.673
2022-02-13 12:00:00,1.55
2022-02-13 13:00:00,2.43
2022-02-13 14:00:00,2.46
2022-02-13 15:00:00,2.48
2022-02-13 16:00:00,2.05
2022-02-13 17:00:00,1.61
2022-02-13 18:00:00,2.11
2022-02-13 19:00:00,2.61
2022-02-13 20:00:00,2.73
2022-02-13 21:00:00,2.85
2022-02-13 22:00:00,2.13
2022-02-13 23:00:00,1.41
2022-02-14 00:00:00,1.81
2022-02-14 01:00:00,2.22
2022-02-14 02:00:00,2.56
2022-02-14 03:00:00,2.90
2022-02-14 04:00:00,2.48
2022-02-14 05:00:00,2.07
2022-02-14 06:00:00,2.43
2022-02-14 07:00:00,2.79
2022-02-14 08:00:00,2.96
2022-02-14 09:00:00,3.13
2022-02-14 10:00:00,2.75
2022-02-14 11:00:00,2.36
2022-02-14 12:00:00,2.41
2022-02-14 13:00:00,2.46
2022-02-14 14:00:00,1.69
2022-02-14 15:00:00,0.928
2022-02-14 16:00:00,1.26
2022-02-14 17:00:00,1.05
2022-02-14 18:00:00,1.33
2022-02-14 19:00:00,0.842
2022-02-14 20:00:00,1.27
2022-02-14 21:00:00,0.843
2022-02-14 22:00:00,0.930
2022-02-14 23:00:00,0.493
2022-02-15 00:00:00,0.648
2022-02-15 01:00:00,1.13
2022-02-15 02:00:00,0.803
2022-02-15 03:00:00,2.48
2022-02-15 04:00:00,2.92
2022-02-15 05:00:00,2.00
2022-02-15 06:00:00,2.37
2022-02-15 07:00:00,2.14
2022-02-15 08:00:00,2.38
2022-02-15 09:00:00,2.65
2022-02-15 10:00:00,2.53
2022-02-15 11:00:00,2.23
2022-02-15 12:00:00,2.69
2022-02-15 13:00:00,2.85
2022-02-15 14:00:00,2.59
2022-02-15 15:00:00,2.54
2022-02-15 16:00:00,1.73
2022-02-15 17:00:00,0.567
2022-02-15 18:00:00,0.713
2022-02-15 19:00:00,0.543
2022-02-15 20:00:00,0.583
2022-02-15 21:00:00,1.62
2022-02-15 22:00:00,1.51
2022-02-15 23:00:00,1.46
2022-02-16 00:00:00,1.37
2022-02-16 01:00:00,1.21
2022-02-16 02:00:00,1.33
2022-02-16 03:00:00,1.38
2022-02-16 04:00:00,1.23
2022-02-16 05:00:00,1.08
2022-02-16 06:00:00,0.763
2022-02-16 07:00:00,0.918
2022-02-16 08:00:00,1.08
2022-02-16 09:00:00,1.31
2022-02-16 10:00:00,1.26
2022-02-16 11:00:00,1.33
2022-02-16 12:00:00,1.17
2022-02-16 13:00:00,1.03
2022-02-16 14:00:00,0.923
2022-02-16 15:00:00,0.983
2022-02-16 16:00:00,1.57
2022-02-16 17:00:00,1.56
2022-02-16 18:00:00,1.87
2022-02-16 19:00:00,2.25
2022-02-16 20:00:00,1.67
2022-02-16 21:00:00,1.74
2022-02-16 22:00:00,1.72
2022-02-16 23:00:00,1.67
2022-02-17 00:00:00,1.55
2022-02-17 01:00:00,1.30
2022-02-17 02:00:00,0.810
2022-02-17 03:00:00,1.09
2022-02-17 04:00:00,1.25
2022-02-17 05:00:00,0.938
2022-02-17 06:00:00,0.447
2022-02-17 07:00:00,1.00
2022-02-17 08:00:00,1.05
2022-02-17 09:00:00,0.492
2022-02-17 10:00:00,0.933
2022-02-17 11:00:00,1.08
2022-02-17 12:00:00,0.780
2022-02-17 13:00:00,0.903
2022-02-17 14:00:00,1.64
2022-02-17 15:00:00,1.97
2022-02-17 16:00:00,0.773
2022-02-17 17:00:00,0.690
2022-02-17 18:00:00,0.392
2022-02-17 19:00:00,0.472
2022-02-17 20:00:00,0.358
2022-02-17 21:00:00,0.510
2022-02-17 22:00:00,0.798
2022-02-17 23:00:00,1.16
2022-02-18 00:00:00,0.955
2022-02-18 01:00:00,1.64
2022-02-18 02:00:00,1.84
2022-02-18 03:00:00,1.60
2022-02-18 04:00:00,1.60
2022-02-18 05:00:00,1.67
2022-02-18 06:00:00,1.71
2022-02-18 07:00:00,1.54
2022-02-18 08:00:00,1.60
2022-02-18 09:00:00,1.56
2022-02-18 10:00:00,1.26
2022-02-18 11:00:00,0.948
2022-02-18 12:00:00,0.682
2022-02-18 13:00:00,0.962
2022-02-18 14:00:00,1.41
2022-02-18 15:00:00,3.12
2022-02-18 16:00:00,1.90
2022-02-18 17:00:00,2.85
2022-02-18 18:00:00,2.86
2022-02-18 19:00:00,3.18
2022-02-18 20:00:00,4.47
2022-02-18 21:00:00,4.20
2022-02-18 22:00:00,3.90
2022-02-18 23:00:00,3.57
2022-02-19 00:00:00,3.46
2022-02-19 01:00:00,2.85
2022-02-19 02:00:00,2.30
2022-02-19 03:00:00,2.16
2022-02-19 04:00:00,1.88
2022-02-19 05:00:00,2.56
2022-02-19 06:00:00,3.04
2022-02-19 07:00:00,2.77
2022-02-19 08:00:00,2.62
2022-02-19 09:00:00,2.68
2022-02-19 10:00:00,4.03
2022-02-19 11:00:00,4.39
2022-02-19 12:00:00,3.90
2022-02-19 13:00:00,4.25
2022-02-19 14:00:00,3.73
2022-02-19 15:00:00,3.22
2022-02-19 16:00:00,2.66
2022-02-19 17:00:00,3.27
2022-02-19 18:00:00,3.42
2022-02-19 19:00:00,2.64
2022-02-19 20:00:00,2.58
2022-02-19 21:00:00,1.81
2022-02-19 22:00:00,1.04
2022-02-19 23:00:00,0.685
2022-02-20 00:00:00,0.427
2022-02-20 01:00:00,0.592
2022-02-20 02:00:00,0.558
2022-02-20 03:00:00,0.913
2022-02-20 04:00:00,0.645
2022-02-20 05:00:00,0.653
2022-02-20 06:00:00,0.795
2022-02-20 07:00:00,0.393
2022-02-20 08:00:00,1.39
2022-02-20 09:00:00,1.25
2022-02-20 10:00:00,1.82
2022-02-20 11:00:00,3.28
2022-02-20 12:00:00,3.06
2022-02-20 13:00:00,3.34
2022-02-20 14:00:00,2.37
2022-02-20 15:00:00,2.34
2022-02-20 16:00:00,2.03
2022-02-20 17:00:00,1.91
2022-02-20 18:00:00,0.895
2022-02-20 19:00:00,0.728
2022-02-20 20:00:00,0.620
2022-02-20 21:00:00,0.897
2022-02-20 22:00:00,0.932
2022-02-20 23:00:00,0.815
2022-02-21 00:00:00,0.828
2022-02-21 01:00:00,0.738
2022-02-21 02:00:00,0.755
2022-02-21 03:00:00,0.630
2022-02-21 04:00:00,0.650
2022-02-21 05:00:00,0.982
2022-02-21 06:00:00,0.695
2022-02-21 07:00:00,1.27
2022-02-21 08:00:00,3.82
2022-02-21 09:00:00,2.87
2022-02-21 10:00:00,4.76
2022-02-21 11:00:00,3.30
2022-02-21 12:00:00,3.24
2022-02-21 13:00:00,2.53
2022-02-21 14:00:00,2.46
2022-02-21 15:00:00,1.96
2022-02-21 16:00:00,1.93
2022-02-21 17:00:00,2.76
2022-02-21 18:00:00,2.75
2022-02-21 19:00:00,3.21
2022-02-21 20:00:00,2.35
2022-02-21 21:00:00,2.89
2022-02-21 22:00:00,3.26
2022-02-21 23:00:00,3.60
2022-02-22 00:00:00,3.10
2022-02-22 01:00:00,2.25
2022-02-22 02:00:00,1.13
2022-02-22 03:00:00,0.778
2022-02-22 04:00:00,0.728
2022-02-22 05:00:00,1.19
2022-02-22 06:00:00,3.36
2022-02-22 07:00:00,3.11
2022-02-22 08:00:00,3.24
2022-02-22 09:00:00,3.47
2022-02-22 10:00:00,3.13
2022-02-22 11:00:00,3.94
2022-02-22 12:00:00,3.82
2022-02-22 13:00:00,3.43
2022-02-22 14:00:00,3.19
2022-02-22 15:00:00,3.75
2022-02-22 16:00:00,3.86
2022-02-22 17:00:00,2.74
2022-02-22 18:00:00,2.33
2022-02-22 19:00:00,2.31
2022-02-22 20:00:00,2.91
2022-02-22 21:00:00,2.88
2022-02-22 22:00:00,2.37
2022-02-22 23:00:00,2.01
2022-02-23 00:00:00,1.40
2022-02-23 01:00:00,0.967
2022-02-23 02:00:00,0.655
2022-02-23 03:00:00,0.630
2022-02-23 04:00:00,0.773
2022-02-23 05:00:00,0.558
2022-02-23 06:00:00,0.603
2022-02-23 07:00:00,0.933
2022-02-23 08:00:00,1.74
2022-02-23 09:00:00,1.50
2022-02-23 10:00:00,1.22
2022-02-23 11:00:00,1.30
2022-02-23 12:00:00,1.38
2022-02-23 13:00:00,1.28
2022-02-23 14:00:00,1.23
2022-02-23 15:00:00,1.36
2022-02-23 16:00:00,1.12
2022-02-23 17:00:00,0.470
2022-02-23 18:00:00,0.470
2022-02-23 19:00:00,0.798
2022-02-23 20:00:00,1.09
2022-02-23 21:00:00,1.30
2022-02-23 22:00:00,1.52
2022-02-23 23:00:00,1.30
2022-02-24 00:00:00,0.665
2022-02-24 01:00:00,0.985
2022-02-24 02:00:00,1.12
2022-02-24 03:00:00,0.625
2022-02-24 04:00:00,0.543
2022-02-24 05:00:00,0.648
2022-02-24 06:00:00,0.407
2022-02-24 07:00:00,0.687
2022-02-24 08:00:00,1.09
2022-02-24 09:00:00,0.995
2022-02-24 10:00:00,1.01
2022-02-24 11:00:00,1.37
2022-02-24 12:00:00,0.963
2022-02-24 13:00:00,0.888
2022-02-24 14:00:00,0.767
2022-02-24 15:00:00,1.23
2022-02-24 16:00:00,1.90
2022-02-24 17:00:00,1.80
2022-02-24 18:00:00,1.90
2022-02-24 19:00:00,2.35
2022-02-24 20:00:00,2.23
2022-02-24 21:00:00,2.13
2022-02-24 22:00:00,2.41
2022-02-24 23:00:00,2.76
2022-02-25 00:00:00,3.91
2022-02-25 01:00:00,3.87
2022-02-25 02:00:00,3.79
2022-02-25 03:00:00,3.80
2022-02-25 04:00:00,3.14
2022-02-25 05:00:00,2.84
2022-02-25 06:00:00,2.84
2022-02-25 07:00:00,2.75
2022-02-25 08:00:00,3.15
2022-02-25 09:00:00,3.86
2022-02-25 10:00:00,4.19
2022-02-25 11:00:00,4.21
2022-02-25 12:00:00,4.32
2022-02-25 13:00:00,4.15
2022-02-25 14:00:00,3.89
2022-02-25 15:00:00,3.71
2022-02-25 16:00:00,3.54
2022-02-25 17:00:00,3.37
2022-02-25 18:00:00,3.44
2022-02-25 19:00:00,3.19
2022-02-25 20:00:00,3.09
2022-02-25 21:00:00,3.60
2022-02-25 22:00:00,2.93
2022-02-25 23:00:00,3.77
2022-02-26 00:00:00,3.66
2022-02-26 01:00:00,3.44
2022-02-26 02:00:00,2.62
2022-02-26 03:00:00,2.31
2022-02-26 04:00:00,1.29
2022-02-26 05:00:00,0.695
2022-02-26 06:00:00,0.753
2022-02-26 07:00:00,1.12
2022-02-26 08:00:00,1.46
2022-02-26 09:00:00,1.31
2022-02-26 10:00:00,1.21
2022-02-26 11:00:00,1.40
2022-02-26 12:00:00,1.50
2022-02-26 13:00:00,1.72
2022-02-26 14:00:00,2.34
2022-02-26 15:00:00,1.97
2022-02-26 16:00:00,1.66
2022-02-26 17:00:00,0.668
2022-02-26 18:00:00,0.393
2022-02-26 19:00:00,0.745
2022-02-26 20:00:00,0.918
2022-02-26 21:00:00,1.01
2022-02-26 22:00:00,1.38
2022-02-26 23:00:00,1.55
2022-02-27 00:00:00,1.38
2022-02-27 01:00:00,1.75
2022-02-27 02:00:00,1.76
2022-02-27 03:00:00,1.40
2022-02-27 04:00:00,1.93
2022-02-27 05:00:00,1.88
2022-02-27 06:00:00,1.87
2022-02-27 07:00:00,2.30
2022-02-27 08:00:00,2.45
2022-02-27 09:00:00,1.86
2022-02-27 10:00:00,2.19
2022-02-27 11:00:00,2.13
2022-02-27 12:00:00,1.55
2022-02-27 13:00:00,1.08
2022-02-27 14:00:00,1.57
2022-02-27 15:00:00,1.77
2022-02-27 16:00:00,0.748
2022-02-27 17:00:00,0.697
2022-02-27 18:00:00,0.585
2022-02-27 19:00:00,0.520
2022-02-27 20:00:00,0.732
2022-02-27 21:00:00,1.49
2022-02-27 22:00:00,1.61
2022-02-27 23:00:00,1.83
2022-02-28 00:00:00,1.51
2022-02-28 01:00:00,1.35
2022-02-28 02:00:00,1.28
2022-02-28 03:00:00,1.93
2022-02-28 04:00:00,1.76
2022-02-28 05:00:00,1.88
2022-02-28 06:00:00,1.86
2022-02-28 07:00:00,2.26
2022-02-28 08:00:00,2.35
2022-02-28 09:00:00,2.22
2022-02-28 10:00:00,2.04
2022-02-28 11:00:00,1.60
2022-02-28 12:00:00,0.957
2022-02-28 13:00:00,1.09
2022-02-28 14:00:00,1.45
2022-02-28 15:00:00,2.09
2022-02-28 16:00:00,1.63
2022-02-28 17:00:00,1.20
2022-02-28 18:00:00,0.658
2022-02-28 19:00:00,0.612
2022-02-28 20:00:00,0.565
2022-02-28 21:00:00,0.592
2022-02-28 22:00:00,0.622
2022-02-28 23:00:00,0.700

