﻿"Time","Wind Speed"
2022-08-28 23:00:00,
2022-08-29 00:00:00,0.603
2022-08-29 01:00:00,0.848
2022-08-29 02:00:00,1.37
2022-08-29 03:00:00,1.23
2022-08-29 04:00:00,1.17
2022-08-29 05:00:00,1.45
2022-08-29 06:00:00,1.77
2022-08-29 07:00:00,1.93
2022-08-29 08:00:00,1.45
2022-08-29 09:00:00,1.40
2022-08-29 10:00:00,1.12
2022-08-29 11:00:00,1.01
2022-08-29 12:00:00,1.83
2022-08-29 13:00:00,2.15
2022-08-29 14:00:00,2.20
2022-08-29 15:00:00,2.28
2022-08-29 16:00:00,2.59
2022-08-29 17:00:00,1.86
2022-08-29 18:00:00,1.57
2022-08-29 19:00:00,1.12
2022-08-29 20:00:00,0.545
2022-08-29 21:00:00,0.503
2022-08-29 22:00:00,0.562
2022-08-29 23:00:00,0.572
2022-08-30 00:00:00,0.647
2022-08-30 01:00:00,0.805
2022-08-30 02:00:00,0.778
2022-08-30 03:00:00,1.36
2022-08-30 04:00:00,1.84
2022-08-30 05:00:00,1.73
2022-08-30 06:00:00,0.880
2022-08-30 07:00:00,1.06
2022-08-30 08:00:00,1.33
2022-08-30 09:00:00,1.24
2022-08-30 10:00:00,0.850
2022-08-30 11:00:00,2.58
2022-08-30 12:00:00,3.41
2022-08-30 13:00:00,1.75
2022-08-30 14:00:00,1.03
2022-08-30 15:00:00,1.38
2022-08-30 16:00:00,1.25
2022-08-30 17:00:00,0.797
2022-08-30 18:00:00,1.32
2022-08-30 19:00:00,1.14
2022-08-30 20:00:00,0.723
2022-08-30 21:00:00,0.892
2022-08-30 22:00:00,2.48
2022-08-30 23:00:00,2.60
2022-08-31 00:00:00,0.698
2022-08-31 01:00:00,0.950
2022-08-31 02:00:00,2.20
2022-08-31 03:00:00,1.57
2022-08-31 04:00:00,0.965
2022-08-31 05:00:00,0.865
2022-08-31 06:00:00,0.555
2022-08-31 07:00:00,0.993
2022-08-31 08:00:00,1.66
2022-08-31 09:00:00,2.53
2022-08-31 10:00:00,2.73
2022-08-31 11:00:00,3.20
2022-08-31 12:00:00,3.51
2022-08-31 13:00:00,3.02
2022-08-31 14:00:00,2.61
2022-08-31 15:00:00,2.63
2022-08-31 16:00:00,2.35
2022-08-31 17:00:00,2.13
2022-08-31 18:00:00,1.88
2022-08-31 19:00:00,1.11
2022-08-31 20:00:00,0.928
2022-08-31 21:00:00,1.45
2022-08-31 22:00:00,1.50
2022-08-31 23:00:00,0.737
2022-09-01 00:00:00,0.540
2022-09-01 01:00:00,0.460
2022-09-01 02:00:00,0.490
2022-09-01 03:00:00,0.475
2022-09-01 04:00:00,0.545
2022-09-01 05:00:00,1.27
2022-09-01 06:00:00,1.57
2022-09-01 07:00:00,1.81
2022-09-01 08:00:00,1.78
2022-09-01 09:00:00,1.23
2022-09-01 10:00:00,1.16
2022-09-01 11:00:00,1.67
2022-09-01 12:00:00,2.47
2022-09-01 13:00:00,2.75
2022-09-01 14:00:00,2.49
2022-09-01 15:00:00,2.48
2022-09-01 16:00:00,1.68
2022-09-01 17:00:00,1.33
2022-09-01 18:00:00,0.792
2022-09-01 19:00:00,0.647
2022-09-01 20:00:00,0.728
2022-09-01 21:00:00,0.865
2022-09-01 22:00:00,1.16
2022-09-01 23:00:00,1.57
2022-09-02 00:00:00,2.04
2022-09-02 01:00:00,1.82
2022-09-02 02:00:00,2.05
2022-09-02 03:00:00,1.96
2022-09-02 04:00:00,2.05
2022-09-02 05:00:00,1.90
2022-09-02 06:00:00,2.27
2022-09-02 07:00:00,1.89
2022-09-02 08:00:00,1.87
2022-09-02 09:00:00,1.13
2022-09-02 10:00:00,1.07
2022-09-02 11:00:00,1.96
2022-09-02 12:00:00,1.30
2022-09-02 13:00:00,1.51
2022-09-02 14:00:00,1.13
2022-09-02 15:00:00,1.05
2022-09-02 16:00:00,0.993
2022-09-02 17:00:00,0.508
2022-09-02 18:00:00,0.638
2022-09-02 19:00:00,0.430
2022-09-02 20:00:00,2.56
2022-09-02 21:00:00,0.855
2022-09-02 22:00:00,1.81
2022-09-02 23:00:00,1.57
2022-09-03 00:00:00,1.43
2022-09-03 01:00:00,1.87
2022-09-03 02:00:00,1.83
2022-09-03 03:00:00,1.59
2022-09-03 04:00:00,1.10
2022-09-03 05:00:00,1.64
2022-09-03 06:00:00,1.55
2022-09-03 07:00:00,1.63
2022-09-03 08:00:00,0.827
2022-09-03 09:00:00,0.630
2022-09-03 10:00:00,0.958
2022-09-03 11:00:00,1.05
2022-09-03 12:00:00,0.965
2022-09-03 13:00:00,0.913
2022-09-03 14:00:00,1.10
2022-09-03 15:00:00,2.19
2022-09-03 16:00:00,2.30
2022-09-03 17:00:00,2.03
2022-09-03 18:00:00,1.99
2022-09-03 19:00:00,1.95
2022-09-03 20:00:00,0.862
2022-09-03 21:00:00,0.800
2022-09-03 22:00:00,1.37
2022-09-03 23:00:00,1.44
2022-09-04 00:00:00,1.48
2022-09-04 01:00:00,1.43
2022-09-04 02:00:00,1.17
2022-09-04 03:00:00,1.33
2022-09-04 04:00:00,1.21
2022-09-04 05:00:00,1.36
2022-09-04 06:00:00,1.34
2022-09-04 07:00:00,1.65
2022-09-04 08:00:00,1.63
2022-09-04 09:00:00,1.33
2022-09-04 10:00:00,1.15
2022-09-04 11:00:00,0.682
2022-09-04 12:00:00,1.19
2022-09-04 13:00:00,1.59
2022-09-04 14:00:00,1.81
2022-09-04 15:00:00,1.38
2022-09-04 16:00:00,1.34
2022-09-04 17:00:00,0.688
2022-09-04 18:00:00,0.507
2022-09-04 19:00:00,0.653
2022-09-04 20:00:00,0.812
2022-09-04 21:00:00,0.642
2022-09-04 22:00:00,0.550
2022-09-04 23:00:00,0.392
2022-09-05 00:00:00,0.422
2022-09-05 01:00:00,0.473
2022-09-05 02:00:00,0.495
2022-09-05 03:00:00,0.707
2022-09-05 04:00:00,0.702
2022-09-05 05:00:00,1.64
2022-09-05 06:00:00,1.81
2022-09-05 07:00:00,1.55
2022-09-05 08:00:00,1.38
2022-09-05 09:00:00,0.930
2022-09-05 10:00:00,1.45
2022-09-05 11:00:00,2.02
2022-09-05 12:00:00,2.46
2022-09-05 13:00:00,2.22
2022-09-05 14:00:00,2.13
2022-09-05 15:00:00,1.43
2022-09-05 16:00:00,1.40
2022-09-05 17:00:00,1.76
2022-09-05 18:00:00,1.49
2022-09-05 19:00:00,1.05
2022-09-05 20:00:00,0.850
2022-09-05 21:00:00,1.16
2022-09-05 22:00:00,0.727
2022-09-05 23:00:00,0.567
2022-09-06 00:00:00,0.442
2022-09-06 01:00:00,0.497
2022-09-06 02:00:00,0.417
2022-09-06 03:00:00,0.595
2022-09-06 04:00:00,0.947
2022-09-06 05:00:00,1.28
2022-09-06 06:00:00,0.842
2022-09-06 07:00:00,0.708
2022-09-06 08:00:00,1.11
2022-09-06 09:00:00,1.49
2022-09-06 10:00:00,1.37
2022-09-06 11:00:00,2.38
2022-09-06 12:00:00,3.68
2022-09-06 13:00:00,3.26
2022-09-06 14:00:00,3.21
2022-09-06 15:00:00,2.52
2022-09-06 16:00:00,2.30
2022-09-06 17:00:00,1.67
2022-09-06 18:00:00,1.07
2022-09-06 19:00:00,2.62
2022-09-06 20:00:00,1.44
2022-09-06 21:00:00,1.22
2022-09-06 22:00:00,0.675
2022-09-06 23:00:00,0.820
2022-09-07 00:00:00,0.640
2022-09-07 01:00:00,0.790
2022-09-07 02:00:00,0.430
2022-09-07 03:00:00,0.685
2022-09-07 04:00:00,1.44
2022-09-07 05:00:00,1.40
2022-09-07 06:00:00,1.30
2022-09-07 07:00:00,1.18
2022-09-07 08:00:00,0.942
2022-09-07 09:00:00,0.833
2022-09-07 10:00:00,1.14
2022-09-07 11:00:00,2.36
2022-09-07 12:00:00,3.01
2022-09-07 13:00:00,3.12
2022-09-07 14:00:00,2.84
2022-09-07 15:00:00,2.35
2022-09-07 16:00:00,2.18
2022-09-07 17:00:00,2.49
2022-09-07 18:00:00,0.950
2022-09-07 19:00:00,2.50
2022-09-07 20:00:00,2.37
2022-09-07 21:00:00,3.06
2022-09-07 22:00:00,3.80
2022-09-07 23:00:00,1.58
2022-09-08 00:00:00,0.710
2022-09-08 01:00:00,0.875
2022-09-08 02:00:00,0.783
2022-09-08 03:00:00,1.14
2022-09-08 04:00:00,1.73
2022-09-08 05:00:00,0.502
2022-09-08 06:00:00,0.690
2022-09-08 07:00:00,0.513
2022-09-08 08:00:00,0.727
2022-09-08 09:00:00,0.862
2022-09-08 10:00:00,1.36
2022-09-08 11:00:00,1.66
2022-09-08 12:00:00,2.62
2022-09-08 13:00:00,2.62
2022-09-08 14:00:00,2.86
2022-09-08 15:00:00,2.84
2022-09-08 16:00:00,2.07
2022-09-08 17:00:00,1.25
2022-09-08 18:00:00,1.28
2022-09-08 19:00:00,0.760
2022-09-08 20:00:00,0.813
2022-09-08 21:00:00,0.753
2022-09-08 22:00:00,0.640
2022-09-08 23:00:00,1.31
2022-09-09 00:00:00,1.48
2022-09-09 01:00:00,0.793
2022-09-09 02:00:00,0.728
2022-09-09 03:00:00,0.680
2022-09-09 04:00:00,0.547
2022-09-09 05:00:00,0.465
2022-09-09 06:00:00,0.868
2022-09-09 07:00:00,0.942
2022-09-09 08:00:00,0.760
2022-09-09 09:00:00,2.89
2022-09-09 10:00:00,3.28
2022-09-09 11:00:00,3.49
2022-09-09 12:00:00,2.93
2022-09-09 13:00:00,3.11
2022-09-09 14:00:00,2.08
2022-09-09 15:00:00,2.56
2022-09-09 16:00:00,1.87
2022-09-09 17:00:00,1.34
2022-09-09 18:00:00,1.80
2022-09-09 19:00:00,1.09
2022-09-09 20:00:00,3.04
2022-09-09 21:00:00,2.80
2022-09-09 22:00:00,1.91
2022-09-09 23:00:00,0.820
2022-09-10 00:00:00,0.737
2022-09-10 01:00:00,0.685
2022-09-10 02:00:00,0.552
2022-09-10 03:00:00,0.353
2022-09-10 04:00:00,0.668
2022-09-10 05:00:00,0.475
2022-09-10 06:00:00,0.507
2022-09-10 07:00:00,0.508
2022-09-10 08:00:00,0.532
2022-09-10 09:00:00,2.09
2022-09-10 10:00:00,3.14
2022-09-10 11:00:00,3.19
2022-09-10 12:00:00,3.34
2022-09-10 13:00:00,3.51
2022-09-10 14:00:00,3.71
2022-09-10 15:00:00,3.62
2022-09-10 16:00:00,3.26
2022-09-10 17:00:00,2.41
2022-09-10 18:00:00,2.29
2022-09-10 19:00:00,1.43
2022-09-10 20:00:00,1.27
2022-09-10 21:00:00,0.985
2022-09-10 22:00:00,0.452
2022-09-10 23:00:00,0.525
2022-09-11 00:00:00,0.671
2022-09-11 01:00:00,0.613
2022-09-11 02:00:00,0.547
2022-09-11 03:00:00,0.480
2022-09-11 04:00:00,0.447
2022-09-11 05:00:00,0.702
2022-09-11 06:00:00,0.983
2022-09-11 07:00:00,1.47
2022-09-11 08:00:00,1.32
2022-09-11 09:00:00,0.673
2022-09-11 10:00:00,0.990
2022-09-11 11:00:00,1.18
2022-09-11 12:00:00,1.30
2022-09-11 13:00:00,1.63
2022-09-11 14:00:00,2.05
2022-09-11 15:00:00,2.33
2022-09-11 16:00:00,1.70
2022-09-11 17:00:00,1.20
2022-09-11 18:00:00,0.823
2022-09-11 19:00:00,0.765
2022-09-11 20:00:00,0.998
2022-09-11 21:00:00,1.09
2022-09-11 22:00:00,1.17
2022-09-11 23:00:00,1.70
2022-09-12 00:00:00,1.82
2022-09-12 01:00:00,1.70
2022-09-12 02:00:00,1.63
2022-09-12 03:00:00,1.90
2022-09-12 04:00:00,2.06
2022-09-12 05:00:00,1.71
2022-09-12 06:00:00,2.10
2022-09-12 07:00:00,1.92
2022-09-12 08:00:00,1.91
2022-09-12 09:00:00,2.09
2022-09-12 10:00:00,1.45
2022-09-12 11:00:00,0.987
2022-09-12 12:00:00,2.00
2022-09-12 13:00:00,1.87
2022-09-12 14:00:00,2.16
2022-09-12 15:00:00,2.12
2022-09-12 16:00:00,1.73
2022-09-12 17:00:00,1.05
2022-09-12 18:00:00,0.535
2022-09-12 19:00:00,0.813
2022-09-12 20:00:00,0.948
2022-09-12 21:00:00,0.658
2022-09-12 22:00:00,0.598
2022-09-12 23:00:00,0.690
2022-09-13 00:00:00,0.597
2022-09-13 01:00:00,0.873
2022-09-13 02:00:00,1.37
2022-09-13 03:00:00,1.64
2022-09-13 04:00:00,1.57
2022-09-13 05:00:00,1.07
2022-09-13 06:00:00,1.04
2022-09-13 07:00:00,1.39
2022-09-13 08:00:00,1.53
2022-09-13 09:00:00,1.00
2022-09-13 10:00:00,0.695
2022-09-13 11:00:00,1.29
2022-09-13 12:00:00,1.56
2022-09-13 13:00:00,0.929
2022-09-13 14:00:00,1.38
2022-09-13 15:00:00,0.700
2022-09-13 16:00:00,1.02
2022-09-13 17:00:00,2.43
2022-09-13 18:00:00,2.59
2022-09-13 19:00:00,2.46
2022-09-13 20:00:00,1.33
2022-09-13 21:00:00,0.972
2022-09-13 22:00:00,1.72
2022-09-13 23:00:00,2.28
2022-09-14 00:00:00,1.87
2022-09-14 01:00:00,1.86
2022-09-14 02:00:00,0.773
2022-09-14 03:00:00,1.25
2022-09-14 04:00:00,1.74
2022-09-14 05:00:00,1.23
2022-09-14 06:00:00,1.25
2022-09-14 07:00:00,1.00
2022-09-14 08:00:00,1.42
2022-09-14 09:00:00,1.76
2022-09-14 10:00:00,1.07
2022-09-14 11:00:00,1.73
2022-09-14 12:00:00,2.18
2022-09-14 13:00:00,2.08
2022-09-14 14:00:00,2.05
2022-09-14 15:00:00,1.27
2022-09-14 16:00:00,0.888
2022-09-14 17:00:00,1.58
2022-09-14 18:00:00,1.30
2022-09-14 19:00:00,2.71
2022-09-14 20:00:00,4.57
2022-09-14 21:00:00,3.51
2022-09-14 22:00:00,1.58
2022-09-14 23:00:00,1.27
2022-09-15 00:00:00,1.34
2022-09-15 01:00:00,0.930
2022-09-15 02:00:00,1.03
2022-09-15 03:00:00,0.962
2022-09-15 04:00:00,0.748
2022-09-15 05:00:00,0.888
2022-09-15 06:00:00,0.593
2022-09-15 07:00:00,0.707
2022-09-15 08:00:00,1.17
2022-09-15 09:00:00,0.722
2022-09-15 10:00:00,0.947
2022-09-15 11:00:00,0.938
2022-09-15 12:00:00,2.06
2022-09-15 13:00:00,2.64
2022-09-15 14:00:00,2.11
2022-09-15 15:00:00,1.76
2022-09-15 16:00:00,3.64
2022-09-15 17:00:00,1.32
2022-09-15 18:00:00,0.590
2022-09-15 19:00:00,0.588
2022-09-15 20:00:00,0.662
2022-09-15 21:00:00,0.788
2022-09-15 22:00:00,0.672
2022-09-15 23:00:00,0.477
2022-09-16 00:00:00,0.452
2022-09-16 01:00:00,0.585
2022-09-16 02:00:00,1.07
2022-09-16 03:00:00,0.630
2022-09-16 04:00:00,0.692
2022-09-16 05:00:00,0.680
2022-09-16 06:00:00,2.91
2022-09-16 07:00:00,3.23
2022-09-16 08:00:00,3.74
2022-09-16 09:00:00,3.07
2022-09-16 10:00:00,3.30
2022-09-16 11:00:00,4.12
2022-09-16 12:00:00,3.19
2022-09-16 13:00:00,3.95
2022-09-16 14:00:00,4.14
2022-09-16 15:00:00,3.96
2022-09-16 16:00:00,4.17
2022-09-16 17:00:00,3.13
2022-09-16 18:00:00,3.14
2022-09-16 19:00:00,3.03
2022-09-16 20:00:00,3.70
2022-09-16 21:00:00,3.14
2022-09-16 22:00:00,3.03
2022-09-16 23:00:00,3.41
2022-09-17 00:00:00,3.42
2022-09-17 01:00:00,3.33
2022-09-17 02:00:00,3.06
2022-09-17 03:00:00,3.02
2022-09-17 04:00:00,3.25
2022-09-17 05:00:00,3.14
2022-09-17 06:00:00,3.03
2022-09-17 07:00:00,3.61
2022-09-17 08:00:00,4.12
2022-09-17 09:00:00,4.57
2022-09-17 10:00:00,5.24
2022-09-17 11:00:00,4.56
2022-09-17 12:00:00,4.06
2022-09-17 13:00:00,4.52
2022-09-17 14:00:00,4.55
2022-09-17 15:00:00,4.12
2022-09-17 16:00:00,3.22
2022-09-17 17:00:00,3.29
2022-09-17 18:00:00,2.64
2022-09-17 19:00:00,3.00
2022-09-17 20:00:00,3.17
2022-09-17 21:00:00,3.24
2022-09-17 22:00:00,2.81
2022-09-17 23:00:00,2.11
2022-09-18 00:00:00,1.99
2022-09-18 01:00:00,0.775
2022-09-18 02:00:00,0.817
2022-09-18 03:00:00,0.605
2022-09-18 04:00:00,0.553
2022-09-18 05:00:00,0.587
2022-09-18 06:00:00,0.635
2022-09-18 07:00:00,1.61
2022-09-18 08:00:00,1.34
2022-09-18 09:00:00,1.14
2022-09-18 10:00:00,0.922
2022-09-18 11:00:00,1.54
2022-09-18 12:00:00,1.79
2022-09-18 13:00:00,2.77
2022-09-18 14:00:00,2.76
2022-09-18 15:00:00,2.95
2022-09-18 16:00:00,3.00
2022-09-18 17:00:00,2.38
2022-09-18 18:00:00,2.83
2022-09-18 19:00:00,2.31
2022-09-18 20:00:00,1.22
2022-09-18 21:00:00,1.13
2022-09-18 22:00:00,0.723
2022-09-18 23:00:00,0.408
2022-09-19 00:00:00,0.452
2022-09-19 01:00:00,0.408
2022-09-19 02:00:00,0.352
2022-09-19 03:00:00,0.308
2022-09-19 04:00:00,0.417
2022-09-19 05:00:00,0.402
2022-09-19 06:00:00,0.562
2022-09-19 07:00:00,0.670
2022-09-19 08:00:00,0.843
2022-09-19 09:00:00,2.25
2022-09-19 10:00:00,3.02
2022-09-19 11:00:00,3.56
2022-09-19 12:00:00,3.53
2022-09-19 13:00:00,3.77
2022-09-19 14:00:00,4.00
2022-09-19 15:00:00,3.40
2022-09-19 16:00:00,3.82
2022-09-19 17:00:00,3.26
2022-09-19 18:00:00,2.76
2022-09-19 19:00:00,3.09
2022-09-19 20:00:00,3.26
2022-09-19 21:00:00,2.57
2022-09-19 22:00:00,2.02
2022-09-19 23:00:00,0.977
2022-09-20 00:00:00,1.23
2022-09-20 01:00:00,1.03
2022-09-20 02:00:00,0.480
2022-09-20 03:00:00,0.565
2022-09-20 04:00:00,0.615
2022-09-20 05:00:00,0.532
2022-09-20 06:00:00,0.597
2022-09-20 07:00:00,0.883
2022-09-20 08:00:00,0.928
2022-09-20 09:00:00,0.802
2022-09-20 10:00:00,1.47
2022-09-20 11:00:00,1.60
2022-09-20 12:00:00,2.65
2022-09-20 13:00:00,3.31
2022-09-20 14:00:00,3.27
2022-09-20 15:00:00,3.05
2022-09-20 16:00:00,2.88
2022-09-20 17:00:00,2.77
2022-09-20 18:00:00,2.95
2022-09-20 19:00:00,2.68
2022-09-20 20:00:00,2.55
2022-09-20 21:00:00,1.35
2022-09-20 22:00:00,1.47
2022-09-20 23:00:00,0.883
2022-09-21 00:00:00,0.380
2022-09-21 01:00:00,0.488
2022-09-21 02:00:00,0.507
2022-09-21 03:00:00,0.597
2022-09-21 04:00:00,0.707
2022-09-21 05:00:00,0.750
2022-09-21 06:00:00,1.33
2022-09-21 07:00:00,1.47
2022-09-21 08:00:00,1.43
2022-09-21 09:00:00,1.40
2022-09-21 10:00:00,0.817
2022-09-21 11:00:00,2.00
2022-09-21 12:00:00,2.97
2022-09-21 13:00:00,3.40
2022-09-21 14:00:00,3.44
2022-09-21 15:00:00,3.38
2022-09-21 16:00:00,2.72
2022-09-21 17:00:00,2.09
2022-09-21 18:00:00,2.18
2022-09-21 19:00:00,1.64
2022-09-21 20:00:00,1.16
2022-09-21 21:00:00,0.663
2022-09-21 22:00:00,0.442
2022-09-21 23:00:00,0.373
2022-09-22 00:00:00,0.405
2022-09-22 01:00:00,0.353
2022-09-22 02:00:00,0.655
2022-09-22 03:00:00,1.96
2022-09-22 04:00:00,1.85
2022-09-22 05:00:00,1.79
2022-09-22 06:00:00,2.11
2022-09-22 07:00:00,2.22
2022-09-22 08:00:00,1.82
2022-09-22 09:00:00,1.55
2022-09-22 10:00:00,0.792
2022-09-22 11:00:00,1.86
2022-09-22 12:00:00,2.93
2022-09-22 13:00:00,3.21
2022-09-22 14:00:00,2.93
2022-09-22 15:00:00,2.78
2022-09-22 16:00:00,2.08
2022-09-22 17:00:00,1.77
2022-09-22 18:00:00,1.24
2022-09-22 19:00:00,0.562
2022-09-22 20:00:00,0.688
2022-09-22 21:00:00,0.842
2022-09-22 22:00:00,0.873
2022-09-22 23:00:00,0.665
2022-09-23 00:00:00,0.853
2022-09-23 01:00:00,0.797
2022-09-23 02:00:00,0.635
2022-09-23 03:00:00,0.765
2022-09-23 04:00:00,1.20
2022-09-23 05:00:00,1.49
2022-09-23 06:00:00,1.19
2022-09-23 07:00:00,1.17
2022-09-23 08:00:00,1.40
2022-09-23 09:00:00,1.23
2022-09-23 10:00:00,0.920
2022-09-23 11:00:00,1.28
2022-09-23 12:00:00,2.78
2022-09-23 13:00:00,2.42
2022-09-23 14:00:00,2.84
2022-09-23 15:00:00,2.40
2022-09-23 16:00:00,2.37
2022-09-23 17:00:00,2.67
2022-09-23 18:00:00,1.94
2022-09-23 19:00:00,1.55
2022-09-23 20:00:00,1.76
2022-09-23 21:00:00,1.61
2022-09-23 22:00:00,1.82
2022-09-23 23:00:00,1.98
2022-09-24 00:00:00,1.52
2022-09-24 01:00:00,0.873
2022-09-24 02:00:00,0.487
2022-09-24 03:00:00,0.568
2022-09-24 04:00:00,0.500
2022-09-24 05:00:00,1.01
2022-09-24 06:00:00,1.14
2022-09-24 07:00:00,0.662
2022-09-24 08:00:00,0.553
2022-09-24 09:00:00,1.06
2022-09-24 10:00:00,0.640
2022-09-24 11:00:00,0.763
2022-09-24 12:00:00,0.598
2022-09-24 13:00:00,0.960
2022-09-24 14:00:00,1.03
2022-09-24 15:00:00,1.57
2022-09-24 16:00:00,0.685
2022-09-24 17:00:00,1.28
2022-09-24 18:00:00,0.808
2022-09-24 19:00:00,0.737
2022-09-24 20:00:00,1.45
2022-09-24 21:00:00,2.17
2022-09-24 22:00:00,2.07
2022-09-24 23:00:00,1.14
2022-09-25 00:00:00,0.815
2022-09-25 01:00:00,1.15
2022-09-25 02:00:00,0.965
2022-09-25 03:00:00,1.40
2022-09-25 04:00:00,0.680
2022-09-25 05:00:00,0.507
2022-09-25 06:00:00,0.803
2022-09-25 07:00:00,1.24
2022-09-25 08:00:00,1.66
2022-09-25 09:00:00,0.912
2022-09-25 10:00:00,2.19
2022-09-25 11:00:00,2.22
2022-09-25 12:00:00,0.822
2022-09-25 13:00:00,1.07
2022-09-25 14:00:00,1.82
2022-09-25 15:00:00,2.16
2022-09-25 16:00:00,1.78
2022-09-25 17:00:00,1.31
2022-09-25 18:00:00,0.607
2022-09-25 19:00:00,0.358
2022-09-25 20:00:00,0.557
2022-09-25 21:00:00,0.532
2022-09-25 22:00:00,0.385
2022-09-25 23:00:00,0.393
2022-09-26 00:00:00,0.542
2022-09-26 01:00:00,0.548
2022-09-26 02:00:00,0.398
2022-09-26 03:00:00,0.437
2022-09-26 04:00:00,0.440
2022-09-26 05:00:00,0.293
2022-09-26 06:00:00,0.292
2022-09-26 07:00:00,0.467
2022-09-26 08:00:00,0.803
2022-09-26 09:00:00,0.718
2022-09-26 10:00:00,1.37
2022-09-26 11:00:00,2.40
2022-09-26 12:00:00,2.86
2022-09-26 13:00:00,3.33
2022-09-26 14:00:00,3.05
2022-09-26 15:00:00,2.42
2022-09-26 16:00:00,2.37
2022-09-26 17:00:00,1.23
2022-09-26 18:00:00,0.633
2022-09-26 19:00:00,0.672
2022-09-26 20:00:00,0.757
2022-09-26 21:00:00,0.590
2022-09-26 22:00:00,0.995
2022-09-26 23:00:00,0.745
2022-09-27 00:00:00,0.503
2022-09-27 01:00:00,0.683
2022-09-27 02:00:00,1.05
2022-09-27 03:00:00,2.41
2022-09-27 04:00:00,2.07
2022-09-27 05:00:00,1.69
2022-09-27 06:00:00,1.81
2022-09-27 07:00:00,2.19
2022-09-27 08:00:00,1.78
2022-09-27 09:00:00,2.48
2022-09-27 10:00:00,2.56
2022-09-27 11:00:00,2.60
2022-09-27 12:00:00,2.00
2022-09-27 13:00:00,2.12
2022-09-27 14:00:00,0.887
2022-09-27 15:00:00,0.560
2022-09-27 16:00:00,0.920
2022-09-27 17:00:00,0.628
2022-09-27 18:00:00,0.437
2022-09-27 19:00:00,0.297
2022-09-27 20:00:00,0.367
2022-09-27 21:00:00,0.415
2022-09-27 22:00:00,0.670
2022-09-27 23:00:00,0.540

