﻿"Time","Wind Speed"
2022-05-30 23:00:00,
2022-05-31 00:00:00,1.08
2022-05-31 01:00:00,0.868
2022-05-31 02:00:00,1.36
2022-05-31 03:00:00,1.22
2022-05-31 04:00:00,1.23
2022-05-31 05:00:00,1.21
2022-05-31 06:00:00,1.51
2022-05-31 07:00:00,1.34
2022-05-31 08:00:00,1.12
2022-05-31 09:00:00,1.22
2022-05-31 10:00:00,0.965
2022-05-31 11:00:00,1.16
2022-05-31 12:00:00,3.49
2022-05-31 13:00:00,1.15
2022-05-31 14:00:00,1.49
2022-05-31 15:00:00,1.26
2022-05-31 16:00:00,1.33
2022-05-31 17:00:00,1.52
2022-05-31 18:00:00,1.51
2022-05-31 19:00:00,1.54
2022-05-31 20:00:00,1.65
2022-05-31 21:00:00,1.32
2022-05-31 22:00:00,1.40
2022-05-31 23:00:00,1.54
2022-06-01 00:00:00,1.46
2022-06-01 01:00:00,1.37
2022-06-01 02:00:00,1.10
2022-06-01 03:00:00,0.722
2022-06-01 04:00:00,1.09
2022-06-01 05:00:00,1.19
2022-06-01 06:00:00,1.16
2022-06-01 07:00:00,1.14
2022-06-01 08:00:00,0.775
2022-06-01 09:00:00,1.10
2022-06-01 10:00:00,0.993
2022-06-01 11:00:00,0.835
2022-06-01 12:00:00,1.34
2022-06-01 13:00:00,1.69
2022-06-01 14:00:00,1.72
2022-06-01 15:00:00,1.21
2022-06-01 16:00:00,1.04
2022-06-01 17:00:00,0.892
2022-06-01 18:00:00,0.642
2022-06-01 19:00:00,0.995
2022-06-01 20:00:00,0.690
2022-06-01 21:00:00,1.03
2022-06-01 22:00:00,1.07
2022-06-01 23:00:00,0.957
2022-06-02 00:00:00,0.855
2022-06-02 01:00:00,1.80
2022-06-02 02:00:00,2.00
2022-06-02 03:00:00,1.47
2022-06-02 04:00:00,1.75
2022-06-02 05:00:00,1.53
2022-06-02 06:00:00,2.19
2022-06-02 07:00:00,1.57
2022-06-02 08:00:00,1.98
2022-06-02 09:00:00,1.41
2022-06-02 10:00:00,1.73
2022-06-02 11:00:00,1.65
2022-06-02 12:00:00,1.81
2022-06-02 13:00:00,2.30
2022-06-02 14:00:00,1.90
2022-06-02 15:00:00,1.80
2022-06-02 16:00:00,1.01
2022-06-02 17:00:00,0.707
2022-06-02 18:00:00,0.760
2022-06-02 19:00:00,0.643
2022-06-02 20:00:00,0.530
2022-06-02 21:00:00,0.665
2022-06-02 22:00:00,1.67
2022-06-02 23:00:00,1.64
2022-06-03 00:00:00,1.73
2022-06-03 01:00:00,1.94
2022-06-03 02:00:00,1.75
2022-06-03 03:00:00,1.30
2022-06-03 04:00:00,1.75
2022-06-03 05:00:00,1.97
2022-06-03 06:00:00,2.08
2022-06-03 07:00:00,1.50
2022-06-03 08:00:00,1.11
2022-06-03 09:00:00,1.38
2022-06-03 10:00:00,1.12
2022-06-03 11:00:00,1.96
2022-06-03 12:00:00,2.05
2022-06-03 13:00:00,1.70
2022-06-03 14:00:00,1.36
2022-06-03 15:00:00,1.86
2022-06-03 16:00:00,1.19
2022-06-03 17:00:00,0.550
2022-06-03 18:00:00,0.562
2022-06-03 19:00:00,0.858
2022-06-03 20:00:00,0.702
2022-06-03 21:00:00,0.628
2022-06-03 22:00:00,0.517
2022-06-03 23:00:00,0.587
2022-06-04 00:00:00,0.580
2022-06-04 01:00:00,0.708
2022-06-04 02:00:00,0.675
2022-06-04 03:00:00,1.07
2022-06-04 04:00:00,1.36
2022-06-04 05:00:00,1.73
2022-06-04 06:00:00,1.91
2022-06-04 07:00:00,1.03
2022-06-04 08:00:00,0.823
2022-06-04 09:00:00,0.843
2022-06-04 10:00:00,1.96
2022-06-04 11:00:00,1.81
2022-06-04 12:00:00,2.24
2022-06-04 13:00:00,2.73
2022-06-04 14:00:00,2.96
2022-06-04 15:00:00,2.84
2022-06-04 16:00:00,2.72
2022-06-04 17:00:00,2.43
2022-06-04 18:00:00,1.71
2022-06-04 19:00:00,1.15
2022-06-04 20:00:00,0.940
2022-06-04 21:00:00,1.15
2022-06-04 22:00:00,0.647
2022-06-04 23:00:00,1.90
2022-06-05 00:00:00,3.09
2022-06-05 01:00:00,2.56
2022-06-05 02:00:00,2.91
2022-06-05 03:00:00,3.64
2022-06-05 04:00:00,3.46
2022-06-05 05:00:00,2.62
2022-06-05 06:00:00,2.90
2022-06-05 07:00:00,3.24
2022-06-05 08:00:00,3.90
2022-06-05 09:00:00,3.68
2022-06-05 10:00:00,2.97
2022-06-05 11:00:00,1.64
2022-06-05 12:00:00,1.55
2022-06-05 13:00:00,1.29
2022-06-05 14:00:00,1.54
2022-06-05 15:00:00,1.07
2022-06-05 16:00:00,3.39
2022-06-05 17:00:00,2.55
2022-06-05 18:00:00,2.33
2022-06-05 19:00:00,3.22
2022-06-05 20:00:00,2.72
2022-06-05 21:00:00,0.945
2022-06-05 22:00:00,0.455
2022-06-05 23:00:00,0.655
2022-06-06 00:00:00,0.585
2022-06-06 01:00:00,0.582
2022-06-06 02:00:00,0.622
2022-06-06 03:00:00,0.363
2022-06-06 04:00:00,0.438
2022-06-06 05:00:00,0.578
2022-06-06 06:00:00,0.995
2022-06-06 07:00:00,0.963
2022-06-06 08:00:00,0.930
2022-06-06 09:00:00,0.898
2022-06-06 10:00:00,1.09
2022-06-06 11:00:00,2.29
2022-06-06 12:00:00,3.26
2022-06-06 13:00:00,3.72
2022-06-06 14:00:00,2.83
2022-06-06 15:00:00,2.36
2022-06-06 16:00:00,1.79
2022-06-06 17:00:00,1.92
2022-06-06 18:00:00,1.58
2022-06-06 19:00:00,0.640
2022-06-06 20:00:00,2.48
2022-06-06 21:00:00,3.55
2022-06-06 22:00:00,3.53
2022-06-06 23:00:00,2.44
2022-06-07 00:00:00,2.24
2022-06-07 01:00:00,1.53
2022-06-07 02:00:00,2.67
2022-06-07 03:00:00,1.82
2022-06-07 04:00:00,0.838
2022-06-07 05:00:00,0.807
2022-06-07 06:00:00,0.883
2022-06-07 07:00:00,1.08
2022-06-07 08:00:00,2.91
2022-06-07 09:00:00,3.24
2022-06-07 10:00:00,3.16
2022-06-07 11:00:00,3.53
2022-06-07 12:00:00,3.53
2022-06-07 13:00:00,2.94
2022-06-07 14:00:00,3.16
2022-06-07 15:00:00,2.91
2022-06-07 16:00:00,2.76
2022-06-07 17:00:00,2.48
2022-06-07 18:00:00,3.26
2022-06-07 19:00:00,3.12
2022-06-07 20:00:00,2.30
2022-06-07 21:00:00,1.43
2022-06-07 22:00:00,0.778
2022-06-07 23:00:00,0.598
2022-06-08 00:00:00,0.428
2022-06-08 01:00:00,0.552
2022-06-08 02:00:00,1.02
2022-06-08 03:00:00,1.10
2022-06-08 04:00:00,1.70
2022-06-08 05:00:00,1.73
2022-06-08 06:00:00,1.81
2022-06-08 07:00:00,1.74
2022-06-08 08:00:00,1.06
2022-06-08 09:00:00,2.40
2022-06-08 10:00:00,2.64
2022-06-08 11:00:00,1.20
2022-06-08 12:00:00,0.797
2022-06-08 13:00:00,1.16
2022-06-08 14:00:00,0.730
2022-06-08 15:00:00,0.845
2022-06-08 16:00:00,1.00
2022-06-08 17:00:00,1.02
2022-06-08 18:00:00,1.48
2022-06-08 19:00:00,1.59
2022-06-08 20:00:00,1.66
2022-06-08 21:00:00,0.853
2022-06-08 22:00:00,0.595
2022-06-08 23:00:00,1.25
2022-06-09 00:00:00,0.867
2022-06-09 01:00:00,0.962
2022-06-09 02:00:00,2.43
2022-06-09 03:00:00,1.88
2022-06-09 04:00:00,1.73
2022-06-09 05:00:00,1.80
2022-06-09 06:00:00,2.11
2022-06-09 07:00:00,2.34
2022-06-09 08:00:00,2.68
2022-06-09 09:00:00,2.65
2022-06-09 10:00:00,2.61
2022-06-09 11:00:00,2.49
2022-06-09 12:00:00,3.06
2022-06-09 13:00:00,2.80
2022-06-09 14:00:00,2.80
2022-06-09 15:00:00,2.44
2022-06-09 16:00:00,2.81
2022-06-09 17:00:00,2.90
2022-06-09 18:00:00,2.71
2022-06-09 19:00:00,2.49
2022-06-09 20:00:00,3.35
2022-06-09 21:00:00,3.22
2022-06-09 22:00:00,3.42
2022-06-09 23:00:00,3.50
2022-06-10 00:00:00,1.25
2022-06-10 01:00:00,0.837
2022-06-10 02:00:00,0.663
2022-06-10 03:00:00,0.758
2022-06-10 04:00:00,0.412
2022-06-10 05:00:00,0.538
2022-06-10 06:00:00,0.332
2022-06-10 07:00:00,1.01
2022-06-10 08:00:00,2.40
2022-06-10 09:00:00,3.35
2022-06-10 10:00:00,3.69
2022-06-10 11:00:00,3.19
2022-06-10 12:00:00,3.73
2022-06-10 13:00:00,3.98
2022-06-10 14:00:00,3.93
2022-06-10 15:00:00,3.60
2022-06-10 16:00:00,3.49
2022-06-10 17:00:00,3.28
2022-06-10 18:00:00,2.75
2022-06-10 19:00:00,3.42
2022-06-10 20:00:00,2.66
2022-06-10 21:00:00,2.97
2022-06-10 22:00:00,1.61
2022-06-10 23:00:00,0.845
2022-06-11 00:00:00,0.655
2022-06-11 01:00:00,0.537
2022-06-11 02:00:00,0.925
2022-06-11 03:00:00,1.52
2022-06-11 04:00:00,1.58
2022-06-11 05:00:00,1.82
2022-06-11 06:00:00,1.99
2022-06-11 07:00:00,1.90
2022-06-11 08:00:00,1.65
2022-06-11 09:00:00,1.22
2022-06-11 10:00:00,1.84
2022-06-11 11:00:00,2.13
2022-06-11 12:00:00,2.66
2022-06-11 13:00:00,3.01
2022-06-11 14:00:00,2.98
2022-06-11 15:00:00,3.10
2022-06-11 16:00:00,2.53
2022-06-11 17:00:00,2.71
2022-06-11 18:00:00,2.58
2022-06-11 19:00:00,2.34
2022-06-11 20:00:00,2.10
2022-06-11 21:00:00,1.41
2022-06-11 22:00:00,0.560
2022-06-11 23:00:00,0.895
2022-06-12 00:00:00,1.73
2022-06-12 01:00:00,1.71
2022-06-12 02:00:00,1.78
2022-06-12 03:00:00,2.09
2022-06-12 04:00:00,1.75
2022-06-12 05:00:00,1.98
2022-06-12 06:00:00,2.01
2022-06-12 07:00:00,2.07
2022-06-12 08:00:00,1.74
2022-06-12 09:00:00,1.54
2022-06-12 10:00:00,1.08
2022-06-12 11:00:00,1.83
2022-06-12 12:00:00,1.90
2022-06-12 13:00:00,1.52
2022-06-12 14:00:00,2.66
2022-06-12 15:00:00,2.06
2022-06-12 16:00:00,1.57
2022-06-12 17:00:00,2.42
2022-06-12 18:00:00,3.44
2022-06-12 19:00:00,2.05
2022-06-12 20:00:00,0.775
2022-06-12 21:00:00,1.60
2022-06-12 22:00:00,1.20
2022-06-12 23:00:00,0.692
2022-06-13 00:00:00,0.722
2022-06-13 01:00:00,0.877
2022-06-13 02:00:00,0.743
2022-06-13 03:00:00,0.667
2022-06-13 04:00:00,0.728
2022-06-13 05:00:00,0.667
2022-06-13 06:00:00,0.768
2022-06-13 07:00:00,2.04
2022-06-13 08:00:00,3.64
2022-06-13 09:00:00,3.77
2022-06-13 10:00:00,3.51
2022-06-13 11:00:00,4.56
2022-06-13 12:00:00,4.67
2022-06-13 13:00:00,4.07
2022-06-13 14:00:00,4.26
2022-06-13 15:00:00,4.36
2022-06-13 16:00:00,3.82
2022-06-13 17:00:00,4.34
2022-06-13 18:00:00,3.23
2022-06-13 19:00:00,3.15
2022-06-13 20:00:00,3.02
2022-06-13 21:00:00,3.43
2022-06-13 22:00:00,2.95
2022-06-13 23:00:00,2.16
2022-06-14 00:00:00,1.45
2022-06-14 01:00:00,0.657
2022-06-14 02:00:00,0.543
2022-06-14 03:00:00,0.990
2022-06-14 04:00:00,1.17
2022-06-14 05:00:00,1.47
2022-06-14 06:00:00,2.10
2022-06-14 07:00:00,1.83
2022-06-14 08:00:00,1.98
2022-06-14 09:00:00,1.42
2022-06-14 10:00:00,1.31
2022-06-14 11:00:00,1.81
2022-06-14 12:00:00,2.36
2022-06-14 13:00:00,3.27
2022-06-14 14:00:00,2.64
2022-06-14 15:00:00,2.41
2022-06-14 16:00:00,2.30
2022-06-14 17:00:00,1.47
2022-06-14 18:00:00,1.49
2022-06-14 19:00:00,0.458
2022-06-14 20:00:00,0.552
2022-06-14 21:00:00,0.703
2022-06-14 22:00:00,0.807
2022-06-14 23:00:00,0.913
2022-06-15 00:00:00,1.17
2022-06-15 01:00:00,0.812
2022-06-15 02:00:00,0.402
2022-06-15 03:00:00,0.318
2022-06-15 04:00:00,1.30
2022-06-15 05:00:00,1.57
2022-06-15 06:00:00,1.44
2022-06-15 07:00:00,1.19
2022-06-15 08:00:00,1.44
2022-06-15 09:00:00,0.962
2022-06-15 10:00:00,1.12
2022-06-15 11:00:00,1.09
2022-06-15 12:00:00,1.39
2022-06-15 13:00:00,1.04
2022-06-15 14:00:00,1.55
2022-06-15 15:00:00,1.17
2022-06-15 16:00:00,2.21
2022-06-15 17:00:00,2.37
2022-06-15 18:00:00,2.00
2022-06-15 19:00:00,0.565
2022-06-15 20:00:00,0.905
2022-06-15 21:00:00,0.777
2022-06-15 22:00:00,0.972
2022-06-15 23:00:00,1.05
2022-06-16 00:00:00,0.772
2022-06-16 01:00:00,0.775
2022-06-16 02:00:00,0.785
2022-06-16 03:00:00,0.813
2022-06-16 04:00:00,1.05
2022-06-16 05:00:00,0.810
2022-06-16 06:00:00,0.767
2022-06-16 07:00:00,1.29
2022-06-16 08:00:00,0.953
2022-06-16 09:00:00,0.738
2022-06-16 10:00:00,1.54
2022-06-16 11:00:00,2.64
2022-06-16 12:00:00,3.12
2022-06-16 13:00:00,3.25
2022-06-16 14:00:00,3.12
2022-06-16 15:00:00,3.24
2022-06-16 16:00:00,3.17
2022-06-16 17:00:00,3.16
2022-06-16 18:00:00,3.44
2022-06-16 19:00:00,3.16
2022-06-16 20:00:00,2.85
2022-06-16 21:00:00,2.40
2022-06-16 22:00:00,1.95
2022-06-16 23:00:00,1.51
2022-06-17 00:00:00,1.32
2022-06-17 01:00:00,0.442
2022-06-17 02:00:00,0.430
2022-06-17 03:00:00,0.455
2022-06-17 04:00:00,0.693
2022-06-17 05:00:00,1.45
2022-06-17 06:00:00,1.30
2022-06-17 07:00:00,0.964
2022-06-17 08:00:00,0.635
2022-06-17 09:00:00,0.813
2022-06-17 10:00:00,1.67
2022-06-17 11:00:00,2.85
2022-06-17 12:00:00,3.45
2022-06-17 13:00:00,3.30
2022-06-17 14:00:00,3.01
2022-06-17 15:00:00,2.98
2022-06-17 16:00:00,3.41
2022-06-17 17:00:00,2.93
2022-06-17 18:00:00,2.41
2022-06-17 19:00:00,2.86
2022-06-17 20:00:00,3.10
2022-06-17 21:00:00,1.23
2022-06-17 22:00:00,0.650
2022-06-17 23:00:00,0.568
2022-06-18 00:00:00,0.942
2022-06-18 01:00:00,1.33
2022-06-18 02:00:00,1.61
2022-06-18 03:00:00,1.63
2022-06-18 04:00:00,2.07
2022-06-18 05:00:00,1.35
2022-06-18 06:00:00,1.39
2022-06-18 07:00:00,1.57
2022-06-18 08:00:00,1.43
2022-06-18 09:00:00,1.08
2022-06-18 10:00:00,1.48
2022-06-18 11:00:00,2.17
2022-06-18 12:00:00,3.20
2022-06-18 13:00:00,3.83
2022-06-18 14:00:00,3.40
2022-06-18 15:00:00,4.25
2022-06-18 16:00:00,3.37
2022-06-18 17:00:00,2.36
2022-06-18 18:00:00,1.41
2022-06-18 19:00:00,1.01
2022-06-18 20:00:00,0.760
2022-06-18 21:00:00,0.680
2022-06-18 22:00:00,0.802
2022-06-18 23:00:00,0.717
2022-06-19 00:00:00,0.772
2022-06-19 01:00:00,0.638
2022-06-19 02:00:00,0.843
2022-06-19 03:00:00,0.838
2022-06-19 04:00:00,0.787
2022-06-19 05:00:00,0.927
2022-06-19 06:00:00,1.44
2022-06-19 07:00:00,1.56
2022-06-19 08:00:00,2.36
2022-06-19 09:00:00,2.77
2022-06-19 10:00:00,3.15
2022-06-19 11:00:00,2.92
2022-06-19 12:00:00,3.43
2022-06-19 13:00:00,3.20
2022-06-19 14:00:00,2.68
2022-06-19 15:00:00,2.76
2022-06-19 16:00:00,2.16
2022-06-19 17:00:00,1.70
2022-06-19 18:00:00,2.04
2022-06-19 19:00:00,1.79
2022-06-19 20:00:00,2.73
2022-06-19 21:00:00,2.06
2022-06-19 22:00:00,1.73
2022-06-19 23:00:00,2.50
2022-06-20 00:00:00,2.76
2022-06-20 01:00:00,1.87
2022-06-20 02:00:00,1.65
2022-06-20 03:00:00,2.18
2022-06-20 04:00:00,2.02
2022-06-20 05:00:00,1.50
2022-06-20 06:00:00,2.01
2022-06-20 07:00:00,2.40
2022-06-20 08:00:00,3.31
2022-06-20 09:00:00,3.54
2022-06-20 10:00:00,3.87
2022-06-20 11:00:00,3.93
2022-06-20 12:00:00,4.10
2022-06-20 13:00:00,4.01
2022-06-20 14:00:00,4.28
2022-06-20 15:00:00,4.16
2022-06-20 16:00:00,3.79
2022-06-20 17:00:00,3.47
2022-06-20 18:00:00,3.34
2022-06-20 19:00:00,2.93
2022-06-20 20:00:00,2.38
2022-06-20 21:00:00,1.80
2022-06-20 22:00:00,1.46
2022-06-20 23:00:00,1.48
2022-06-21 00:00:00,1.53
2022-06-21 01:00:00,1.15
2022-06-21 02:00:00,0.885
2022-06-21 03:00:00,2.22
2022-06-21 04:00:00,1.74
2022-06-21 05:00:00,0.770
2022-06-21 06:00:00,0.487
2022-06-21 07:00:00,1.26
2022-06-21 08:00:00,1.09
2022-06-21 09:00:00,0.992
2022-06-21 10:00:00,2.47
2022-06-21 11:00:00,2.74
2022-06-21 12:00:00,2.99
2022-06-21 13:00:00,3.09
2022-06-21 14:00:00,3.21
2022-06-21 15:00:00,2.68
2022-06-21 16:00:00,4.21
2022-06-21 17:00:00,3.22
2022-06-21 18:00:00,2.33
2022-06-21 19:00:00,1.78
2022-06-21 20:00:00,1.25
2022-06-21 21:00:00,0.682
2022-06-21 22:00:00,0.840
2022-06-21 23:00:00,1.77
2022-06-22 00:00:00,0.655
2022-06-22 01:00:00,0.715
2022-06-22 02:00:00,0.735
2022-06-22 03:00:00,0.473
2022-06-22 04:00:00,0.885
2022-06-22 05:00:00,0.973
2022-06-22 06:00:00,1.78
2022-06-22 07:00:00,1.97
2022-06-22 08:00:00,2.18
2022-06-22 09:00:00,1.41
2022-06-22 10:00:00,1.31
2022-06-22 11:00:00,1.23
2022-06-22 12:00:00,2.15
2022-06-22 13:00:00,1.60
2022-06-22 14:00:00,2.63
2022-06-22 15:00:00,2.63
2022-06-22 16:00:00,2.20
2022-06-22 17:00:00,1.81
2022-06-22 18:00:00,2.01
2022-06-22 19:00:00,3.49
2022-06-22 20:00:00,4.77
2022-06-22 21:00:00,2.02
2022-06-22 22:00:00,0.735
2022-06-22 23:00:00,0.958
2022-06-23 00:00:00,0.895
2022-06-23 01:00:00,1.39
2022-06-23 02:00:00,1.64
2022-06-23 03:00:00,1.33
2022-06-23 04:00:00,1.54
2022-06-23 05:00:00,1.95
2022-06-23 06:00:00,1.94
2022-06-23 07:00:00,2.19
2022-06-23 08:00:00,1.67
2022-06-23 09:00:00,1.08
2022-06-23 10:00:00,1.58
2022-06-23 11:00:00,1.08
2022-06-23 12:00:00,2.28
2022-06-23 13:00:00,2.59
2022-06-23 14:00:00,3.21
2022-06-23 15:00:00,1.31
2022-06-23 16:00:00,1.94
2022-06-23 17:00:00,1.10
2022-06-23 18:00:00,2.28
2022-06-23 19:00:00,1.41
2022-06-23 20:00:00,0.858
2022-06-23 21:00:00,0.717
2022-06-23 22:00:00,0.672
2022-06-23 23:00:00,1.39
2022-06-24 00:00:00,0.510
2022-06-24 01:00:00,0.443
2022-06-24 02:00:00,0.682
2022-06-24 03:00:00,1.09
2022-06-24 04:00:00,0.892
2022-06-24 05:00:00,0.893
2022-06-24 06:00:00,0.940
2022-06-24 07:00:00,0.768
2022-06-24 08:00:00,1.40
2022-06-24 09:00:00,1.50
2022-06-24 10:00:00,1.50
2022-06-24 11:00:00,1.50
2022-06-24 12:00:00,1.50
2022-06-24 13:00:00,1.50
2022-06-24 14:00:00,1.50
2022-06-24 15:00:00,1.50
2022-06-24 16:00:00,1.50
2022-06-24 17:00:00,1.50
2022-06-24 18:00:00,1.50
2022-06-24 19:00:00,1.50
2022-06-24 20:00:00,1.50
2022-06-24 21:00:00,1.50
2022-06-24 22:00:00,1.50
2022-06-24 23:00:00,1.50
2022-06-25 00:00:00,1.50
2022-06-25 01:00:00,1.50
2022-06-25 02:00:00,1.50
2022-06-25 03:00:00,1.50
2022-06-25 04:00:00,1.50
2022-06-25 05:00:00,1.50
2022-06-25 06:00:00,1.50
2022-06-25 07:00:00,1.50
2022-06-25 08:00:00,1.50
2022-06-25 09:00:00,1.50
2022-06-25 10:00:00,1.50
2022-06-25 11:00:00,1.50
2022-06-25 12:00:00,1.50
2022-06-25 13:00:00,1.50
2022-06-25 14:00:00,1.50
2022-06-25 15:00:00,1.50
2022-06-25 16:00:00,1.50
2022-06-25 17:00:00,1.50
2022-06-25 18:00:00,1.50
2022-06-25 19:00:00,1.50
2022-06-25 20:00:00,1.50
2022-06-25 21:00:00,1.50
2022-06-25 22:00:00,1.50
2022-06-25 23:00:00,1.50
2022-06-26 00:00:00,1.50
2022-06-26 01:00:00,1.50
2022-06-26 02:00:00,1.50
2022-06-26 03:00:00,1.50
2022-06-26 04:00:00,1.50
2022-06-26 05:00:00,1.50
2022-06-26 06:00:00,1.50
2022-06-26 07:00:00,1.50
2022-06-26 08:00:00,1.50
2022-06-26 09:00:00,1.50
2022-06-26 10:00:00,1.50
2022-06-26 11:00:00,1.50
2022-06-26 12:00:00,1.50
2022-06-26 13:00:00,1.50
2022-06-26 14:00:00,1.50
2022-06-26 15:00:00,1.50
2022-06-26 16:00:00,1.50
2022-06-26 17:00:00,1.50
2022-06-26 18:00:00,1.50
2022-06-26 19:00:00,1.50
2022-06-26 20:00:00,1.50
2022-06-26 21:00:00,1.50
2022-06-26 22:00:00,1.50
2022-06-26 23:00:00,1.50
2022-06-27 00:00:00,1.50
2022-06-27 01:00:00,1.50
2022-06-27 02:00:00,1.50
2022-06-27 03:00:00,1.50
2022-06-27 04:00:00,1.50
2022-06-27 05:00:00,1.50
2022-06-27 06:00:00,1.50
2022-06-27 07:00:00,1.50
2022-06-27 08:00:00,1.50
2022-06-27 09:00:00,1.50
2022-06-27 10:00:00,1.50
2022-06-27 11:00:00,1.50
2022-06-27 12:00:00,1.50
2022-06-27 13:00:00,1.50
2022-06-27 14:00:00,1.50
2022-06-27 15:00:00,1.50
2022-06-27 16:00:00,1.50
2022-06-27 17:00:00,1.50
2022-06-27 18:00:00,1.50
2022-06-27 19:00:00,1.50
2022-06-27 20:00:00,1.50
2022-06-27 21:00:00,1.50
2022-06-27 22:00:00,1.50
2022-06-27 23:00:00,1.50
2022-06-28 00:00:00,1.50
2022-06-28 01:00:00,1.50
2022-06-28 02:00:00,1.50
2022-06-28 03:00:00,1.50
2022-06-28 04:00:00,1.50
2022-06-28 05:00:00,1.50
2022-06-28 06:00:00,1.50
2022-06-28 07:00:00,1.50
2022-06-28 08:00:00,1.50
2022-06-28 09:00:00,1.50
2022-06-28 10:00:00,1.50
2022-06-28 11:00:00,1.50
2022-06-28 12:00:00,1.50
2022-06-28 13:00:00,1.50
2022-06-28 14:00:00,1.50
2022-06-28 15:00:00,1.50
2022-06-28 16:00:00,1.50
2022-06-28 17:00:00,1.50
2022-06-28 18:00:00,1.50
2022-06-28 19:00:00,1.50
2022-06-28 20:00:00,1.50
2022-06-28 21:00:00,1.50
2022-06-28 22:00:00,1.50
2022-06-28 23:00:00,1.50
2022-06-29 00:00:00,1.50
2022-06-29 01:00:00,1.50
2022-06-29 02:00:00,1.50
2022-06-29 03:00:00,1.50
2022-06-29 04:00:00,1.50
2022-06-29 05:00:00,1.50
2022-06-29 06:00:00,1.50
2022-06-29 07:00:00,1.50
2022-06-29 08:00:00,1.50
2022-06-29 09:00:00,1.50
2022-06-29 10:00:00,1.50
2022-06-29 11:00:00,1.50
2022-06-29 12:00:00,1.50
2022-06-29 13:00:00,1.50
2022-06-29 14:00:00,1.50
2022-06-29 15:00:00,1.50
2022-06-29 16:00:00,1.50
2022-06-29 17:00:00,1.50
2022-06-29 18:00:00,1.50
2022-06-29 19:00:00,1.50
2022-06-29 20:00:00,1.50
2022-06-29 21:00:00,1.50
2022-06-29 22:00:00,1.50
2022-06-29 23:00:00,1.50

