﻿"Time","Wind Speed"
2022-04-01 00:00:00,2.45
2022-04-01 01:00:00,1.75
2022-04-01 02:00:00,1.89
2022-04-01 03:00:00,2.09
2022-04-01 04:00:00,4.13
2022-04-01 05:00:00,4.35
2022-04-01 06:00:00,5.50
2022-04-01 07:00:00,4.37
2022-04-01 08:00:00,3.56
2022-04-01 09:00:00,4.06
2022-04-01 10:00:00,4.34
2022-04-01 11:00:00,3.54
2022-04-01 12:00:00,3.60
2022-04-01 13:00:00,4.10
2022-04-01 14:00:00,3.74
2022-04-01 15:00:00,3.31
2022-04-01 16:00:00,2.54
2022-04-01 17:00:00,2.75
2022-04-01 18:00:00,3.04
2022-04-01 19:00:00,2.62
2022-04-01 20:00:00,3.00
2022-04-01 21:00:00,3.18
2022-04-01 22:00:00,3.63
2022-04-01 23:00:00,3.37
2022-04-02 00:00:00,3.45
2022-04-02 01:00:00,3.11
2022-04-02 02:00:00,3.69
2022-04-02 03:00:00,2.74
2022-04-02 04:00:00,3.40
2022-04-02 05:00:00,3.78
2022-04-02 06:00:00,3.38
2022-04-02 07:00:00,3.20
2022-04-02 08:00:00,3.40
2022-04-02 09:00:00,3.23
2022-04-02 10:00:00,3.14
2022-04-02 11:00:00,3.17
2022-04-02 12:00:00,3.87
2022-04-02 13:00:00,3.43
2022-04-02 14:00:00,3.26
2022-04-02 15:00:00,3.04
2022-04-02 16:00:00,3.36
2022-04-02 17:00:00,2.98
2022-04-02 18:00:00,2.89
2022-04-02 19:00:00,3.15
2022-04-02 20:00:00,2.76
2022-04-02 21:00:00,3.00
2022-04-02 22:00:00,2.89
2022-04-02 23:00:00,3.03
2022-04-03 00:00:00,2.48
2022-04-03 01:00:00,2.78
2022-04-03 02:00:00,3.23
2022-04-03 03:00:00,2.60
2022-04-03 04:00:00,2.60
2022-04-03 05:00:00,2.61
2022-04-03 06:00:00,2.32
2022-04-03 07:00:00,2.46
2022-04-03 08:00:00,2.19
2022-04-03 09:00:00,1.97
2022-04-03 10:00:00,1.87
2022-04-03 11:00:00,1.86
2022-04-03 12:00:00,1.39
2022-04-03 13:00:00,1.67
2022-04-03 14:00:00,2.25
2022-04-03 15:00:00,2.53
2022-04-03 16:00:00,2.08
2022-04-03 17:00:00,2.07
2022-04-03 18:00:00,2.26
2022-04-03 19:00:00,2.62
2022-04-03 20:00:00,2.02
2022-04-03 21:00:00,2.44
2022-04-03 22:00:00,2.40
2022-04-03 23:00:00,2.24
2022-04-04 00:00:00,2.72
2022-04-04 01:00:00,2.13
2022-04-04 02:00:00,2.18
2022-04-04 03:00:00,2.17
2022-04-04 04:00:00,2.32
2022-04-04 05:00:00,1.89
2022-04-04 06:00:00,1.65
2022-04-04 07:00:00,1.94
2022-04-04 08:00:00,1.76
2022-04-04 09:00:00,1.18
2022-04-04 10:00:00,1.02
2022-04-04 11:00:00,1.15
2022-04-04 12:00:00,1.10
2022-04-04 13:00:00,2.38
2022-04-04 14:00:00,2.49
2022-04-04 15:00:00,2.78
2022-04-04 16:00:00,2.86
2022-04-04 17:00:00,2.37
2022-04-04 18:00:00,2.43
2022-04-04 19:00:00,2.35
2022-04-04 20:00:00,1.33
2022-04-04 21:00:00,0.708
2022-04-04 22:00:00,0.558
2022-04-04 23:00:00,0.392
2022-04-05 00:00:00,0.542
2022-04-05 01:00:00,0.608
2022-04-05 02:00:00,0.730
2022-04-05 03:00:00,0.733
2022-04-05 04:00:00,0.655
2022-04-05 05:00:00,0.677
2022-04-05 06:00:00,0.962
2022-04-05 07:00:00,0.840
2022-04-05 08:00:00,1.16
2022-04-05 09:00:00,0.885
2022-04-05 10:00:00,1.67
2022-04-05 11:00:00,2.14
2022-04-05 12:00:00,2.01
2022-04-05 13:00:00,2.79
2022-04-05 14:00:00,2.74
2022-04-05 15:00:00,2.73
2022-04-05 16:00:00,2.94
2022-04-05 17:00:00,2.32
2022-04-05 18:00:00,2.17
2022-04-05 19:00:00,2.55
2022-04-05 20:00:00,2.26
2022-04-05 21:00:00,1.08
2022-04-05 22:00:00,0.453
2022-04-05 23:00:00,0.523
2022-04-06 00:00:00,0.593
2022-04-06 01:00:00,0.515
2022-04-06 02:00:00,0.678
2022-04-06 03:00:00,0.800
2022-04-06 04:00:00,0.765
2022-04-06 05:00:00,0.835
2022-04-06 06:00:00,0.932
2022-04-06 07:00:00,0.942
2022-04-06 08:00:00,0.692
2022-04-06 09:00:00,0.927
2022-04-06 10:00:00,2.23
2022-04-06 11:00:00,3.71
2022-04-06 12:00:00,4.13
2022-04-06 13:00:00,4.58
2022-04-06 14:00:00,4.07
2022-04-06 15:00:00,2.88
2022-04-06 16:00:00,2.30
2022-04-06 17:00:00,2.30
2022-04-06 18:00:00,1.79
2022-04-06 19:00:00,2.08
2022-04-06 20:00:00,1.85
2022-04-06 21:00:00,1.54
2022-04-06 22:00:00,1.98
2022-04-06 23:00:00,2.33
2022-04-07 00:00:00,2.06
2022-04-07 01:00:00,0.985
2022-04-07 02:00:00,0.883
2022-04-07 03:00:00,0.763
2022-04-07 04:00:00,0.792
2022-04-07 05:00:00,0.843
2022-04-07 06:00:00,0.740
2022-04-07 07:00:00,0.538
2022-04-07 08:00:00,0.750
2022-04-07 09:00:00,0.653
2022-04-07 10:00:00,0.853
2022-04-07 11:00:00,1.26
2022-04-07 12:00:00,0.840
2022-04-07 13:00:00,1.04
2022-04-07 14:00:00,1.05
2022-04-07 15:00:00,0.850
2022-04-07 16:00:00,0.935
2022-04-07 17:00:00,0.937
2022-04-07 18:00:00,1.01
2022-04-07 19:00:00,1.09
2022-04-07 20:00:00,1.04
2022-04-07 21:00:00,1.01
2022-04-07 22:00:00,1.11
2022-04-07 23:00:00,0.738
2022-04-08 00:00:00,0.702
2022-04-08 01:00:00,1.06
2022-04-08 02:00:00,1.02
2022-04-08 03:00:00,1.17
2022-04-08 04:00:00,0.963
2022-04-08 05:00:00,0.890
2022-04-08 06:00:00,0.758
2022-04-08 07:00:00,1.000
2022-04-08 08:00:00,1.00
2022-04-08 09:00:00,1.13
2022-04-08 10:00:00,0.810
2022-04-08 11:00:00,0.660
2022-04-08 12:00:00,0.917
2022-04-08 13:00:00,1.11
2022-04-08 14:00:00,1.02
2022-04-08 15:00:00,0.967
2022-04-08 16:00:00,1.79
2022-04-08 17:00:00,0.925
2022-04-08 18:00:00,1.14
2022-04-08 19:00:00,1.11
2022-04-08 20:00:00,1.16
2022-04-08 21:00:00,0.988
2022-04-08 22:00:00,2.37
2022-04-08 23:00:00,2.87
2022-04-09 00:00:00,3.03
2022-04-09 01:00:00,3.06
2022-04-09 02:00:00,5.18
2022-04-09 03:00:00,4.61
2022-04-09 04:00:00,4.50
2022-04-09 05:00:00,3.71
2022-04-09 06:00:00,3.25
2022-04-09 07:00:00,3.63
2022-04-09 08:00:00,3.84
2022-04-09 09:00:00,3.70
2022-04-09 10:00:00,3.71
2022-04-09 11:00:00,3.24
2022-04-09 12:00:00,3.10
2022-04-09 13:00:00,2.87
2022-04-09 14:00:00,1.92
2022-04-09 15:00:00,2.48
2022-04-09 16:00:00,2.35
2022-04-09 17:00:00,0.738
2022-04-09 18:00:00,1.08
2022-04-09 19:00:00,2.11
2022-04-09 20:00:00,1.73
2022-04-09 21:00:00,1.59
2022-04-09 22:00:00,0.680
2022-04-09 23:00:00,0.572
2022-04-10 00:00:00,0.650
2022-04-10 01:00:00,0.432
2022-04-10 02:00:00,0.462
2022-04-10 03:00:00,0.585
2022-04-10 04:00:00,0.693
2022-04-10 05:00:00,0.595
2022-04-10 06:00:00,0.840
2022-04-10 07:00:00,1.34
2022-04-10 08:00:00,1.52
2022-04-10 09:00:00,1.71
2022-04-10 10:00:00,1.59
2022-04-10 11:00:00,1.41
2022-04-10 12:00:00,1.02
2022-04-10 13:00:00,1.29
2022-04-10 14:00:00,1.40
2022-04-10 15:00:00,1.29
2022-04-10 16:00:00,1.46
2022-04-10 17:00:00,1.52
2022-04-10 18:00:00,0.755
2022-04-10 19:00:00,0.620
2022-04-10 20:00:00,1.08
2022-04-10 21:00:00,1.72
2022-04-10 22:00:00,1.81
2022-04-10 23:00:00,1.76
2022-04-11 00:00:00,1.36
2022-04-11 01:00:00,1.12
2022-04-11 02:00:00,0.732
2022-04-11 03:00:00,1.61
2022-04-11 04:00:00,1.32
2022-04-11 05:00:00,0.853
2022-04-11 06:00:00,1.26
2022-04-11 07:00:00,0.688
2022-04-11 08:00:00,1.04
2022-04-11 09:00:00,2.06
2022-04-11 10:00:00,3.08
2022-04-11 11:00:00,2.50
2022-04-11 12:00:00,3.08
2022-04-11 13:00:00,3.70
2022-04-11 14:00:00,3.38
2022-04-11 15:00:00,3.13
2022-04-11 16:00:00,2.73
2022-04-11 17:00:00,2.80
2022-04-11 18:00:00,3.18
2022-04-11 19:00:00,2.88
2022-04-11 20:00:00,2.88
2022-04-11 21:00:00,2.41
2022-04-11 22:00:00,1.77
2022-04-11 23:00:00,1.76
2022-04-12 00:00:00,1.07
2022-04-12 01:00:00,0.930
2022-04-12 02:00:00,0.782
2022-04-12 03:00:00,0.668
2022-04-12 04:00:00,0.700
2022-04-12 05:00:00,0.687
2022-04-12 06:00:00,1.41
2022-04-12 07:00:00,2.16
2022-04-12 08:00:00,1.63
2022-04-12 09:00:00,2.37
2022-04-12 10:00:00,3.52
2022-04-12 11:00:00,3.83
2022-04-12 12:00:00,3.45
2022-04-12 13:00:00,3.33
2022-04-12 14:00:00,3.26
2022-04-12 15:00:00,3.19
2022-04-12 16:00:00,2.48
2022-04-12 17:00:00,1.67
2022-04-12 18:00:00,0.918
2022-04-12 19:00:00,0.577
2022-04-12 20:00:00,1.74
2022-04-12 21:00:00,2.36
2022-04-12 22:00:00,2.42
2022-04-12 23:00:00,1.62
2022-04-13 00:00:00,0.402
2022-04-13 01:00:00,0.500
2022-04-13 02:00:00,2.04
2022-04-13 03:00:00,2.14
2022-04-13 04:00:00,0.887
2022-04-13 05:00:00,0.388
2022-04-13 06:00:00,0.533
2022-04-13 07:00:00,1.06
2022-04-13 08:00:00,2.30
2022-04-13 09:00:00,2.19
2022-04-13 10:00:00,2.50
2022-04-13 11:00:00,2.67
2022-04-13 12:00:00,3.60
2022-04-13 13:00:00,3.98
2022-04-13 14:00:00,3.98
2022-04-13 15:00:00,3.94
2022-04-13 16:00:00,3.88
2022-04-13 17:00:00,3.53
2022-04-13 18:00:00,2.88
2022-04-13 19:00:00,2.53
2022-04-13 20:00:00,2.56
2022-04-13 21:00:00,2.68
2022-04-13 22:00:00,2.59
2022-04-13 23:00:00,1.67
2022-04-14 00:00:00,0.603
2022-04-14 01:00:00,0.382
2022-04-14 02:00:00,0.543
2022-04-14 03:00:00,0.515
2022-04-14 04:00:00,0.515
2022-04-14 05:00:00,0.522
2022-04-14 06:00:00,0.625
2022-04-14 07:00:00,0.580
2022-04-14 08:00:00,0.832
2022-04-14 09:00:00,1.18
2022-04-14 10:00:00,1.35
2022-04-14 11:00:00,2.27
2022-04-14 12:00:00,3.03
2022-04-14 13:00:00,3.25
2022-04-14 14:00:00,3.56
2022-04-14 15:00:00,3.95
2022-04-14 16:00:00,3.81
2022-04-14 17:00:00,3.21
2022-04-14 18:00:00,2.97
2022-04-14 19:00:00,2.54
2022-04-14 20:00:00,2.49
2022-04-14 21:00:00,2.89
2022-04-14 22:00:00,2.47
2022-04-14 23:00:00,1.25
2022-04-15 00:00:00,0.417
2022-04-15 01:00:00,0.568
2022-04-15 02:00:00,0.385
2022-04-15 03:00:00,0.392
2022-04-15 04:00:00,0.523
2022-04-15 05:00:00,0.343
2022-04-15 06:00:00,0.487
2022-04-15 07:00:00,0.518
2022-04-15 08:00:00,0.968
2022-04-15 09:00:00,1.27
2022-04-15 10:00:00,2.07
2022-04-15 11:00:00,2.84
2022-04-15 12:00:00,3.47
2022-04-15 13:00:00,3.82
2022-04-15 14:00:00,4.02
2022-04-15 15:00:00,3.88
2022-04-15 16:00:00,4.07
2022-04-15 17:00:00,3.77
2022-04-15 18:00:00,3.33
2022-04-15 19:00:00,3.09
2022-04-15 20:00:00,3.05
2022-04-15 21:00:00,3.17
2022-04-15 22:00:00,2.90
2022-04-15 23:00:00,2.89
2022-04-16 00:00:00,2.42
2022-04-16 01:00:00,0.813
2022-04-16 02:00:00,1.33
2022-04-16 03:00:00,0.482
2022-04-16 04:00:00,0.222
2022-04-16 05:00:00,0.398
2022-04-16 06:00:00,0.495
2022-04-16 07:00:00,0.787
2022-04-16 08:00:00,1.10
2022-04-16 09:00:00,2.16
2022-04-16 10:00:00,3.35
2022-04-16 11:00:00,3.53
2022-04-16 12:00:00,4.25
2022-04-16 13:00:00,4.77
2022-04-16 14:00:00,4.51
2022-04-16 15:00:00,4.20
2022-04-16 16:00:00,4.26
2022-04-16 17:00:00,3.45
2022-04-16 18:00:00,2.73
2022-04-16 19:00:00,3.13
2022-04-16 20:00:00,2.57
2022-04-16 21:00:00,2.37
2022-04-16 22:00:00,2.14
2022-04-16 23:00:00,0.668
2022-04-17 00:00:00,0.518
2022-04-17 01:00:00,0.472
2022-04-17 02:00:00,0.632
2022-04-17 03:00:00,0.737
2022-04-17 04:00:00,0.544
2022-04-17 05:00:00,0.617
2022-04-17 06:00:00,0.597
2022-04-17 07:00:00,1.21
2022-04-17 08:00:00,1.20
2022-04-17 09:00:00,1.26
2022-04-17 10:00:00,1.55
2022-04-17 11:00:00,2.26
2022-04-17 12:00:00,3.13
2022-04-17 13:00:00,3.16
2022-04-17 14:00:00,3.55
2022-04-17 15:00:00,3.52
2022-04-17 16:00:00,2.99
2022-04-17 17:00:00,3.12
2022-04-17 18:00:00,2.66
2022-04-17 19:00:00,2.97
2022-04-17 20:00:00,2.63
2022-04-17 21:00:00,1.67
2022-04-17 22:00:00,0.500
2022-04-17 23:00:00,0.513
2022-04-18 00:00:00,0.618
2022-04-18 01:00:00,0.797
2022-04-18 02:00:00,1.24
2022-04-18 03:00:00,1.42
2022-04-18 04:00:00,1.50
2022-04-18 05:00:00,1.97
2022-04-18 06:00:00,1.96
2022-04-18 07:00:00,1.79
2022-04-18 08:00:00,1.61
2022-04-18 09:00:00,0.998
2022-04-18 10:00:00,1.42
2022-04-18 11:00:00,2.90
2022-04-18 12:00:00,3.35
2022-04-18 13:00:00,3.62
2022-04-18 14:00:00,3.55
2022-04-18 15:00:00,3.37
2022-04-18 16:00:00,3.52
2022-04-18 17:00:00,2.63
2022-04-18 18:00:00,2.85
2022-04-18 19:00:00,2.39
2022-04-18 20:00:00,2.03
2022-04-18 21:00:00,2.33
2022-04-18 22:00:00,0.597
2022-04-18 23:00:00,0.465
2022-04-19 00:00:00,0.517
2022-04-19 01:00:00,0.462
2022-04-19 02:00:00,0.555
2022-04-19 03:00:00,0.815
2022-04-19 04:00:00,0.653
2022-04-19 05:00:00,0.830
2022-04-19 06:00:00,0.520
2022-04-19 07:00:00,0.580
2022-04-19 08:00:00,0.767
2022-04-19 09:00:00,0.910
2022-04-19 10:00:00,2.46
2022-04-19 11:00:00,3.06
2022-04-19 12:00:00,3.64
2022-04-19 13:00:00,3.57
2022-04-19 14:00:00,3.63
2022-04-19 15:00:00,3.44
2022-04-19 16:00:00,3.50
2022-04-19 17:00:00,3.08
2022-04-19 18:00:00,2.98
2022-04-19 19:00:00,2.66
2022-04-19 20:00:00,2.13
2022-04-19 21:00:00,1.60
2022-04-19 22:00:00,0.598
2022-04-19 23:00:00,0.708
2022-04-20 00:00:00,0.793
2022-04-20 01:00:00,0.833
2022-04-20 02:00:00,0.758
2022-04-20 03:00:00,1.32
2022-04-20 04:00:00,1.72
2022-04-20 05:00:00,1.90
2022-04-20 06:00:00,2.06
2022-04-20 07:00:00,2.04
2022-04-20 08:00:00,1.89
2022-04-20 09:00:00,1.42
2022-04-20 10:00:00,3.24
2022-04-20 11:00:00,3.42
2022-04-20 12:00:00,4.09
2022-04-20 13:00:00,3.92
2022-04-20 14:00:00,3.89
2022-04-20 15:00:00,3.41
2022-04-20 16:00:00,3.23
2022-04-20 17:00:00,3.43
2022-04-20 18:00:00,3.09
2022-04-20 19:00:00,2.53
2022-04-20 20:00:00,2.20
2022-04-20 21:00:00,2.00
2022-04-20 22:00:00,2.16
2022-04-20 23:00:00,2.48
2022-04-21 00:00:00,1.74
2022-04-21 01:00:00,1.82
2022-04-21 02:00:00,1.72
2022-04-21 03:00:00,0.982
2022-04-21 04:00:00,0.725
2022-04-21 05:00:00,0.505
2022-04-21 06:00:00,0.475
2022-04-21 07:00:00,0.518
2022-04-21 08:00:00,0.670
2022-04-21 09:00:00,0.597
2022-04-21 10:00:00,0.705
2022-04-21 11:00:00,1.21
2022-04-21 12:00:00,1.86
2022-04-21 13:00:00,1.87
2022-04-21 14:00:00,2.12
2022-04-21 15:00:00,2.53
2022-04-21 16:00:00,2.49
2022-04-21 17:00:00,2.18
2022-04-21 18:00:00,2.12
2022-04-21 19:00:00,2.50
2022-04-21 20:00:00,2.88
2022-04-21 21:00:00,2.00
2022-04-21 22:00:00,2.10
2022-04-21 23:00:00,2.21
2022-04-22 00:00:00,0.812
2022-04-22 01:00:00,0.443
2022-04-22 02:00:00,0.517
2022-04-22 03:00:00,0.520
2022-04-22 04:00:00,0.525
2022-04-22 05:00:00,0.618
2022-04-22 06:00:00,0.968
2022-04-22 07:00:00,1.17
2022-04-22 08:00:00,1.31
2022-04-22 09:00:00,1.58
2022-04-22 10:00:00,1.26
2022-04-22 11:00:00,0.945
2022-04-22 12:00:00,2.43
2022-04-22 13:00:00,2.97
2022-04-22 14:00:00,3.04
2022-04-22 15:00:00,2.49
2022-04-22 16:00:00,2.05
2022-04-22 17:00:00,1.04
2022-04-22 18:00:00,1.26
2022-04-22 19:00:00,0.943
2022-04-22 20:00:00,0.577
2022-04-22 21:00:00,0.922
2022-04-22 22:00:00,1.14
2022-04-22 23:00:00,1.55
2022-04-23 00:00:00,1.81
2022-04-23 01:00:00,1.69
2022-04-23 02:00:00,1.61
2022-04-23 03:00:00,1.27
2022-04-23 04:00:00,1.26
2022-04-23 05:00:00,0.822
2022-04-23 06:00:00,1.03
2022-04-23 07:00:00,2.13
2022-04-23 08:00:00,3.53
2022-04-23 09:00:00,3.84
2022-04-23 10:00:00,4.31
2022-04-23 11:00:00,3.56
2022-04-23 12:00:00,3.53
2022-04-23 13:00:00,2.95
2022-04-23 14:00:00,1.46
2022-04-23 15:00:00,1.73
2022-04-23 16:00:00,2.22
2022-04-23 17:00:00,2.55
2022-04-23 18:00:00,2.72
2022-04-23 19:00:00,1.63
2022-04-23 20:00:00,2.11
2022-04-23 21:00:00,2.50
2022-04-23 22:00:00,1.83
2022-04-23 23:00:00,1.44
2022-04-24 00:00:00,1.93
2022-04-24 01:00:00,1.43
2022-04-24 02:00:00,1.60
2022-04-24 03:00:00,1.24
2022-04-24 04:00:00,1.17
2022-04-24 05:00:00,0.852
2022-04-24 06:00:00,1.31
2022-04-24 07:00:00,1.70
2022-04-24 08:00:00,1.76
2022-04-24 09:00:00,1.57
2022-04-24 10:00:00,1.63
2022-04-24 11:00:00,1.14
2022-04-24 12:00:00,2.38
2022-04-24 13:00:00,2.60
2022-04-24 14:00:00,2.08
2022-04-24 15:00:00,2.03
2022-04-24 16:00:00,2.03
2022-04-24 17:00:00,2.05
2022-04-24 18:00:00,2.14
2022-04-24 19:00:00,2.60
2022-04-24 20:00:00,1.77
2022-04-24 21:00:00,1.13
2022-04-24 22:00:00,1.14
2022-04-24 23:00:00,0.812
2022-04-25 00:00:00,0.380
2022-04-25 01:00:00,0.418
2022-04-25 02:00:00,0.767
2022-04-25 03:00:00,0.780
2022-04-25 04:00:00,0.505
2022-04-25 05:00:00,1.47
2022-04-25 06:00:00,1.84
2022-04-25 07:00:00,1.50
2022-04-25 08:00:00,1.54
2022-04-25 09:00:00,2.29
2022-04-25 10:00:00,3.07
2022-04-25 11:00:00,3.30
2022-04-25 12:00:00,2.80
2022-04-25 13:00:00,2.22
2022-04-25 14:00:00,2.72
2022-04-25 15:00:00,2.15
2022-04-25 16:00:00,1.43
2022-04-25 17:00:00,1.29
2022-04-25 18:00:00,0.443
2022-04-25 19:00:00,0.512
2022-04-25 20:00:00,0.335
2022-04-25 21:00:00,0.363
2022-04-25 22:00:00,0.845
2022-04-25 23:00:00,0.660
2022-04-26 00:00:00,0.367
2022-04-26 01:00:00,0.495
2022-04-26 02:00:00,0.512
2022-04-26 03:00:00,0.377
2022-04-26 04:00:00,0.542
2022-04-26 05:00:00,0.487
2022-04-26 06:00:00,0.485
2022-04-26 07:00:00,0.585
2022-04-26 08:00:00,1.16
2022-04-26 09:00:00,1.94
2022-04-26 10:00:00,2.65
2022-04-26 11:00:00,3.12
2022-04-26 12:00:00,3.08
2022-04-26 13:00:00,3.33
2022-04-26 14:00:00,3.45
2022-04-26 15:00:00,3.41
2022-04-26 16:00:00,3.29
2022-04-26 17:00:00,3.08
2022-04-26 18:00:00,2.74
2022-04-26 19:00:00,2.55
2022-04-26 20:00:00,1.71
2022-04-26 21:00:00,1.69
2022-04-26 22:00:00,0.532
2022-04-26 23:00:00,0.938
2022-04-27 00:00:00,1.18
2022-04-27 01:00:00,1.16
2022-04-27 02:00:00,0.907
2022-04-27 03:00:00,1.06
2022-04-27 04:00:00,1.42
2022-04-27 05:00:00,1.28
2022-04-27 06:00:00,1.86
2022-04-27 07:00:00,1.86
2022-04-27 08:00:00,2.05
2022-04-27 09:00:00,1.56
2022-04-27 10:00:00,1.10
2022-04-27 11:00:00,1.74
2022-04-27 12:00:00,2.05
2022-04-27 13:00:00,2.61
2022-04-27 14:00:00,2.91
2022-04-27 15:00:00,3.19
2022-04-27 16:00:00,2.57
2022-04-27 17:00:00,2.33
2022-04-27 18:00:00,2.34
2022-04-27 19:00:00,2.14
2022-04-27 20:00:00,1.73
2022-04-27 21:00:00,0.797
2022-04-27 22:00:00,0.690
2022-04-27 23:00:00,1.07
2022-04-28 00:00:00,1.36
2022-04-28 01:00:00,1.50
2022-04-28 02:00:00,1.15
2022-04-28 03:00:00,1.60
2022-04-28 04:00:00,1.52
2022-04-28 05:00:00,2.18
2022-04-28 06:00:00,1.91
2022-04-28 07:00:00,2.17
2022-04-28 08:00:00,2.13
2022-04-28 09:00:00,1.76
2022-04-28 10:00:00,1.18
2022-04-28 11:00:00,1.74
2022-04-28 12:00:00,2.37
2022-04-28 13:00:00,3.22
2022-04-28 14:00:00,3.63
2022-04-28 15:00:00,3.58
2022-04-28 16:00:00,3.06
2022-04-28 17:00:00,2.66
2022-04-28 18:00:00,2.97
2022-04-28 19:00:00,2.83
2022-04-28 20:00:00,2.58
2022-04-28 21:00:00,1.90
2022-04-28 22:00:00,0.753
2022-04-28 23:00:00,0.717
2022-04-29 00:00:00,0.453
2022-04-29 01:00:00,1.18
2022-04-29 02:00:00,1.50
2022-04-29 03:00:00,1.66
2022-04-29 04:00:00,1.64
2022-04-29 05:00:00,1.13
2022-04-29 06:00:00,1.03
2022-04-29 07:00:00,1.52
2022-04-29 08:00:00,1.41
2022-04-29 09:00:00,0.995
2022-04-29 10:00:00,0.805
2022-04-29 11:00:00,2.46
2022-04-29 12:00:00,4.22
2022-04-29 13:00:00,4.06
2022-04-29 14:00:00,4.38
2022-04-29 15:00:00,3.91
2022-04-29 16:00:00,4.24
2022-04-29 17:00:00,3.39
2022-04-29 18:00:00,3.13
2022-04-29 19:00:00,2.72
2022-04-29 20:00:00,1.96
2022-04-29 21:00:00,2
2022-04-29 22:00:00,2.91
2022-04-29 23:00:00,3.48
2022-04-30 00:00:00,3.39
2022-04-30 01:00:00,3.33
2022-04-30 02:00:00,2.50
2022-04-30 03:00:00,1.75
2022-04-30 04:00:00,0.808
2022-04-30 05:00:00,0.625
2022-04-30 06:00:00,0.903
2022-04-30 07:00:00,1.91
2022-04-30 08:00:00,2.02
2022-04-30 09:00:00,3.79
2022-04-30 10:00:00,3.58
2022-04-30 11:00:00,3.94
2022-04-30 12:00:00,4.15
2022-04-30 13:00:00,4.12
2022-04-30 14:00:00,4.25
2022-04-30 15:00:00,4.51
2022-04-30 16:00:00,3.71
2022-04-30 17:00:00,1.78
2022-04-30 18:00:00,0.882
2022-04-30 19:00:00,1.99
2022-04-30 20:00:00,1.14
2022-04-30 21:00:00,2.22
2022-04-30 22:00:00,1.83
2022-04-30 23:00:00,1.32

