date,total
2019-01-01 01:00:00+00:00,82.0
2019-01-01 04:00:00+00:00,80.0
2019-01-01 07:00:00+00:00,82.0
2019-01-01 10:00:00+00:00,83.0
2019-01-01 13:00:00+00:00,84.0
2019-01-01 16:00:00+00:00,78.0
2019-01-01 19:00:00+00:00,78.0
2019-01-01 22:00:00+00:00,80.0
2019-01-02 01:00:00+00:00,82.0
2019-01-02 04:00:00+00:00,82.0
2019-01-02 07:00:00+00:00,80.0
2019-01-02 10:00:00+00:00,78.0
2019-01-02 13:00:00+00:00,77.0
2019-01-02 16:00:00+00:00,0.0
2019-01-02 19:00:00+00:00,0.0
2019-01-02 22:00:00+00:00,0.0
2019-01-03 01:00:00+00:00,0.0
2019-01-03 04:00:00+00:00,30.0
2019-01-03 07:00:00+00:00,42.0
2019-01-03 10:00:00+00:00,77.0
2019-01-03 13:00:00+00:00,50.0
2019-01-03 16:00:00+00:00,0.0
2019-01-03 19:00:00+00:00,0.0
2019-01-03 22:00:00+00:00,0.0
2019-01-04 01:00:00+00:00,0.0
2019-01-04 04:00:00+00:00,0.0
2019-01-04 07:00:00+00:00,28.0
2019-01-04 10:00:00+00:00,94.0
2019-01-04 13:00:00+00:00,93.0
2019-01-04 16:00:00+00:00,84.0
2019-01-04 19:00:00+00:00,85.0
2019-01-04 22:00:00+00:00,68.0
2019-01-05 01:00:00+00:00,73.0
2019-01-05 04:00:00+00:00,79.0
2019-01-05 07:00:00+00:00,83.0
2019-01-05 10:00:00+00:00,98.0
2019-01-05 13:00:00+00:00,98.0
2019-01-05 16:00:00+00:00,99.0
2019-01-05 19:00:00+00:00,98.0
2019-01-05 22:00:00+00:00,97.0
2019-01-06 01:00:00+00:00,92.0
2019-01-06 04:00:00+00:00,84.0
2019-01-06 07:00:00+00:00,86.0
2019-01-06 10:00:00+00:00,81.0
2019-01-06 13:00:00+00:00,84.0
2019-01-06 16:00:00+00:00,86.0
2019-01-06 19:00:00+00:00,85.0
2019-01-06 22:00:00+00:00,88.0
2019-01-07 01:00:00+00:00,91.0
2019-01-07 04:00:00+00:00,82.0
2019-01-07 07:00:00+00:00,82.0
2019-01-07 10:00:00+00:00,81.0
2019-01-07 13:00:00+00:00,83.0
2019-01-07 16:00:00+00:00,85.0
2019-01-07 19:00:00+00:00,87.0
2019-01-07 22:00:00+00:00,85.0
2019-01-08 01:00:00+00:00,89.0
2019-01-08 04:00:00+00:00,89.0
2019-01-08 07:00:00+00:00,94.0
2019-01-08 10:00:00+00:00,100.0
2019-01-08 13:00:00+00:00,100.0
2019-01-08 16:00:00+00:00,97.0
2019-01-08 19:00:00+00:00,97.0
2019-01-08 22:00:00+00:00,98.0
2019-01-09 01:00:00+00:00,98.0
2019-01-09 04:00:00+00:00,99.0
2019-01-09 07:00:00+00:00,95.0
2019-01-09 10:00:00+00:00,95.0
2019-01-09 13:00:00+00:00,97.0
2019-01-09 16:00:00+00:00,100.0
2019-01-09 19:00:00+00:00,98.0
2019-01-09 22:00:00+00:00,85.0
2019-01-10 01:00:00+00:00,87.0
2019-01-10 04:00:00+00:00,100.0
2019-01-10 07:00:00+00:00,99.0
2019-01-10 10:00:00+00:00,86.0
2019-01-10 13:00:00+00:00,90.0
2019-01-10 16:00:00+00:00,89.0
2019-01-10 19:00:00+00:00,86.0
2019-01-10 22:00:00+00:00,80.0
2019-01-11 01:00:00+00:00,81.0
2019-01-11 04:00:00+00:00,80.0
2019-01-11 07:00:00+00:00,82.0
2019-01-11 10:00:00+00:00,82.0
2019-01-11 13:00:00+00:00,81.0
2019-01-11 16:00:00+00:00,80.0
2019-01-11 19:00:00+00:00,72.0
2019-01-11 22:00:00+00:00,22.0
2019-01-12 01:00:00+00:00,44.0
2019-01-12 04:00:00+00:00,75.0
2019-01-12 07:00:00+00:00,78.0
2019-01-12 10:00:00+00:00,79.0
2019-01-12 13:00:00+00:00,81.0
2019-01-12 16:00:00+00:00,91.0
2019-01-12 19:00:00+00:00,92.0
2019-01-12 22:00:00+00:00,89.0
2019-01-13 01:00:00+00:00,85.0
2019-01-13 04:00:00+00:00,93.0
2019-01-13 07:00:00+00:00,89.0
2019-01-13 10:00:00+00:00,92.0
2019-01-13 13:00:00+00:00,89.0
2019-01-13 16:00:00+00:00,94.0
2019-01-13 19:00:00+00:00,93.0
2019-01-13 22:00:00+00:00,97.0
2019-01-14 01:00:00+00:00,97.0
2019-01-14 04:00:00+00:00,100.0
2019-01-14 07:00:00+00:00,100.0
2019-01-14 10:00:00+00:00,100.0
2019-01-14 13:00:00+00:00,96.0
2019-01-14 16:00:00+00:00,80.0
2019-01-14 19:00:00+00:00,81.0
2019-01-14 22:00:00+00:00,76.0
2019-01-15 01:00:00+00:00,75.0
2019-01-15 04:00:00+00:00,23.0
2019-01-15 07:00:00+00:00,18.0
2019-01-15 10:00:00+00:00,32.0
2019-01-15 13:00:00+00:00,37.0
2019-01-15 16:00:00+00:00,15.0
2019-01-15 19:00:00+00:00,35.0
2019-01-15 22:00:00+00:00,12.0
2019-01-16 01:00:00+00:00,16.0
2019-01-16 04:00:00+00:00,70.0
2019-01-16 07:00:00+00:00,72.0
2019-01-16 10:00:00+00:00,59.0
2019-01-16 13:00:00+00:00,36.0
2019-01-16 16:00:00+00:00,19.0
2019-01-16 19:00:00+00:00,41.0
2019-01-16 22:00:00+00:00,56.0
2019-01-17 01:00:00+00:00,71.0
2019-01-17 04:00:00+00:00,72.0
2019-01-17 07:00:00+00:00,76.0
2019-01-17 10:00:00+00:00,81.0
2019-01-17 13:00:00+00:00,93.0
2019-01-17 16:00:00+00:00,100.0
2019-01-17 19:00:00+00:00,92.0
2019-01-17 22:00:00+00:00,75.0
2019-01-18 01:00:00+00:00,76.0
2019-01-18 04:00:00+00:00,88.0
2019-01-18 07:00:00+00:00,84.0
2019-01-18 10:00:00+00:00,85.0
2019-01-18 13:00:00+00:00,91.0
2019-01-18 16:00:00+00:00,95.0
2019-01-18 19:00:00+00:00,93.0
2019-01-18 22:00:00+00:00,97.0
2019-01-19 01:00:00+00:00,97.0
2019-01-19 04:00:00+00:00,92.0
2019-01-19 07:00:00+00:00,87.0
2019-01-19 10:00:00+00:00,15.0
2019-01-19 13:00:00+00:00,13.0
2019-01-19 16:00:00+00:00,26.0
2019-01-19 19:00:00+00:00,28.0
2019-01-19 22:00:00+00:00,65.0
2019-01-20 01:00:00+00:00,71.0
2019-01-20 04:00:00+00:00,82.0
2019-01-20 07:00:00+00:00,86.0
2019-01-20 10:00:00+00:00,85.0
2019-01-20 13:00:00+00:00,47.0
2019-01-20 16:00:00+00:00,36.0
2019-01-20 19:00:00+00:00,61.0
2019-01-20 22:00:00+00:00,84.0
2019-01-21 01:00:00+00:00,85.0
2019-01-21 04:00:00+00:00,83.0
2019-01-21 07:00:00+00:00,84.0
2019-01-21 10:00:00+00:00,83.0
2019-01-21 13:00:00+00:00,84.0
2019-01-21 16:00:00+00:00,87.0
2019-01-21 19:00:00+00:00,91.0
2019-01-21 22:00:00+00:00,88.0
2019-01-22 01:00:00+00:00,90.0
2019-01-22 04:00:00+00:00,83.0
2019-01-22 07:00:00+00:00,82.0
2019-01-22 10:00:00+00:00,77.0
2019-01-22 13:00:00+00:00,51.0
2019-01-22 16:00:00+00:00,23.0
2019-01-22 19:00:00+00:00,38.0
2019-01-22 22:00:00+00:00,90.0
2019-01-23 01:00:00+00:00,92.0
2019-01-23 04:00:00+00:00,95.0
2019-01-23 07:00:00+00:00,76.0
2019-01-23 10:00:00+00:00,92.0
2019-01-23 13:00:00+00:00,92.0
2019-01-23 16:00:00+00:00,100.0
2019-01-23 19:00:00+00:00,100.0
2019-01-23 22:00:00+00:00,99.0
2019-01-24 01:00:00+00:00,99.0
2019-01-24 04:00:00+00:00,97.0
2019-01-24 07:00:00+00:00,96.0
2019-01-24 10:00:00+00:00,85.0
2019-01-24 13:00:00+00:00,87.0
2019-01-24 16:00:00+00:00,92.0
2019-01-24 19:00:00+00:00,91.0
2019-01-24 22:00:00+00:00,95.0
2019-01-25 01:00:00+00:00,95.0
2019-01-25 04:00:00+00:00,84.0
2019-01-25 07:00:00+00:00,82.0
2019-01-25 10:00:00+00:00,76.0
2019-01-25 13:00:00+00:00,38.0
2019-01-25 16:00:00+00:00,0.0
2019-01-25 19:00:00+00:00,5.0
2019-01-25 22:00:00+00:00,24.0
2019-01-26 01:00:00+00:00,12.0
2019-01-26 04:00:00+00:00,1.0
2019-01-26 07:00:00+00:00,37.0
2019-01-26 10:00:00+00:00,97.0
2019-01-26 13:00:00+00:00,98.0
2019-01-26 16:00:00+00:00,93.0
2019-01-26 19:00:00+00:00,90.0
2019-01-26 22:00:00+00:00,87.0
2019-01-27 01:00:00+00:00,87.0
2019-01-27 04:00:00+00:00,81.0
2019-01-27 07:00:00+00:00,88.0
2019-01-27 10:00:00+00:00,100.0
2019-01-27 13:00:00+00:00,92.0
2019-01-27 16:00:00+00:00,100.0
2019-01-27 19:00:00+00:00,100.0
2019-01-27 22:00:00+00:00,100.0
2019-01-28 01:00:00+00:00,100.0
2019-01-28 04:00:00+00:00,100.0
2019-01-28 07:00:00+00:00,100.0
2019-01-28 10:00:00+00:00,75.0
2019-01-28 13:00:00+00:00,52.0
2019-01-28 16:00:00+00:00,75.0
2019-01-28 19:00:00+00:00,79.0
2019-01-28 22:00:00+00:00,98.0
2019-01-29 01:00:00+00:00,98.0
2019-01-29 04:00:00+00:00,94.0
2019-01-29 07:00:00+00:00,90.0
2019-01-29 10:00:00+00:00,81.0
2019-01-29 13:00:00+00:00,85.0
2019-01-29 16:00:00+00:00,93.0
2019-01-29 19:00:00+00:00,94.0
2019-01-29 22:00:00+00:00,100.0
2019-01-30 01:00:00+00:00,100.0
2019-01-30 04:00:00+00:00,100.0
2019-01-30 07:00:00+00:00,100.0
2019-01-30 10:00:00+00:00,100.0
2019-01-30 13:00:00+00:00,96.0
2019-01-30 16:00:00+00:00,27.0
2019-01-30 19:00:00+00:00,39.0
2019-01-30 22:00:00+00:00,95.0
2019-01-31 01:00:00+00:00,97.0
2019-01-31 04:00:00+00:00,100.0
2019-01-31 07:00:00+00:00,100.0
2019-01-31 10:00:00+00:00,95.0
2019-01-31 13:00:00+00:00,95.0
2019-01-31 16:00:00+00:00,100.0
2019-01-31 19:00:00+00:00,100.0
2019-01-31 22:00:00+00:00,100.0
2019-02-01 01:00:00+00:00,100.0
2019-02-01 04:00:00+00:00,100.0
2019-02-01 07:00:00+00:00,100.0
2019-02-01 10:00:00+00:00,100.0
2019-02-01 13:00:00+00:00,100.0
2019-02-01 16:00:00+00:00,100.0
2019-02-01 19:00:00+00:00,100.0
2019-02-01 22:00:00+00:00,100.0
2019-02-02 01:00:00+00:00,100.0
2019-02-02 04:00:00+00:00,100.0
2019-02-02 07:00:00+00:00,100.0
2019-02-02 10:00:00+00:00,100.0
2019-02-02 13:00:00+00:00,100.0
2019-02-02 16:00:00+00:00,100.0
2019-02-02 19:00:00+00:00,100.0
2019-02-02 22:00:00+00:00,100.0
2019-02-03 01:00:00+00:00,100.0
2019-02-03 04:00:00+00:00,100.0
2019-02-03 07:00:00+00:00,100.0
2019-02-03 10:00:00+00:00,100.0
2019-02-03 13:00:00+00:00,100.0
2019-02-03 16:00:00+00:00,100.0
2019-02-03 19:00:00+00:00,100.0
2019-02-03 22:00:00+00:00,99.0
2019-02-04 01:00:00+00:00,98.0
2019-02-04 04:00:00+00:00,89.0
2019-02-04 07:00:00+00:00,86.0
2019-02-04 10:00:00+00:00,76.0
2019-02-04 13:00:00+00:00,65.0
2019-02-04 16:00:00+00:00,23.0
2019-02-04 19:00:00+00:00,59.0
2019-02-04 22:00:00+00:00,96.0
2019-02-05 01:00:00+00:00,98.0
2019-02-05 04:00:00+00:00,87.0
2019-02-05 07:00:00+00:00,62.0
2019-02-05 10:00:00+00:00,0.0
2019-02-05 13:00:00+00:00,0.0
2019-02-05 16:00:00+00:00,0.0
2019-02-05 19:00:00+00:00,0.0
2019-02-05 22:00:00+00:00,0.0
2019-02-06 01:00:00+00:00,0.0
2019-02-06 04:00:00+00:00,18.0
2019-02-06 07:00:00+00:00,35.0
2019-02-06 10:00:00+00:00,54.0
2019-02-06 13:00:00+00:00,60.0
2019-02-06 16:00:00+00:00,62.0
2019-02-06 19:00:00+00:00,49.0
2019-02-06 22:00:00+00:00,42.0
2019-02-07 01:00:00+00:00,50.0
2019-02-07 04:00:00+00:00,86.0
2019-02-07 07:00:00+00:00,87.0
2019-02-07 10:00:00+00:00,88.0
2019-02-07 13:00:00+00:00,92.0
2019-02-07 16:00:00+00:00,99.0
2019-02-07 19:00:00+00:00,78.0
2019-02-07 22:00:00+00:00,87.0
2019-02-08 01:00:00+00:00,85.0
2019-02-08 04:00:00+00:00,86.0
2019-02-08 07:00:00+00:00,88.0
2019-02-08 10:00:00+00:00,95.0
2019-02-08 13:00:00+00:00,92.0
2019-02-08 16:00:00+00:00,85.0
2019-02-08 19:00:00+00:00,83.0
2019-02-08 22:00:00+00:00,81.0
2019-02-09 01:00:00+00:00,85.0
2019-02-09 04:00:00+00:00,70.0
2019-02-09 07:00:00+00:00,79.0
2019-02-09 10:00:00+00:00,91.0
2019-02-09 13:00:00+00:00,91.0
2019-02-09 16:00:00+00:00,94.0
2019-02-09 19:00:00+00:00,94.0
2019-02-09 22:00:00+00:00,92.0
2019-02-10 01:00:00+00:00,95.0
2019-02-10 04:00:00+00:00,100.0
2019-02-10 07:00:00+00:00,100.0
2019-02-10 10:00:00+00:00,100.0
2019-02-10 13:00:00+00:00,100.0
2019-02-10 16:00:00+00:00,100.0
2019-02-10 19:00:00+00:00,100.0
2019-02-10 22:00:00+00:00,59.0
2019-02-11 01:00:00+00:00,77.0
2019-02-11 04:00:00+00:00,100.0
2019-02-11 07:00:00+00:00,100.0
2019-02-11 10:00:00+00:00,99.0
2019-02-11 13:00:00+00:00,99.0
2019-02-11 16:00:00+00:00,94.0
2019-02-11 19:00:00+00:00,94.0
2019-02-11 22:00:00+00:00,81.0
2019-02-12 01:00:00+00:00,79.0
2019-02-12 04:00:00+00:00,70.0
2019-02-12 07:00:00+00:00,51.0
2019-02-12 10:00:00+00:00,70.0
2019-02-12 13:00:00+00:00,89.0
2019-02-12 16:00:00+00:00,94.0
2019-02-12 19:00:00+00:00,65.0
2019-02-12 22:00:00+00:00,97.0
2019-02-13 01:00:00+00:00,95.0
2019-02-13 04:00:00+00:00,22.0
2019-02-13 07:00:00+00:00,11.0
2019-02-13 10:00:00+00:00,0.0
2019-02-13 13:00:00+00:00,0.0
2019-02-13 16:00:00+00:00,0.0
2019-02-13 19:00:00+00:00,9.0
2019-02-13 22:00:00+00:00,50.0
2019-02-14 01:00:00+00:00,41.0
2019-02-14 04:00:00+00:00,0.0
2019-02-14 07:00:00+00:00,0.0
2019-02-14 10:00:00+00:00,0.0
2019-02-14 13:00:00+00:00,0.0
2019-02-14 16:00:00+00:00,0.0
2019-02-14 19:00:00+00:00,0.0
2019-02-14 22:00:00+00:00,0.0
2019-02-15 01:00:00+00:00,0.0
2019-02-15 04:00:00+00:00,0.0
2019-02-15 07:00:00+00:00,0.0
2019-02-15 10:00:00+00:00,0.0
2019-02-15 13:00:00+00:00,0.0
2019-02-15 16:00:00+00:00,0.0
2019-02-15 19:00:00+00:00,0.0
2019-02-15 22:00:00+00:00,0.0
2019-02-16 01:00:00+00:00,0.0
2019-02-16 04:00:00+00:00,0.0
2019-02-16 07:00:00+00:00,0.0
2019-02-16 10:00:00+00:00,0.0
2019-02-16 13:00:00+00:00,0.0
2019-02-16 16:00:00+00:00,0.0
2019-02-16 19:00:00+00:00,0.0
2019-02-16 22:00:00+00:00,0.0
2019-02-17 01:00:00+00:00,0.0
2019-02-17 04:00:00+00:00,0.0
2019-02-17 07:00:00+00:00,0.0
2019-02-17 10:00:00+00:00,0.0
2019-02-17 13:00:00+00:00,0.0
2019-02-17 16:00:00+00:00,0.0
2019-02-17 19:00:00+00:00,0.0
2019-02-17 22:00:00+00:00,0.0
2019-02-18 01:00:00+00:00,0.0
2019-02-18 04:00:00+00:00,0.0
2019-02-18 07:00:00+00:00,0.0
2019-02-18 10:00:00+00:00,69.0
2019-02-18 13:00:00+00:00,76.0
2019-02-18 16:00:00+00:00,73.0
2019-02-18 19:00:00+00:00,60.0
2019-02-18 22:00:00+00:00,45.0
2019-02-19 01:00:00+00:00,48.0
2019-02-19 04:00:00+00:00,74.0
2019-02-19 07:00:00+00:00,69.0
2019-02-19 10:00:00+00:00,81.0
2019-02-19 13:00:00+00:00,75.0
2019-02-19 16:00:00+00:00,68.0
2019-02-19 19:00:00+00:00,50.0
2019-02-19 22:00:00+00:00,0.0
2019-02-20 01:00:00+00:00,0.0
2019-02-20 04:00:00+00:00,0.0
2019-02-20 07:00:00+00:00,21.0
2019-02-20 10:00:00+00:00,73.0
2019-02-20 13:00:00+00:00,78.0
2019-02-20 16:00:00+00:00,68.0
2019-02-20 19:00:00+00:00,49.0
2019-02-20 22:00:00+00:00,43.0
2019-02-21 01:00:00+00:00,31.0
2019-02-21 04:00:00+00:00,0.0
2019-02-21 07:00:00+00:00,0.0
2019-02-21 10:00:00+00:00,9.0
2019-02-21 13:00:00+00:00,26.0
2019-02-21 16:00:00+00:00,6.0
2019-02-21 19:00:00+00:00,43.0
2019-02-21 22:00:00+00:00,26.0
2019-02-22 01:00:00+00:00,13.0
2019-02-22 04:00:00+00:00,0.0
2019-02-22 07:00:00+00:00,0.0
2019-02-22 10:00:00+00:00,9.0
2019-02-22 13:00:00+00:00,59.0
2019-02-22 16:00:00+00:00,79.0
2019-02-22 19:00:00+00:00,72.0
2019-02-22 22:00:00+00:00,46.0
2019-02-23 01:00:00+00:00,35.0
2019-02-23 04:00:00+00:00,3.0
2019-02-23 07:00:00+00:00,1.0
2019-02-23 10:00:00+00:00,0.0
2019-02-23 13:00:00+00:00,0.0
2019-02-23 16:00:00+00:00,0.0
2019-02-23 19:00:00+00:00,0.0
2019-02-23 22:00:00+00:00,0.0
2019-02-24 01:00:00+00:00,14.0
2019-02-24 04:00:00+00:00,48.0
2019-02-24 07:00:00+00:00,64.0
2019-02-24 10:00:00+00:00,48.0
2019-02-24 13:00:00+00:00,57.0
2019-02-24 16:00:00+00:00,84.0
2019-02-24 19:00:00+00:00,84.0
2019-02-24 22:00:00+00:00,32.0
2019-02-25 01:00:00+00:00,16.0
2019-02-25 04:00:00+00:00,0.0
2019-02-25 07:00:00+00:00,0.0
2019-02-25 10:00:00+00:00,85.0
2019-02-25 13:00:00+00:00,88.0
2019-02-25 16:00:00+00:00,81.0
2019-02-25 19:00:00+00:00,33.0
2019-02-25 22:00:00+00:00,71.0
2019-02-26 01:00:00+00:00,71.0
2019-02-26 04:00:00+00:00,7.0
2019-02-26 07:00:00+00:00,3.0
2019-02-26 10:00:00+00:00,51.0
2019-02-26 13:00:00+00:00,75.0
2019-02-26 16:00:00+00:00,91.0
2019-02-26 19:00:00+00:00,82.0
2019-02-26 22:00:00+00:00,88.0
2019-02-27 01:00:00+00:00,71.0
2019-02-27 04:00:00+00:00,2.0
2019-02-27 07:00:00+00:00,1.0
2019-02-27 10:00:00+00:00,42.0
2019-02-27 13:00:00+00:00,60.0
2019-02-27 16:00:00+00:00,82.0
2019-02-27 19:00:00+00:00,84.0
2019-02-27 22:00:00+00:00,93.0
2019-02-28 01:00:00+00:00,82.0
2019-02-28 04:00:00+00:00,34.0
2019-02-28 07:00:00+00:00,25.0
2019-02-28 10:00:00+00:00,0.0
2019-02-28 13:00:00+00:00,38.0
2019-02-28 16:00:00+00:00,83.0
2019-02-28 19:00:00+00:00,42.0
2019-02-28 22:00:00+00:00,0.0
2019-03-01 01:00:00+00:00,13.0
2019-03-01 04:00:00+00:00,76.0
2019-03-01 07:00:00+00:00,76.0
2019-03-01 10:00:00+00:00,35.0
2019-03-01 13:00:00+00:00,28.0
2019-03-01 16:00:00+00:00,84.0
2019-03-01 19:00:00+00:00,93.0
2019-03-01 22:00:00+00:00,95.0
2019-03-02 01:00:00+00:00,93.0
2019-03-02 04:00:00+00:00,89.0
2019-03-02 07:00:00+00:00,91.0
2019-03-02 10:00:00+00:00,94.0
2019-03-02 13:00:00+00:00,91.0
2019-03-02 16:00:00+00:00,89.0
2019-03-02 19:00:00+00:00,65.0
2019-03-02 22:00:00+00:00,0.0
2019-03-03 01:00:00+00:00,0.0
2019-03-03 04:00:00+00:00,8.0
2019-03-03 07:00:00+00:00,21.0
2019-03-03 10:00:00+00:00,49.0
2019-03-03 13:00:00+00:00,69.0
2019-03-03 16:00:00+00:00,91.0
2019-03-03 19:00:00+00:00,89.0
2019-03-03 22:00:00+00:00,89.0
2019-03-04 01:00:00+00:00,92.0
2019-03-04 04:00:00+00:00,96.0
2019-03-04 07:00:00+00:00,99.0
2019-03-04 10:00:00+00:00,100.0
2019-03-04 13:00:00+00:00,100.0
2019-03-04 16:00:00+00:00,100.0
2019-03-04 19:00:00+00:00,100.0
2019-03-04 22:00:00+00:00,95.0
2019-03-05 01:00:00+00:00,91.0
2019-03-05 04:00:00+00:00,88.0
2019-03-05 07:00:00+00:00,91.0
2019-03-05 10:00:00+00:00,21.0
2019-03-05 13:00:00+00:00,17.0
2019-03-05 16:00:00+00:00,0.0
2019-03-05 19:00:00+00:00,10.0
2019-03-05 22:00:00+00:00,54.0
2019-03-06 01:00:00+00:00,66.0
2019-03-06 04:00:00+00:00,81.0
2019-03-06 07:00:00+00:00,83.0
2019-03-06 10:00:00+00:00,90.0
2019-03-06 13:00:00+00:00,91.0
2019-03-06 16:00:00+00:00,100.0
2019-03-06 19:00:00+00:00,100.0
2019-03-06 22:00:00+00:00,99.0
2019-03-07 01:00:00+00:00,82.0
2019-03-07 04:00:00+00:00,100.0
2019-03-07 07:00:00+00:00,100.0
2019-03-07 10:00:00+00:00,69.0
2019-03-07 13:00:00+00:00,77.0
2019-03-07 16:00:00+00:00,78.0
2019-03-07 19:00:00+00:00,83.0
2019-03-07 22:00:00+00:00,84.0
2019-03-08 01:00:00+00:00,83.0
2019-03-08 04:00:00+00:00,0.0
2019-03-08 07:00:00+00:00,28.0
2019-03-08 10:00:00+00:00,62.0
2019-03-08 13:00:00+00:00,71.0
2019-03-08 16:00:00+00:00,63.0
2019-03-08 19:00:00+00:00,35.0
2019-03-08 22:00:00+00:00,86.0
2019-03-09 01:00:00+00:00,65.0
2019-03-09 04:00:00+00:00,53.0
2019-03-09 07:00:00+00:00,73.0
2019-03-09 10:00:00+00:00,99.0
2019-03-09 13:00:00+00:00,97.0
2019-03-09 16:00:00+00:00,89.0
2019-03-09 19:00:00+00:00,90.0
2019-03-09 22:00:00+00:00,84.0
2019-03-10 01:00:00+00:00,83.0
2019-03-10 04:00:00+00:00,91.0
2019-03-10 07:00:00+00:00,73.0
2019-03-10 10:00:00+00:00,1.0
2019-03-10 13:00:00+00:00,46.0
2019-03-10 16:00:00+00:00,100.0
2019-03-10 19:00:00+00:00,97.0
2019-03-10 22:00:00+00:00,95.0
2019-03-11 01:00:00+00:00,82.0
2019-03-11 04:00:00+00:00,65.0
2019-03-11 07:00:00+00:00,79.0
2019-03-11 10:00:00+00:00,85.0
2019-03-11 13:00:00+00:00,91.0
2019-03-11 16:00:00+00:00,100.0
2019-03-11 19:00:00+00:00,100.0
2019-03-11 22:00:00+00:00,88.0
2019-03-12 01:00:00+00:00,56.0
2019-03-12 04:00:00+00:00,0.0
2019-03-12 07:00:00+00:00,0.0
2019-03-12 10:00:00+00:00,32.0
2019-03-12 13:00:00+00:00,33.0
2019-03-12 16:00:00+00:00,77.0
2019-03-12 19:00:00+00:00,80.0
2019-03-12 22:00:00+00:00,91.0
2019-03-13 01:00:00+00:00,94.0
2019-03-13 04:00:00+00:00,99.0
2019-03-13 07:00:00+00:00,93.0
2019-03-13 10:00:00+00:00,50.0
2019-03-13 13:00:00+00:00,61.0
2019-03-13 16:00:00+00:00,84.0
2019-03-13 19:00:00+00:00,89.0
2019-03-13 22:00:00+00:00,99.0
2019-03-14 01:00:00+00:00,99.0
2019-03-14 04:00:00+00:00,97.0
2019-03-14 07:00:00+00:00,92.0
2019-03-14 10:00:00+00:00,81.0
2019-03-14 13:00:00+00:00,83.0
2019-03-14 16:00:00+00:00,88.0
2019-03-14 19:00:00+00:00,94.0
2019-03-14 22:00:00+00:00,100.0
2019-03-15 01:00:00+00:00,100.0
2019-03-15 04:00:00+00:00,100.0
2019-03-15 07:00:00+00:00,100.0
2019-03-15 10:00:00+00:00,100.0
2019-03-15 13:00:00+00:00,98.0
2019-03-15 16:00:00+00:00,98.0
2019-03-15 19:00:00+00:00,95.0
2019-03-15 22:00:00+00:00,97.0
2019-03-16 01:00:00+00:00,98.0
2019-03-16 04:00:00+00:00,99.0
2019-03-16 07:00:00+00:00,92.0
2019-03-16 10:00:00+00:00,68.0
2019-03-16 13:00:00+00:00,40.0
2019-03-16 16:00:00+00:00,0.0
2019-03-16 19:00:00+00:00,0.0
2019-03-16 22:00:00+00:00,50.0
2019-03-17 01:00:00+00:00,67.0
2019-03-17 04:00:00+00:00,83.0
2019-03-17 07:00:00+00:00,82.0
2019-03-17 10:00:00+00:00,82.0
2019-03-17 13:00:00+00:00,73.0
2019-03-17 16:00:00+00:00,10.0
2019-03-17 19:00:00+00:00,52.0
2019-03-17 22:00:00+00:00,100.0
2019-03-18 01:00:00+00:00,98.0
2019-03-18 04:00:00+00:00,85.0
2019-03-18 07:00:00+00:00,83.0
2019-03-18 10:00:00+00:00,94.0
2019-03-18 13:00:00+00:00,91.0
2019-03-18 16:00:00+00:00,78.0
2019-03-18 19:00:00+00:00,80.0
2019-03-18 22:00:00+00:00,93.0
2019-03-19 01:00:00+00:00,90.0
2019-03-19 04:00:00+00:00,79.0
2019-03-19 07:00:00+00:00,67.0
2019-03-19 10:00:00+00:00,18.0
2019-03-19 13:00:00+00:00,12.0
2019-03-19 16:00:00+00:00,25.0
2019-03-19 19:00:00+00:00,33.0
2019-03-19 22:00:00+00:00,0.0
2019-03-20 01:00:00+00:00,0.0
2019-03-20 04:00:00+00:00,1.0
2019-03-20 07:00:00+00:00,24.0
2019-03-20 10:00:00+00:00,42.0
2019-03-20 13:00:00+00:00,6.0
2019-03-20 16:00:00+00:00,0.0
2019-03-20 19:00:00+00:00,0.0
2019-03-20 22:00:00+00:00,0.0
2019-03-21 01:00:00+00:00,0.0
2019-03-21 04:00:00+00:00,0.0
2019-03-21 07:00:00+00:00,0.0
2019-03-21 10:00:00+00:00,0.0
2019-03-21 13:00:00+00:00,0.0
2019-03-21 16:00:00+00:00,0.0
2019-03-21 19:00:00+00:00,0.0
2019-03-21 22:00:00+00:00,0.0
2019-03-22 01:00:00+00:00,1.0
2019-03-22 04:00:00+00:00,1.0
2019-03-22 07:00:00+00:00,1.0
2019-03-22 10:00:00+00:00,0.0
2019-03-22 13:00:00+00:00,0.0
2019-03-22 16:00:00+00:00,0.0
2019-03-22 19:00:00+00:00,11.0
2019-03-22 22:00:00+00:00,37.0
2019-03-23 01:00:00+00:00,18.0
2019-03-23 04:00:00+00:00,71.0
2019-03-23 07:00:00+00:00,85.0
2019-03-23 10:00:00+00:00,61.0
2019-03-23 13:00:00+00:00,31.0
2019-03-23 16:00:00+00:00,0.0
2019-03-23 19:00:00+00:00,0.0
2019-03-23 22:00:00+00:00,0.0
2019-03-24 01:00:00+00:00,0.0
2019-03-24 04:00:00+00:00,0.0
2019-03-24 07:00:00+00:00,0.0
2019-03-24 10:00:00+00:00,0.0
2019-03-24 13:00:00+00:00,0.0
2019-03-24 16:00:00+00:00,0.0
2019-03-24 19:00:00+00:00,0.0
2019-03-24 22:00:00+00:00,19.0
2019-03-25 01:00:00+00:00,32.0
2019-03-25 04:00:00+00:00,80.0
2019-03-25 07:00:00+00:00,83.0
2019-03-25 10:00:00+00:00,95.0
2019-03-25 13:00:00+00:00,93.0
2019-03-25 16:00:00+00:00,93.0
2019-03-25 19:00:00+00:00,89.0
2019-03-25 22:00:00+00:00,85.0
2019-03-26 01:00:00+00:00,43.0
2019-03-26 04:00:00+00:00,1.0
2019-03-26 07:00:00+00:00,39.0
2019-03-26 10:00:00+00:00,80.0
2019-03-26 13:00:00+00:00,64.0
2019-03-26 16:00:00+00:00,0.0
2019-03-26 19:00:00+00:00,0.0
2019-03-26 22:00:00+00:00,0.0
2019-03-27 01:00:00+00:00,4.0
2019-03-27 04:00:00+00:00,63.0
2019-03-27 07:00:00+00:00,71.0
2019-03-27 10:00:00+00:00,54.0
2019-03-27 13:00:00+00:00,38.0
2019-03-27 16:00:00+00:00,0.0
2019-03-27 19:00:00+00:00,0.0
2019-03-27 22:00:00+00:00,0.0
2019-03-28 01:00:00+00:00,0.0
2019-03-28 04:00:00+00:00,13.0
2019-03-28 07:00:00+00:00,29.0
2019-03-28 10:00:00+00:00,27.0
2019-03-28 13:00:00+00:00,18.0
2019-03-28 16:00:00+00:00,69.0
2019-03-28 19:00:00+00:00,74.0
2019-03-28 22:00:00+00:00,47.0
2019-03-29 01:00:00+00:00,24.0
2019-03-29 04:00:00+00:00,0.0
2019-03-29 07:00:00+00:00,4.0
2019-03-29 10:00:00+00:00,0.0
2019-03-29 13:00:00+00:00,0.0
2019-03-29 16:00:00+00:00,76.0
2019-03-29 19:00:00+00:00,84.0
2019-03-29 22:00:00+00:00,34.0
2019-03-30 01:00:00+00:00,17.0
2019-03-30 04:00:00+00:00,0.0
2019-03-30 07:00:00+00:00,0.0
2019-03-30 10:00:00+00:00,58.0
2019-03-30 13:00:00+00:00,66.0
2019-03-30 16:00:00+00:00,79.0
2019-03-30 19:00:00+00:00,59.0
2019-03-30 22:00:00+00:00,0.0
2019-03-31 01:00:00+00:00,0.0
2019-03-31 05:00:00+00:00,0.0
2019-03-31 08:00:00+00:00,0.0
2019-03-31 11:00:00+00:00,0.0
2019-03-31 14:00:00+00:00,0.0
2019-03-31 17:00:00+00:00,16.0
2019-03-31 20:00:00+00:00,8.0
2019-03-31 23:00:00+00:00,2.0
2019-04-01 02:00:00+00:00,1.0
2019-04-01 05:00:00+00:00,16.0
2019-04-01 08:00:00+00:00,33.0
2019-04-01 11:00:00+00:00,78.0
2019-04-01 14:00:00+00:00,71.0
2019-04-01 17:00:00+00:00,8.0
2019-04-01 20:00:00+00:00,30.0
2019-04-01 23:00:00+00:00,67.0
2019-04-02 02:00:00+00:00,65.0
2019-04-02 05:00:00+00:00,58.0
2019-04-02 08:00:00+00:00,56.0
2019-04-02 11:00:00+00:00,79.0
2019-04-02 14:00:00+00:00,79.0
2019-04-02 17:00:00+00:00,82.0
2019-04-02 20:00:00+00:00,74.0
2019-04-02 23:00:00+00:00,13.0
2019-04-03 02:00:00+00:00,6.0
2019-04-03 05:00:00+00:00,8.0
2019-04-03 08:00:00+00:00,46.0
2019-04-03 11:00:00+00:00,71.0
2019-04-03 14:00:00+00:00,36.0
2019-04-03 17:00:00+00:00,2.0
2019-04-03 20:00:00+00:00,100.0
2019-04-03 23:00:00+00:00,100.0
2019-04-04 02:00:00+00:00,100.0
2019-04-04 05:00:00+00:00,100.0
2019-04-04 08:00:00+00:00,100.0
2019-04-04 11:00:00+00:00,100.0
2019-04-04 14:00:00+00:00,100.0
2019-04-04 17:00:00+00:00,53.0
2019-04-04 20:00:00+00:00,28.0
2019-04-04 23:00:00+00:00,0.0
2019-04-05 02:00:00+00:00,0.0
2019-04-05 05:00:00+00:00,51.0
2019-04-05 08:00:00+00:00,58.0
2019-04-05 11:00:00+00:00,87.0
2019-04-05 14:00:00+00:00,84.0
2019-04-05 17:00:00+00:00,80.0
2019-04-05 20:00:00+00:00,83.0
2019-04-05 23:00:00+00:00,94.0
2019-04-06 02:00:00+00:00,97.0
2019-04-06 05:00:00+00:00,100.0
2019-04-06 08:00:00+00:00,100.0
2019-04-06 11:00:00+00:00,100.0
2019-04-06 14:00:00+00:00,100.0
2019-04-06 17:00:00+00:00,100.0
2019-04-06 20:00:00+00:00,100.0
2019-04-06 23:00:00+00:00,100.0
2019-04-07 02:00:00+00:00,100.0
2019-04-07 05:00:00+00:00,100.0
2019-04-07 08:00:00+00:00,100.0
2019-04-07 11:00:00+00:00,100.0
2019-04-07 14:00:00+00:00,100.0
2019-04-07 17:00:00+00:00,87.0
2019-04-07 20:00:00+00:00,66.0
2019-04-07 23:00:00+00:00,55.0
2019-04-08 02:00:00+00:00,62.0
2019-04-08 05:00:00+00:00,76.0
2019-04-08 08:00:00+00:00,85.0
2019-04-08 11:00:00+00:00,75.0
2019-04-08 14:00:00+00:00,83.0
2019-04-08 17:00:00+00:00,87.0
2019-04-08 20:00:00+00:00,49.0
2019-04-08 23:00:00+00:00,0.0
2019-04-09 02:00:00+00:00,0.0
2019-04-09 05:00:00+00:00,0.0
2019-04-09 08:00:00+00:00,17.0
2019-04-09 11:00:00+00:00,60.0
2019-04-09 14:00:00+00:00,60.0
2019-04-09 17:00:00+00:00,96.0
2019-04-09 20:00:00+00:00,98.0
2019-04-09 23:00:00+00:00,100.0
2019-04-10 02:00:00+00:00,100.0
2019-04-10 05:00:00+00:00,100.0
2019-04-10 08:00:00+00:00,100.0
2019-04-10 11:00:00+00:00,100.0
2019-04-10 14:00:00+00:00,100.0
2019-04-10 17:00:00+00:00,100.0
2019-04-10 20:00:00+00:00,100.0
2019-04-10 23:00:00+00:00,95.0
2019-04-11 02:00:00+00:00,96.0
2019-04-11 05:00:00+00:00,100.0
2019-04-11 08:00:00+00:00,99.0
2019-04-11 11:00:00+00:00,98.0
2019-04-11 14:00:00+00:00,99.0
2019-04-11 17:00:00+00:00,100.0
2019-04-11 20:00:00+00:00,100.0
2019-04-11 23:00:00+00:00,97.0
2019-04-12 02:00:00+00:00,98.0
2019-04-12 05:00:00+00:00,99.0
2019-04-12 08:00:00+00:00,99.0
2019-04-12 11:00:00+00:00,96.0
2019-04-12 14:00:00+00:00,91.0
2019-04-12 17:00:00+00:00,93.0
2019-04-12 20:00:00+00:00,88.0
2019-04-12 23:00:00+00:00,76.0
2019-04-13 02:00:00+00:00,77.0
2019-04-13 05:00:00+00:00,81.0
2019-04-13 08:00:00+00:00,82.0
2019-04-13 11:00:00+00:00,86.0
2019-04-13 14:00:00+00:00,83.0
2019-04-13 17:00:00+00:00,54.0
2019-04-13 20:00:00+00:00,39.0
2019-04-13 23:00:00+00:00,9.0
2019-04-14 02:00:00+00:00,9.0
2019-04-14 05:00:00+00:00,75.0
2019-04-14 08:00:00+00:00,77.0
2019-04-14 11:00:00+00:00,82.0
2019-04-14 14:00:00+00:00,85.0
2019-04-14 17:00:00+00:00,93.0
2019-04-14 20:00:00+00:00,89.0
2019-04-14 23:00:00+00:00,60.0
2019-04-15 02:00:00+00:00,48.0
2019-04-15 05:00:00+00:00,40.0
2019-04-15 08:00:00+00:00,0.0
2019-04-15 11:00:00+00:00,0.0
2019-04-15 14:00:00+00:00,0.0
2019-04-15 17:00:00+00:00,3.0
2019-04-15 20:00:00+00:00,41.0
2019-04-15 23:00:00+00:00,99.0
2019-04-16 02:00:00+00:00,98.0
2019-04-16 05:00:00+00:00,98.0
2019-04-16 08:00:00+00:00,97.0
2019-04-16 11:00:00+00:00,96.0
2019-04-16 14:00:00+00:00,88.0
2019-04-16 17:00:00+00:00,91.0
2019-04-16 20:00:00+00:00,93.0
2019-04-16 23:00:00+00:00,0.0
2019-04-17 02:00:00+00:00,0.0
2019-04-17 05:00:00+00:00,0.0
2019-04-17 08:00:00+00:00,0.0
2019-04-17 11:00:00+00:00,29.0
2019-04-17 14:00:00+00:00,50.0
2019-04-17 17:00:00+00:00,12.0
2019-04-17 20:00:00+00:00,8.0
2019-04-17 23:00:00+00:00,67.0
2019-04-18 02:00:00+00:00,78.0
2019-04-18 05:00:00+00:00,86.0
2019-04-18 08:00:00+00:00,84.0
2019-04-18 11:00:00+00:00,46.0
2019-04-18 14:00:00+00:00,61.0
2019-04-18 17:00:00+00:00,87.0
2019-04-18 20:00:00+00:00,92.0
2019-04-18 23:00:00+00:00,94.0
2019-04-19 02:00:00+00:00,92.0
2019-04-19 05:00:00+00:00,65.0
2019-04-19 08:00:00+00:00,69.0
2019-04-19 11:00:00+00:00,71.0
2019-04-19 14:00:00+00:00,74.0
2019-04-19 17:00:00+00:00,59.0
2019-04-19 20:00:00+00:00,68.0
2019-04-19 23:00:00+00:00,55.0
2019-04-20 02:00:00+00:00,35.0
2019-04-20 05:00:00+00:00,1.0
2019-04-20 08:00:00+00:00,31.0
2019-04-20 11:00:00+00:00,46.0
2019-04-20 14:00:00+00:00,44.0
2019-04-20 17:00:00+00:00,39.0
2019-04-20 20:00:00+00:00,65.0
2019-04-20 23:00:00+00:00,100.0
2019-04-21 02:00:00+00:00,100.0
2019-04-21 05:00:00+00:00,100.0
2019-04-21 08:00:00+00:00,100.0
2019-04-21 11:00:00+00:00,100.0
2019-04-21 14:00:00+00:00,100.0
2019-04-21 17:00:00+00:00,98.0
2019-04-21 20:00:00+00:00,98.0
2019-04-21 23:00:00+00:00,97.0
2019-04-22 02:00:00+00:00,98.0
2019-04-22 05:00:00+00:00,91.0
2019-04-22 08:00:00+00:00,92.0
2019-04-22 11:00:00+00:00,94.0
2019-04-22 14:00:00+00:00,81.0
2019-04-22 17:00:00+00:00,43.0
2019-04-22 20:00:00+00:00,71.0
2019-04-22 23:00:00+00:00,100.0
2019-04-23 02:00:00+00:00,100.0
2019-04-23 05:00:00+00:00,100.0
2019-04-23 08:00:00+00:00,99.0
2019-04-23 11:00:00+00:00,83.0
2019-04-23 14:00:00+00:00,45.0
2019-04-23 17:00:00+00:00,1.0
2019-04-23 20:00:00+00:00,6.0
2019-04-23 23:00:00+00:00,38.0
2019-04-24 02:00:00+00:00,59.0
2019-04-24 05:00:00+00:00,68.0
2019-04-24 08:00:00+00:00,78.0
2019-04-24 11:00:00+00:00,83.0
2019-04-24 14:00:00+00:00,87.0
2019-04-24 17:00:00+00:00,80.0
2019-04-24 20:00:00+00:00,88.0
2019-04-25 05:00:00+00:00,37.0
2019-04-25 08:00:00+00:00,25.0
2019-04-25 11:00:00+00:00,25.0
2019-04-25 14:00:00+00:00,54.0
2019-04-25 17:00:00+00:00,84.0
2019-04-25 20:00:00+00:00,77.0
2019-04-25 23:00:00+00:00,84.0
2019-04-26 02:00:00+00:00,92.0
2019-04-26 05:00:00+00:00,100.0
2019-04-26 08:00:00+00:00,100.0
2019-04-26 11:00:00+00:00,57.0
2019-04-26 14:00:00+00:00,67.0
2019-04-26 17:00:00+00:00,94.0
2019-04-26 20:00:00+00:00,96.0
2019-04-26 23:00:00+00:00,96.0
2019-04-27 02:00:00+00:00,87.0
2019-04-27 05:00:00+00:00,81.0
2019-04-27 08:00:00+00:00,89.0
2019-04-27 11:00:00+00:00,82.0
2019-04-27 14:00:00+00:00,84.0
2019-04-27 17:00:00+00:00,88.0
2019-04-27 20:00:00+00:00,86.0
2019-04-27 23:00:00+00:00,84.0
2019-04-28 02:00:00+00:00,83.0
2019-04-28 05:00:00+00:00,91.0
2019-04-28 08:00:00+00:00,83.0
2019-04-28 11:00:00+00:00,79.0
2019-04-28 14:00:00+00:00,82.0
2019-04-28 17:00:00+00:00,88.0
2019-04-28 20:00:00+00:00,84.0
2019-04-28 23:00:00+00:00,76.0
2019-04-29 02:00:00+00:00,77.0
2019-04-29 05:00:00+00:00,95.0
2019-04-29 08:00:00+00:00,91.0
2019-04-29 11:00:00+00:00,88.0
2019-04-29 14:00:00+00:00,91.0
2019-04-29 17:00:00+00:00,99.0
2019-04-29 20:00:00+00:00,95.0
2019-04-29 23:00:00+00:00,79.0
2019-04-30 02:00:00+00:00,78.0
2019-04-30 05:00:00+00:00,30.0
2019-04-30 08:00:00+00:00,16.0
2019-04-30 11:00:00+00:00,0.0
2019-04-30 14:00:00+00:00,3.0
2019-04-30 17:00:00+00:00,77.0
2019-04-30 20:00:00+00:00,70.0
2019-04-30 23:00:00+00:00,29.0
2019-05-01 02:00:00+00:00,34.0
2019-05-01 05:00:00+00:00,24.0
2019-05-01 08:00:00+00:00,14.0
2019-05-01 11:00:00+00:00,49.0
2019-05-01 14:00:00+00:00,32.0
2019-05-01 17:00:00+00:00,32.0
2019-05-01 20:00:00+00:00,56.0
2019-05-01 23:00:00+00:00,77.0
2019-05-02 02:00:00+00:00,72.0
2019-05-02 05:00:00+00:00,72.0
2019-05-02 08:00:00+00:00,85.0
2019-05-02 11:00:00+00:00,59.0
2019-05-02 14:00:00+00:00,67.0
2019-05-02 17:00:00+00:00,17.0
2019-05-02 20:00:00+00:00,35.0
2019-05-02 23:00:00+00:00,75.0
2019-05-03 02:00:00+00:00,85.0
2019-05-03 05:00:00+00:00,98.0
2019-05-03 08:00:00+00:00,97.0
2019-05-03 11:00:00+00:00,97.0
2019-05-03 14:00:00+00:00,98.0
2019-05-03 17:00:00+00:00,97.0
2019-05-03 20:00:00+00:00,90.0
2019-05-03 23:00:00+00:00,54.0
2019-05-04 02:00:00+00:00,67.0
2019-05-04 05:00:00+00:00,84.0
2019-05-04 08:00:00+00:00,83.0
2019-05-04 11:00:00+00:00,92.0
2019-05-04 14:00:00+00:00,95.0
2019-05-04 17:00:00+00:00,64.0
2019-05-04 20:00:00+00:00,76.0
2019-05-04 23:00:00+00:00,99.0
2019-05-05 02:00:00+00:00,99.0
2019-05-05 05:00:00+00:00,100.0
2019-05-05 08:00:00+00:00,100.0
2019-05-05 11:00:00+00:00,99.0
2019-05-05 14:00:00+00:00,100.0
2019-05-05 17:00:00+00:00,99.0
2019-05-05 20:00:00+00:00,95.0
2019-05-05 23:00:00+00:00,14.0
2019-05-06 02:00:00+00:00,7.0
2019-05-06 05:00:00+00:00,21.0
2019-05-06 08:00:00+00:00,75.0
2019-05-06 11:00:00+00:00,47.0
2019-05-06 14:00:00+00:00,70.0
2019-05-06 17:00:00+00:00,3.0
2019-05-06 20:00:00+00:00,10.0
2019-05-06 23:00:00+00:00,0.0
2019-05-07 02:00:00+00:00,4.0
2019-05-07 05:00:00+00:00,52.0
2019-05-07 08:00:00+00:00,62.0
2019-05-07 11:00:00+00:00,49.0
2019-05-07 14:00:00+00:00,58.0
2019-05-07 17:00:00+00:00,88.0
2019-05-07 20:00:00+00:00,90.0
2019-05-07 23:00:00+00:00,95.0
2019-05-08 02:00:00+00:00,97.0
2019-05-08 05:00:00+00:00,100.0
2019-05-08 08:00:00+00:00,100.0
2019-05-08 11:00:00+00:00,100.0
2019-05-08 14:00:00+00:00,100.0
2019-05-08 17:00:00+00:00,100.0
2019-05-08 20:00:00+00:00,100.0
2019-05-08 23:00:00+00:00,93.0
2019-05-09 02:00:00+00:00,86.0
2019-05-09 05:00:00+00:00,96.0
2019-05-09 08:00:00+00:00,93.0
2019-05-09 11:00:00+00:00,88.0
2019-05-09 14:00:00+00:00,90.0
2019-05-09 17:00:00+00:00,98.0
2019-05-09 20:00:00+00:00,94.0
2019-05-09 23:00:00+00:00,97.0
2019-05-10 02:00:00+00:00,98.0
2019-05-10 05:00:00+00:00,68.0
2019-05-10 08:00:00+00:00,68.0
2019-05-10 11:00:00+00:00,11.0
2019-05-10 14:00:00+00:00,6.0
2019-05-10 17:00:00+00:00,81.0
2019-05-10 20:00:00+00:00,80.0
2019-05-10 23:00:00+00:00,77.0
2019-05-11 02:00:00+00:00,39.0
2019-05-11 05:00:00+00:00,84.0
2019-05-11 08:00:00+00:00,88.0
2019-05-11 11:00:00+00:00,91.0
2019-05-11 14:00:00+00:00,89.0
2019-05-11 17:00:00+00:00,38.0
2019-05-11 20:00:00+00:00,68.0
2019-05-11 23:00:00+00:00,87.0
2019-05-12 02:00:00+00:00,92.0
2019-05-12 05:00:00+00:00,97.0
2019-05-12 08:00:00+00:00,99.0
2019-05-12 11:00:00+00:00,87.0
2019-05-12 14:00:00+00:00,61.0
2019-05-12 17:00:00+00:00,0.0
2019-05-12 20:00:00+00:00,0.0
2019-05-12 23:00:00+00:00,0.0
2019-05-13 02:00:00+00:00,0.0
2019-05-13 05:00:00+00:00,9.0
2019-05-13 08:00:00+00:00,49.0
2019-05-13 11:00:00+00:00,35.0
2019-05-13 14:00:00+00:00,19.0
2019-05-13 17:00:00+00:00,0.0
2019-05-13 20:00:00+00:00,0.0
2019-05-13 23:00:00+00:00,0.0
2019-05-14 02:00:00+00:00,0.0
2019-05-14 05:00:00+00:00,10.0
2019-05-14 08:00:00+00:00,25.0
2019-05-14 11:00:00+00:00,19.0
2019-05-14 14:00:00+00:00,21.0
2019-05-14 17:00:00+00:00,0.0
2019-05-14 20:00:00+00:00,0.0
2019-05-14 23:00:00+00:00,0.0
2019-05-15 02:00:00+00:00,0.0
2019-05-15 05:00:00+00:00,0.0
2019-05-15 08:00:00+00:00,0.0
2019-05-15 11:00:00+00:00,0.0
2019-05-15 14:00:00+00:00,0.0
2019-05-15 17:00:00+00:00,0.0
2019-05-15 20:00:00+00:00,0.0
2019-05-15 23:00:00+00:00,0.0
2019-05-16 02:00:00+00:00,0.0
2019-05-16 05:00:00+00:00,0.0
2019-05-16 08:00:00+00:00,49.0
2019-05-16 11:00:00+00:00,30.0
2019-05-16 14:00:00+00:00,51.0
2019-05-16 17:00:00+00:00,62.0
2019-05-16 20:00:00+00:00,34.0
2019-05-16 23:00:00+00:00,89.0
2019-05-17 02:00:00+00:00,89.0
2019-05-17 05:00:00+00:00,89.0
2019-05-17 08:00:00+00:00,91.0
2019-05-17 11:00:00+00:00,99.0
2019-05-17 14:00:00+00:00,100.0
2019-05-17 17:00:00+00:00,100.0
2019-05-17 20:00:00+00:00,100.0
2019-05-17 23:00:00+00:00,99.0
2019-05-18 02:00:00+00:00,100.0
2019-05-18 05:00:00+00:00,100.0
2019-05-18 08:00:00+00:00,100.0
2019-05-18 11:00:00+00:00,100.0
2019-05-18 14:00:00+00:00,100.0
2019-05-18 17:00:00+00:00,95.0
2019-05-18 20:00:00+00:00,98.0
2019-05-18 23:00:00+00:00,100.0
2019-05-19 02:00:00+00:00,100.0
2019-05-19 05:00:00+00:00,100.0
2019-05-19 08:00:00+00:00,100.0
2019-05-19 11:00:00+00:00,100.0
2019-05-19 14:00:00+00:00,100.0
2019-05-19 17:00:00+00:00,100.0
2019-05-19 20:00:00+00:00,100.0
2019-05-19 23:00:00+00:00,99.0
2019-05-20 02:00:00+00:00,97.0
2019-05-20 05:00:00+00:00,99.0
2019-05-20 08:00:00+00:00,97.0
2019-05-20 11:00:00+00:00,97.0
2019-05-20 14:00:00+00:00,98.0
2019-05-20 17:00:00+00:00,91.0
2019-05-20 20:00:00+00:00,88.0
2019-05-20 23:00:00+00:00,89.0
2019-05-21 02:00:00+00:00,93.0
2019-05-21 05:00:00+00:00,92.0
2019-05-21 08:00:00+00:00,90.0
2019-05-21 11:00:00+00:00,88.0
2019-05-21 14:00:00+00:00,93.0
2019-05-21 17:00:00+00:00,100.0
2019-05-21 20:00:00+00:00,100.0
2019-05-21 23:00:00+00:00,100.0
2019-05-22 02:00:00+00:00,100.0
2019-05-22 05:00:00+00:00,99.0
2019-05-22 08:00:00+00:00,99.0
2019-05-22 11:00:00+00:00,95.0
2019-05-22 14:00:00+00:00,94.0
2019-05-22 17:00:00+00:00,83.0
2019-05-22 20:00:00+00:00,70.0
2019-05-22 23:00:00+00:00,1.0
2019-05-23 02:00:00+00:00,19.0
2019-05-23 05:00:00+00:00,79.0
2019-05-23 08:00:00+00:00,77.0
2019-05-23 11:00:00+00:00,82.0
2019-05-23 14:00:00+00:00,89.0
2019-05-23 17:00:00+00:00,55.0
2019-05-23 20:00:00+00:00,65.0
2019-05-23 23:00:00+00:00,97.0
2019-05-24 02:00:00+00:00,78.0
2019-05-24 05:00:00+00:00,88.0
2019-05-24 08:00:00+00:00,92.0
2019-05-24 11:00:00+00:00,99.0
2019-05-24 14:00:00+00:00,100.0
2019-05-24 17:00:00+00:00,99.0
2019-05-24 20:00:00+00:00,63.0
2019-05-28 05:00:00+00:00,97.0
2019-05-28 08:00:00+00:00,99.0
2019-05-28 11:00:00+00:00,100.0
2019-05-28 14:00:00+00:00,99.0
2019-05-28 17:00:00+00:00,87.0
2019-05-28 20:00:00+00:00,49.0
2019-05-28 23:00:00+00:00,31.0
2019-05-29 02:00:00+00:00,60.0
2019-05-29 05:00:00+00:00,96.0
2019-05-29 08:00:00+00:00,96.0
2019-05-29 11:00:00+00:00,90.0
2019-05-29 14:00:00+00:00,94.0
2019-05-29 17:00:00+00:00,97.0
2019-05-29 20:00:00+00:00,89.0
2019-05-29 23:00:00+00:00,15.0
2019-05-30 02:00:00+00:00,25.0
2019-05-30 05:00:00+00:00,76.0
2019-05-30 08:00:00+00:00,62.0
2019-05-30 11:00:00+00:00,1.0
2019-05-30 14:00:00+00:00,1.0
2019-05-30 17:00:00+00:00,7.0
2019-05-30 20:00:00+00:00,19.0
2019-05-30 23:00:00+00:00,45.0
2019-05-31 02:00:00+00:00,61.0
2019-05-31 05:00:00+00:00,77.0
2019-05-31 08:00:00+00:00,67.0
2019-05-31 11:00:00+00:00,16.0
2019-05-31 14:00:00+00:00,45.0
2019-05-31 17:00:00+00:00,68.0
2019-05-31 20:00:00+00:00,47.0
2019-05-31 23:00:00+00:00,1.0
2019-06-01 02:00:00+00:00,0.0
2019-06-01 05:00:00+00:00,0.0
2019-06-01 08:00:00+00:00,0.0
2019-06-01 11:00:00+00:00,0.0
2019-06-01 14:00:00+00:00,4.0
2019-06-01 17:00:00+00:00,69.0
2019-06-01 20:00:00+00:00,49.0
2019-06-01 23:00:00+00:00,1.0
2019-06-02 02:00:00+00:00,1.0
2019-06-02 05:00:00+00:00,1.0
2019-06-02 08:00:00+00:00,41.0
2019-06-02 11:00:00+00:00,62.0
2019-06-02 14:00:00+00:00,66.0
2019-06-02 17:00:00+00:00,89.0
2019-06-02 20:00:00+00:00,82.0
2019-06-02 23:00:00+00:00,85.0
2019-06-03 02:00:00+00:00,81.0
2019-06-03 05:00:00+00:00,20.0
2019-06-03 08:00:00+00:00,54.0
2019-06-03 11:00:00+00:00,95.0
2019-06-03 14:00:00+00:00,95.0
2019-06-03 17:00:00+00:00,89.0
2019-06-03 20:00:00+00:00,95.0
2019-06-03 23:00:00+00:00,96.0
2019-06-04 02:00:00+00:00,95.0
2019-06-04 05:00:00+00:00,91.0
2019-06-04 08:00:00+00:00,55.0
2019-06-04 11:00:00+00:00,0.0
2019-06-04 14:00:00+00:00,0.0
2019-06-04 17:00:00+00:00,0.0
2019-06-04 20:00:00+00:00,13.0
2019-06-04 23:00:00+00:00,0.0
2019-06-05 02:00:00+00:00,0.0
2019-06-05 05:00:00+00:00,1.0
2019-06-05 08:00:00+00:00,0.0
2019-06-05 11:00:00+00:00,0.0
2019-06-05 14:00:00+00:00,26.0
2019-06-05 17:00:00+00:00,15.0
2019-06-05 20:00:00+00:00,23.0
2019-06-05 23:00:00+00:00,0.0
2019-06-06 02:00:00+00:00,41.0
2019-06-06 05:00:00+00:00,95.0
2019-06-06 08:00:00+00:00,95.0
2019-06-06 11:00:00+00:00,97.0
2019-06-06 14:00:00+00:00,70.0
2019-06-06 17:00:00+00:00,32.0
2019-06-06 20:00:00+00:00,55.0
2019-06-06 23:00:00+00:00,0.0
2019-06-07 02:00:00+00:00,0.0
2019-06-07 05:00:00+00:00,0.0
2019-06-07 08:00:00+00:00,0.0
2019-06-07 11:00:00+00:00,0.0
2019-06-07 14:00:00+00:00,0.0
2019-06-07 17:00:00+00:00,12.0
2019-06-07 20:00:00+00:00,53.0
2019-06-07 23:00:00+00:00,92.0
2019-06-08 02:00:00+00:00,96.0
2019-06-08 05:00:00+00:00,26.0
2019-06-08 08:00:00+00:00,34.0
2019-06-08 11:00:00+00:00,4.0
2019-06-08 14:00:00+00:00,0.0
2019-06-08 17:00:00+00:00,43.0
2019-06-08 20:00:00+00:00,28.0
2019-06-08 23:00:00+00:00,17.0
2019-06-09 02:00:00+00:00,54.0
2019-06-09 05:00:00+00:00,98.0
2019-06-09 08:00:00+00:00,99.0
2019-06-09 11:00:00+00:00,100.0
2019-06-09 14:00:00+00:00,100.0
2019-06-09 17:00:00+00:00,100.0
2019-06-09 20:00:00+00:00,100.0
2019-06-09 23:00:00+00:00,96.0
2019-06-10 02:00:00+00:00,97.0
2019-06-10 05:00:00+00:00,100.0
2019-06-10 08:00:00+00:00,100.0
2019-06-10 11:00:00+00:00,96.0
2019-06-10 14:00:00+00:00,100.0
2019-06-10 17:00:00+00:00,100.0
2019-06-10 20:00:00+00:00,100.0
2019-06-10 23:00:00+00:00,98.0
2019-06-11 02:00:00+00:00,97.0
2019-06-11 05:00:00+00:00,98.0
2019-06-11 08:00:00+00:00,99.0
2019-06-11 11:00:00+00:00,100.0
2019-06-11 14:00:00+00:00,100.0
2019-06-11 17:00:00+00:00,98.0
2019-06-11 20:00:00+00:00,100.0
2019-06-11 23:00:00+00:00,99.0
2019-06-12 02:00:00+00:00,100.0
2019-06-12 05:00:00+00:00,100.0
2019-06-12 08:00:00+00:00,86.0
2019-06-12 11:00:00+00:00,11.0
2019-06-12 14:00:00+00:00,6.0
2019-06-12 17:00:00+00:00,0.0
2019-06-12 20:00:00+00:00,0.0
2019-06-12 23:00:00+00:00,0.0
2019-06-13 02:00:00+00:00,0.0
2019-06-13 05:00:00+00:00,0.0
2019-06-13 11:00:00+00:00,0.0
2019-06-13 14:00:00+00:00,0.0
2019-06-13 17:00:00+00:00,0.0
2019-06-13 20:00:00+00:00,38.0
2019-06-13 23:00:00+00:00,100.0
2019-06-14 02:00:00+00:00,100.0
2019-06-14 05:00:00+00:00,100.0
2019-06-14 08:00:00+00:00,100.0
2019-06-14 11:00:00+00:00,100.0
2019-06-14 14:00:00+00:00,90.0
2019-06-14 17:00:00+00:00,67.0
2019-06-14 20:00:00+00:00,69.0
2019-06-14 23:00:00+00:00,7.0
2019-06-15 02:00:00+00:00,39.0
2019-06-15 05:00:00+00:00,95.0
2019-06-15 08:00:00+00:00,85.0
2019-06-15 11:00:00+00:00,100.0
2019-06-15 14:00:00+00:00,93.0
2019-06-15 17:00:00+00:00,89.0
2019-06-15 20:00:00+00:00,43.0
2019-06-15 23:00:00+00:00,68.0
2019-06-16 02:00:00+00:00,64.0
2019-06-16 05:00:00+00:00,90.0
2019-06-16 08:00:00+00:00,93.0
2019-06-16 11:00:00+00:00,100.0
2019-06-16 14:00:00+00:00,94.0
2019-06-16 17:00:00+00:00,31.0
2019-06-16 20:00:00+00:00,14.0
2019-06-16 23:00:00+00:00,4.0
2019-06-17 02:00:00+00:00,19.0
2019-06-17 05:00:00+00:00,0.0
2019-06-17 08:00:00+00:00,8.0
2019-06-17 11:00:00+00:00,0.0
2019-06-17 14:00:00+00:00,0.0
2019-06-17 17:00:00+00:00,72.0
2019-06-17 20:00:00+00:00,69.0
2019-06-17 23:00:00+00:00,0.0
2019-06-18 02:00:00+00:00,0.0
2019-06-18 05:00:00+00:00,50.0
2019-06-18 08:00:00+00:00,58.0
2019-06-18 11:00:00+00:00,100.0
2019-06-18 14:00:00+00:00,73.0
2019-06-18 17:00:00+00:00,56.0
2019-06-18 20:00:00+00:00,57.0
2019-06-18 23:00:00+00:00,1.0
2019-06-19 02:00:00+00:00,0.0
2019-06-19 05:00:00+00:00,0.0
2019-06-19 08:00:00+00:00,25.0
2019-06-19 11:00:00+00:00,32.0
2019-06-19 14:00:00+00:00,18.0
2019-06-19 17:00:00+00:00,45.0
2019-06-19 20:00:00+00:00,78.0
2019-06-19 23:00:00+00:00,95.0
2019-06-20 02:00:00+00:00,78.0
2019-06-20 05:00:00+00:00,100.0
2019-06-20 08:00:00+00:00,98.0
2019-06-20 11:00:00+00:00,27.0
2019-06-20 14:00:00+00:00,22.0
2019-06-20 17:00:00+00:00,84.0
2019-06-20 20:00:00+00:00,85.0
2019-06-20 23:00:00+00:00,68.0
2019-06-21 02:00:00+00:00,83.0
2019-06-21 05:00:00+00:00,100.0
2019-06-21 08:00:00+00:00,100.0
2019-06-21 11:00:00+00:00,71.0
2019-06-21 14:00:00+00:00,80.0
2019-06-21 17:00:00+00:00,56.0
2019-06-21 20:00:00+00:00,73.0
2019-06-21 23:00:00+00:00,100.0
2019-06-22 02:00:00+00:00,100.0
2019-06-22 05:00:00+00:00,100.0
2019-06-22 08:00:00+00:00,20.0
2019-06-22 11:00:00+00:00,100.0
2019-06-22 14:00:00+00:00,68.0
2019-06-22 17:00:00+00:00,0.0
2019-06-22 20:00:00+00:00,0.0
2019-06-22 23:00:00+00:00,1.0
2019-06-23 02:00:00+00:00,1.0
2019-06-23 05:00:00+00:00,32.0
2019-06-23 08:00:00+00:00,12.0
2019-06-23 11:00:00+00:00,14.0
2019-06-23 14:00:00+00:00,31.0
2019-06-23 17:00:00+00:00,34.0
2019-06-23 20:00:00+00:00,57.0
2019-06-23 23:00:00+00:00,100.0
2019-06-24 02:00:00+00:00,100.0
2019-06-24 05:00:00+00:00,84.0
2019-06-24 08:00:00+00:00,68.0
2019-06-24 11:00:00+00:00,0.0
2019-06-24 14:00:00+00:00,0.0
2019-06-24 17:00:00+00:00,3.0
2019-06-24 20:00:00+00:00,17.0
2019-06-24 23:00:00+00:00,100.0
2019-06-25 02:00:00+00:00,94.0
2019-06-25 05:00:00+00:00,40.0
2019-06-25 08:00:00+00:00,57.0
2019-06-25 11:00:00+00:00,0.0
2019-06-25 14:00:00+00:00,0.0
2019-06-25 17:00:00+00:00,1.0
2019-06-25 20:00:00+00:00,22.0
2019-06-25 23:00:00+00:00,12.0
2019-06-26 02:00:00+00:00,24.0
2019-06-26 05:00:00+00:00,64.0
2019-06-26 08:00:00+00:00,0.0
2019-06-26 11:00:00+00:00,0.0
2019-06-26 14:00:00+00:00,0.0
2019-06-26 17:00:00+00:00,0.0
2019-06-26 20:00:00+00:00,0.0
2019-06-26 23:00:00+00:00,0.0
2019-06-27 02:00:00+00:00,0.0
2019-06-27 05:00:00+00:00,0.0
2019-06-27 08:00:00+00:00,0.0
2019-06-27 11:00:00+00:00,0.0
2019-06-27 14:00:00+00:00,0.0
2019-06-27 17:00:00+00:00,0.0
2019-06-27 20:00:00+00:00,0.0
2019-06-27 23:00:00+00:00,0.0
2019-06-28 02:00:00+00:00,0.0
2019-06-28 05:00:00+00:00,0.0
2019-06-28 08:00:00+00:00,0.0
2019-06-28 11:00:00+00:00,0.0
2019-06-28 14:00:00+00:00,0.0
2019-06-28 17:00:00+00:00,0.0
2019-06-28 20:00:00+00:00,0.0
2019-06-28 23:00:00+00:00,0.0
2019-06-29 02:00:00+00:00,0.0
2019-06-29 05:00:00+00:00,0.0
2019-06-29 08:00:00+00:00,0.0
2019-06-29 11:00:00+00:00,0.0
2019-06-29 14:00:00+00:00,0.0
2019-06-29 17:00:00+00:00,0.0
2019-06-29 20:00:00+00:00,17.0
2019-06-29 23:00:00+00:00,99.0
2019-06-30 02:00:00+00:00,66.0
2019-06-30 05:00:00+00:00,55.0
2019-06-30 08:00:00+00:00,45.0
2019-06-30 11:00:00+00:00,3.0
2019-06-30 14:00:00+00:00,10.0
2019-06-30 17:00:00+00:00,53.0
2019-06-30 20:00:00+00:00,30.0
2019-06-30 23:00:00+00:00,100.0
2019-07-01 02:00:00+00:00,67.0
2019-07-01 05:00:00+00:00,0.0
2019-07-01 08:00:00+00:00,0.0
2019-07-01 11:00:00+00:00,0.0
2019-07-01 14:00:00+00:00,0.0
2019-07-01 17:00:00+00:00,50.0
2019-07-01 20:00:00+00:00,22.0
2019-07-01 23:00:00+00:00,6.0
2019-07-02 02:00:00+00:00,3.0
2019-07-02 05:00:00+00:00,54.0
2019-07-02 08:00:00+00:00,48.0
2019-07-02 11:00:00+00:00,88.0
2019-07-02 14:00:00+00:00,56.0
2019-07-02 17:00:00+00:00,12.0
2019-07-02 20:00:00+00:00,12.0
2019-07-02 23:00:00+00:00,99.0
2019-07-03 02:00:00+00:00,99.0
2019-07-03 05:00:00+00:00,69.0
2019-07-03 08:00:00+00:00,85.0
2019-07-03 11:00:00+00:00,58.0
2019-07-03 14:00:00+00:00,35.0
2019-07-03 17:00:00+00:00,34.0
2019-07-03 20:00:00+00:00,62.0
2019-07-03 23:00:00+00:00,83.0
2019-07-04 02:00:00+00:00,77.0
2019-07-04 05:00:00+00:00,15.0
2019-07-04 08:00:00+00:00,4.0
2019-07-04 11:00:00+00:00,1.0
2019-07-04 14:00:00+00:00,27.0
2019-07-04 17:00:00+00:00,4.0
2019-07-04 20:00:00+00:00,26.0
2019-07-04 23:00:00+00:00,33.0
2019-07-05 02:00:00+00:00,17.0
2019-07-05 05:00:00+00:00,0.0
2019-07-05 08:00:00+00:00,0.0
2019-07-05 11:00:00+00:00,0.0
2019-07-05 14:00:00+00:00,0.0
2019-07-05 17:00:00+00:00,0.0
2019-07-05 20:00:00+00:00,17.0
2019-07-05 23:00:00+00:00,0.0
2019-07-06 02:00:00+00:00,0.0
2019-07-06 05:00:00+00:00,0.0
2019-07-06 08:00:00+00:00,0.0
2019-07-06 11:00:00+00:00,0.0
2019-07-06 14:00:00+00:00,0.0
2019-07-06 17:00:00+00:00,0.0
2019-07-06 20:00:00+00:00,6.0
2019-07-06 23:00:00+00:00,67.0
2019-07-07 02:00:00+00:00,83.0
2019-07-07 05:00:00+00:00,67.0
2019-07-07 08:00:00+00:00,93.0
2019-07-07 11:00:00+00:00,0.0
2019-07-07 14:00:00+00:00,1.0
2019-07-07 17:00:00+00:00,0.0
2019-07-07 20:00:00+00:00,0.0
2019-07-07 23:00:00+00:00,0.0
2019-07-08 02:00:00+00:00,1.0
2019-07-08 05:00:00+00:00,27.0
2019-07-08 08:00:00+00:00,67.0
2019-07-08 11:00:00+00:00,68.0
2019-07-08 14:00:00+00:00,41.0
2019-07-08 17:00:00+00:00,13.0
2019-07-08 20:00:00+00:00,6.0
2019-07-08 23:00:00+00:00,100.0
2019-07-09 02:00:00+00:00,100.0
2019-07-09 05:00:00+00:00,89.0
2019-07-09 08:00:00+00:00,84.0
2019-07-09 11:00:00+00:00,98.0
2019-07-09 14:00:00+00:00,99.0
2019-07-09 17:00:00+00:00,97.0
2019-07-09 20:00:00+00:00,100.0
2019-07-09 23:00:00+00:00,32.0
2019-07-10 02:00:00+00:00,21.0
2019-07-10 05:00:00+00:00,30.0
2019-07-10 08:00:00+00:00,69.0
2019-07-10 11:00:00+00:00,94.0
2019-07-10 14:00:00+00:00,70.0
2019-07-10 17:00:00+00:00,0.0
2019-07-10 20:00:00+00:00,5.0
2019-07-10 23:00:00+00:00,0.0
2019-07-11 02:00:00+00:00,50.0
2019-07-11 05:00:00+00:00,24.0
2019-07-11 08:00:00+00:00,67.0
2019-07-11 11:00:00+00:00,100.0
2019-07-11 14:00:00+00:00,100.0
2019-07-11 17:00:00+00:00,100.0
2019-07-11 20:00:00+00:00,100.0
2019-07-11 23:00:00+00:00,0.0
2019-07-12 02:00:00+00:00,0.0
2019-07-12 05:00:00+00:00,0.0
2019-07-12 08:00:00+00:00,0.0
2019-07-12 11:00:00+00:00,0.0
2019-07-12 14:00:00+00:00,14.0
2019-07-12 17:00:00+00:00,0.0
2019-07-12 20:00:00+00:00,0.0
2019-07-12 23:00:00+00:00,0.0
2019-07-13 02:00:00+00:00,0.0
2019-07-13 05:00:00+00:00,7.0
2019-07-13 08:00:00+00:00,25.0
2019-07-13 11:00:00+00:00,20.0
2019-07-13 14:00:00+00:00,1.0
2019-07-13 17:00:00+00:00,15.0
2019-07-13 20:00:00+00:00,20.0
2019-07-13 23:00:00+00:00,0.0
2019-07-14 02:00:00+00:00,0.0
2019-07-14 05:00:00+00:00,4.0
2019-07-14 08:00:00+00:00,9.0
2019-07-14 11:00:00+00:00,0.0
2019-07-14 14:00:00+00:00,0.0
2019-07-14 17:00:00+00:00,0.0
2019-07-14 20:00:00+00:00,39.0
2019-07-14 23:00:00+00:00,84.0
2019-07-15 02:00:00+00:00,71.0
2019-07-15 05:00:00+00:00,100.0
2019-07-15 08:00:00+00:00,100.0
2019-07-15 11:00:00+00:00,100.0
2019-07-15 14:00:00+00:00,100.0
2019-07-15 17:00:00+00:00,94.0
2019-07-15 20:00:00+00:00,65.0
2019-07-15 23:00:00+00:00,1.0
2019-07-16 02:00:00+00:00,10.0
2019-07-16 05:00:00+00:00,29.0
2019-07-16 08:00:00+00:00,4.0
2019-07-16 11:00:00+00:00,18.0
2019-07-16 14:00:00+00:00,68.0
2019-07-16 17:00:00+00:00,48.0
2019-07-16 20:00:00+00:00,89.0
2019-07-16 23:00:00+00:00,100.0
2019-07-17 02:00:00+00:00,88.0
2019-07-17 05:00:00+00:00,0.0
2019-07-17 08:00:00+00:00,12.0
2019-07-17 11:00:00+00:00,32.0
2019-07-17 14:00:00+00:00,87.0
2019-07-17 17:00:00+00:00,94.0
2019-07-17 20:00:00+00:00,74.0
2019-07-17 23:00:00+00:00,34.0
2019-07-18 02:00:00+00:00,67.0
2019-07-18 05:00:00+00:00,32.0
2019-07-18 08:00:00+00:00,66.0
2019-07-18 11:00:00+00:00,31.0
2019-07-18 14:00:00+00:00,42.0
2019-07-18 17:00:00+00:00,92.0
2019-07-18 20:00:00+00:00,96.0
2019-07-18 23:00:00+00:00,51.0
2019-07-19 02:00:00+00:00,37.0
2019-07-19 05:00:00+00:00,0.0
2019-07-19 08:00:00+00:00,13.0
2019-07-19 11:00:00+00:00,0.0
2019-07-19 14:00:00+00:00,0.0
2019-07-19 17:00:00+00:00,0.0
2019-07-19 20:00:00+00:00,0.0
2019-07-19 23:00:00+00:00,0.0
2019-07-20 02:00:00+00:00,0.0
2019-07-20 05:00:00+00:00,0.0
2019-07-20 08:00:00+00:00,27.0
2019-07-20 11:00:00+00:00,69.0
2019-07-20 14:00:00+00:00,92.0
2019-07-20 17:00:00+00:00,82.0
2019-07-20 20:00:00+00:00,78.0
2019-07-20 23:00:00+00:00,48.0
2019-07-21 02:00:00+00:00,74.0
2019-07-21 05:00:00+00:00,88.0
2019-07-21 08:00:00+00:00,63.0
2019-07-21 11:00:00+00:00,37.0
2019-07-21 14:00:00+00:00,21.0
2019-07-21 17:00:00+00:00,0.0
2019-07-21 20:00:00+00:00,38.0
2019-07-21 23:00:00+00:00,100.0
2019-07-22 02:00:00+00:00,78.0
2019-07-22 05:00:00+00:00,0.0
2019-07-22 08:00:00+00:00,0.0
2019-07-22 11:00:00+00:00,0.0
2019-07-22 14:00:00+00:00,6.0
2019-07-22 17:00:00+00:00,100.0
2019-07-22 20:00:00+00:00,14.0
2019-07-22 23:00:00+00:00,86.0
2019-07-23 02:00:00+00:00,68.0
2019-07-23 05:00:00+00:00,40.0
2019-07-23 08:00:00+00:00,56.0
2019-07-23 11:00:00+00:00,24.0
2019-07-23 14:00:00+00:00,27.0
2019-07-23 17:00:00+00:00,100.0
2019-07-23 20:00:00+00:00,100.0
2019-07-23 23:00:00+00:00,100.0
2019-07-24 02:00:00+00:00,69.0
2019-07-24 05:00:00+00:00,9.0
2019-07-24 08:00:00+00:00,5.0
2019-07-24 11:00:00+00:00,63.0
2019-07-24 14:00:00+00:00,21.0
2019-07-24 17:00:00+00:00,2.0
2019-07-24 20:00:00+00:00,26.0
2019-07-24 23:00:00+00:00,16.0
2019-07-25 02:00:00+00:00,32.0
2019-07-25 05:00:00+00:00,0.0
2019-07-25 08:00:00+00:00,0.0
2019-07-25 11:00:00+00:00,19.0
2019-07-25 14:00:00+00:00,5.0
2019-07-25 17:00:00+00:00,13.0
2019-07-25 20:00:00+00:00,10.0
2019-07-25 23:00:00+00:00,71.0
2019-07-26 02:00:00+00:00,36.0
2019-07-26 05:00:00+00:00,0.0
2019-07-26 08:00:00+00:00,0.0
2019-07-26 11:00:00+00:00,0.0
2019-07-26 14:00:00+00:00,0.0
2019-07-26 17:00:00+00:00,0.0
2019-07-26 20:00:00+00:00,25.0
2019-07-26 23:00:00+00:00,0.0
2019-07-27 02:00:00+00:00,3.0
2019-07-27 05:00:00+00:00,100.0
2019-07-27 08:00:00+00:00,99.0
2019-07-27 11:00:00+00:00,100.0
2019-07-27 14:00:00+00:00,54.0
2019-07-27 17:00:00+00:00,72.0
2019-07-27 20:00:00+00:00,100.0
2019-07-27 23:00:00+00:00,100.0
2019-07-28 02:00:00+00:00,100.0
2019-07-28 05:00:00+00:00,100.0
2019-07-28 08:00:00+00:00,100.0
2019-07-28 11:00:00+00:00,100.0
2019-07-28 14:00:00+00:00,100.0
2019-07-28 17:00:00+00:00,100.0
2019-07-28 20:00:00+00:00,97.0
2019-07-28 23:00:00+00:00,48.0
2019-07-29 02:00:00+00:00,32.0
2019-07-29 05:00:00+00:00,23.0
2019-07-29 08:00:00+00:00,53.0
2019-07-29 11:00:00+00:00,96.0
2019-07-29 14:00:00+00:00,79.0
2019-07-29 17:00:00+00:00,6.0
2019-07-29 20:00:00+00:00,1.0
2019-07-29 23:00:00+00:00,0.0
2019-07-30 02:00:00+00:00,0.0
2019-07-30 05:00:00+00:00,0.0
2019-07-30 08:00:00+00:00,0.0
2019-07-30 11:00:00+00:00,1.0
2019-07-30 14:00:00+00:00,2.0
2019-07-30 17:00:00+00:00,0.0
2019-07-30 20:00:00+00:00,5.0
2019-07-30 23:00:00+00:00,0.0
2019-07-31 02:00:00+00:00,17.0
2019-07-31 05:00:00+00:00,100.0
2019-07-31 08:00:00+00:00,100.0
2019-07-31 11:00:00+00:00,97.0
2019-07-31 14:00:00+00:00,93.0
2019-07-31 17:00:00+00:00,41.0
2019-07-31 20:00:00+00:00,41.0
2019-07-31 23:00:00+00:00,84.0
2019-08-01 02:00:00+00:00,71.0
2019-08-01 05:00:00+00:00,70.0
2019-08-01 08:00:00+00:00,27.0
2019-08-01 11:00:00+00:00,6.0
2019-08-01 14:00:00+00:00,63.0
2019-08-01 17:00:00+00:00,99.0
2019-08-01 20:00:00+00:00,50.0
2019-08-01 23:00:00+00:00,0.0
2019-08-02 02:00:00+00:00,1.0
2019-08-02 05:00:00+00:00,0.0
2019-08-02 08:00:00+00:00,0.0
2019-08-02 11:00:00+00:00,0.0
2019-08-02 14:00:00+00:00,0.0
2019-08-02 17:00:00+00:00,0.0
2019-08-02 20:00:00+00:00,5.0
2019-08-02 23:00:00+00:00,0.0
2019-08-03 02:00:00+00:00,0.0
2019-08-03 05:00:00+00:00,0.0
2019-08-03 08:00:00+00:00,0.0
2019-08-03 11:00:00+00:00,0.0
2019-08-03 14:00:00+00:00,0.0
2019-08-03 17:00:00+00:00,0.0
2019-08-03 20:00:00+00:00,0.0
2019-08-03 23:00:00+00:00,0.0
2019-08-04 02:00:00+00:00,44.0
2019-08-04 05:00:00+00:00,83.0
2019-08-04 08:00:00+00:00,50.0
2019-08-04 11:00:00+00:00,20.0
2019-08-04 14:00:00+00:00,15.0
2019-08-04 17:00:00+00:00,0.0
2019-08-04 20:00:00+00:00,14.0
2019-08-04 23:00:00+00:00,32.0
2019-08-05 02:00:00+00:00,50.0
2019-08-05 05:00:00+00:00,36.0
2019-08-05 08:00:00+00:00,0.0
2019-08-05 11:00:00+00:00,45.0
2019-08-05 14:00:00+00:00,34.0
2019-08-05 17:00:00+00:00,43.0
2019-08-05 20:00:00+00:00,39.0
2019-08-05 23:00:00+00:00,37.0
2019-08-06 02:00:00+00:00,43.0
2019-08-06 05:00:00+00:00,44.0
2019-08-06 08:00:00+00:00,14.0
2019-08-06 11:00:00+00:00,15.0
2019-08-06 14:00:00+00:00,1.0
2019-08-06 17:00:00+00:00,67.0
2019-08-06 20:00:00+00:00,100.0
2019-08-06 23:00:00+00:00,51.0
2019-08-07 02:00:00+00:00,51.0
2019-08-07 05:00:00+00:00,100.0
2019-08-07 08:00:00+00:00,100.0
2019-08-07 11:00:00+00:00,100.0
2019-08-07 14:00:00+00:00,100.0
2019-08-07 17:00:00+00:00,81.0
2019-08-07 20:00:00+00:00,38.0
2019-08-07 23:00:00+00:00,0.0
2019-08-08 02:00:00+00:00,0.0
2019-08-08 05:00:00+00:00,44.0
2019-08-08 08:00:00+00:00,85.0
2019-08-08 11:00:00+00:00,1.0
2019-08-08 14:00:00+00:00,18.0
2019-08-08 17:00:00+00:00,0.0
2019-08-08 20:00:00+00:00,3.0
2019-08-08 23:00:00+00:00,0.0
2019-08-09 02:00:00+00:00,12.0
2019-08-09 05:00:00+00:00,0.0
2019-08-09 08:00:00+00:00,0.0
2019-08-09 11:00:00+00:00,0.0
2019-08-09 14:00:00+00:00,0.0
2019-08-09 17:00:00+00:00,0.0
2019-08-09 20:00:00+00:00,9.0
2019-08-09 23:00:00+00:00,2.0
2019-08-10 02:00:00+00:00,41.0
2019-08-10 05:00:00+00:00,63.0
2019-08-10 08:00:00+00:00,22.0
2019-08-10 11:00:00+00:00,90.0
2019-08-10 14:00:00+00:00,81.0
2019-08-10 17:00:00+00:00,12.0
2019-08-10 20:00:00+00:00,26.0
2019-08-10 23:00:00+00:00,1.0
2019-08-11 02:00:00+00:00,2.0
2019-08-11 05:00:00+00:00,0.0
2019-08-11 08:00:00+00:00,0.0
2019-08-11 11:00:00+00:00,0.0
2019-08-11 14:00:00+00:00,1.0
2019-08-11 17:00:00+00:00,60.0
2019-08-11 20:00:00+00:00,54.0
2019-08-11 23:00:00+00:00,100.0
2019-08-12 02:00:00+00:00,100.0
2019-08-12 05:00:00+00:00,100.0
2019-08-12 08:00:00+00:00,100.0
2019-08-12 11:00:00+00:00,100.0
2019-08-12 14:00:00+00:00,100.0
2019-08-12 17:00:00+00:00,33.0
2019-08-12 20:00:00+00:00,33.0
2019-08-12 23:00:00+00:00,0.0
2019-08-13 02:00:00+00:00,23.0
2019-08-13 05:00:00+00:00,53.0
2019-08-13 08:00:00+00:00,68.0
2019-08-13 11:00:00+00:00,100.0
2019-08-13 14:00:00+00:00,100.0
2019-08-13 17:00:00+00:00,100.0
2019-08-13 20:00:00+00:00,95.0
2019-08-13 23:00:00+00:00,7.0
2019-08-14 02:00:00+00:00,4.0
2019-08-14 05:00:00+00:00,33.0
2019-08-14 08:00:00+00:00,61.0
2019-08-14 11:00:00+00:00,33.0
2019-08-14 14:00:00+00:00,6.0
2019-08-14 17:00:00+00:00,30.0
2019-08-14 20:00:00+00:00,0.0
2019-08-14 23:00:00+00:00,0.0
2019-08-15 02:00:00+00:00,18.0
2019-08-15 05:00:00+00:00,100.0
2019-08-15 08:00:00+00:00,89.0
2019-08-15 11:00:00+00:00,73.0
2019-08-15 14:00:00+00:00,57.0
2019-08-15 17:00:00+00:00,24.0
2019-08-15 20:00:00+00:00,11.0
2019-08-15 23:00:00+00:00,0.0
2019-08-16 02:00:00+00:00,3.0
2019-08-16 05:00:00+00:00,70.0
2019-08-16 08:00:00+00:00,35.0
2019-08-16 11:00:00+00:00,30.0
2019-08-16 14:00:00+00:00,78.0
2019-08-16 17:00:00+00:00,97.0
2019-08-16 20:00:00+00:00,59.0
2019-08-16 23:00:00+00:00,64.0
2019-08-17 02:00:00+00:00,82.0
2019-08-17 05:00:00+00:00,87.0
2019-08-17 08:00:00+00:00,98.0
2019-08-17 11:00:00+00:00,32.0
2019-08-17 14:00:00+00:00,51.0
2019-08-17 17:00:00+00:00,82.0
2019-08-17 20:00:00+00:00,62.0
2019-08-17 23:00:00+00:00,27.0
2019-08-18 02:00:00+00:00,14.0
2019-08-18 05:00:00+00:00,4.0
2019-08-18 08:00:00+00:00,0.0
2019-08-18 11:00:00+00:00,0.0
2019-08-18 14:00:00+00:00,0.0
2019-08-18 17:00:00+00:00,0.0
2019-08-18 20:00:00+00:00,0.0
2019-08-18 23:00:00+00:00,99.0
2019-08-19 02:00:00+00:00,62.0
2019-08-19 05:00:00+00:00,8.0
2019-08-19 08:00:00+00:00,59.0
2019-08-19 11:00:00+00:00,51.0
2019-08-19 14:00:00+00:00,54.0
2019-08-19 17:00:00+00:00,96.0
2019-08-19 20:00:00+00:00,100.0
2019-08-19 23:00:00+00:00,100.0
2019-08-20 02:00:00+00:00,100.0
2019-08-20 05:00:00+00:00,100.0
2019-08-20 08:00:00+00:00,100.0
2019-08-20 11:00:00+00:00,100.0
2019-08-20 14:00:00+00:00,100.0
2019-08-20 17:00:00+00:00,100.0
2019-08-20 20:00:00+00:00,100.0
2019-08-20 23:00:00+00:00,70.0
2019-08-21 02:00:00+00:00,84.0
2019-08-21 05:00:00+00:00,99.0
2019-08-21 08:00:00+00:00,100.0
2019-08-21 11:00:00+00:00,89.0
2019-08-21 14:00:00+00:00,94.0
2019-08-21 17:00:00+00:00,100.0
2019-08-21 20:00:00+00:00,84.0
2019-08-21 23:00:00+00:00,74.0
2019-08-22 02:00:00+00:00,87.0
2019-08-22 05:00:00+00:00,100.0
2019-08-22 08:00:00+00:00,100.0
2019-08-22 11:00:00+00:00,100.0
2019-08-22 14:00:00+00:00,100.0
2019-08-22 17:00:00+00:00,100.0
2019-08-22 20:00:00+00:00,99.0
2019-08-22 23:00:00+00:00,18.0
2019-08-23 02:00:00+00:00,9.0
2019-08-23 05:00:00+00:00,0.0
2019-08-23 08:00:00+00:00,0.0
2019-08-23 11:00:00+00:00,0.0
2019-08-23 14:00:00+00:00,0.0
2019-08-23 17:00:00+00:00,0.0
2019-08-23 20:00:00+00:00,0.0
2019-08-23 23:00:00+00:00,0.0
2019-08-24 02:00:00+00:00,0.0
2019-08-24 05:00:00+00:00,0.0
2019-08-24 08:00:00+00:00,4.0
2019-08-24 11:00:00+00:00,0.0
2019-08-24 14:00:00+00:00,0.0
2019-08-24 17:00:00+00:00,0.0
2019-08-24 20:00:00+00:00,0.0
2019-08-24 23:00:00+00:00,0.0
2019-08-25 02:00:00+00:00,20.0
2019-08-25 05:00:00+00:00,35.0
2019-08-25 08:00:00+00:00,11.0
2019-08-25 11:00:00+00:00,0.0
2019-08-25 14:00:00+00:00,0.0
2019-08-25 17:00:00+00:00,0.0
2019-08-25 20:00:00+00:00,0.0
2019-08-25 23:00:00+00:00,0.0
2019-08-26 02:00:00+00:00,0.0
2019-08-26 05:00:00+00:00,0.0
2019-08-26 08:00:00+00:00,0.0
2019-08-26 11:00:00+00:00,0.0
2019-08-26 14:00:00+00:00,0.0
2019-08-26 17:00:00+00:00,0.0
2019-08-26 20:00:00+00:00,1.0
2019-08-26 23:00:00+00:00,9.0
2019-08-27 02:00:00+00:00,32.0
2019-08-27 05:00:00+00:00,88.0
2019-08-27 08:00:00+00:00,87.0
2019-08-27 11:00:00+00:00,79.0
2019-08-27 14:00:00+00:00,100.0
2019-08-27 17:00:00+00:00,100.0
2019-08-27 20:00:00+00:00,100.0
2019-08-27 23:00:00+00:00,99.0
2019-08-28 02:00:00+00:00,98.0
2019-08-28 05:00:00+00:00,19.0
2019-08-28 08:00:00+00:00,79.0
2019-08-28 11:00:00+00:00,37.0
2019-08-28 14:00:00+00:00,49.0
2019-08-28 17:00:00+00:00,100.0
2019-08-28 20:00:00+00:00,87.0
2019-08-28 23:00:00+00:00,71.0
2019-08-29 02:00:00+00:00,56.0
2019-08-29 05:00:00+00:00,96.0
2019-08-29 08:00:00+00:00,27.0
2019-08-29 11:00:00+00:00,6.0
2019-08-29 14:00:00+00:00,3.0
2019-08-29 17:00:00+00:00,0.0
2019-08-29 20:00:00+00:00,10.0
2019-08-29 23:00:00+00:00,41.0
2019-08-30 02:00:00+00:00,41.0
2019-08-30 05:00:00+00:00,62.0
2019-08-30 08:00:00+00:00,60.0
2019-08-30 11:00:00+00:00,47.0
2019-08-30 14:00:00+00:00,0.0
2019-08-30 17:00:00+00:00,0.0
2019-08-30 20:00:00+00:00,0.0
2019-08-30 23:00:00+00:00,99.0
2019-08-31 02:00:00+00:00,96.0
2019-08-31 05:00:00+00:00,65.0
2019-08-31 08:00:00+00:00,17.0
2019-08-31 11:00:00+00:00,4.0
2019-08-31 14:00:00+00:00,1.0
2019-08-31 17:00:00+00:00,77.0
2019-08-31 20:00:00+00:00,44.0
2019-08-31 23:00:00+00:00,3.0
2019-09-01 02:00:00+00:00,23.0
2019-09-01 05:00:00+00:00,71.0
2019-09-01 08:00:00+00:00,21.0
2019-09-01 11:00:00+00:00,68.0
2019-09-01 14:00:00+00:00,90.0
2019-09-01 17:00:00+00:00,100.0
2019-09-01 20:00:00+00:00,100.0
2019-09-01 23:00:00+00:00,100.0
2019-09-02 02:00:00+00:00,96.0
2019-09-02 05:00:00+00:00,99.0
2019-09-02 08:00:00+00:00,87.0
2019-09-02 11:00:00+00:00,100.0
2019-09-02 14:00:00+00:00,100.0
2019-09-02 17:00:00+00:00,85.0
2019-09-02 20:00:00+00:00,95.0
2019-09-02 23:00:00+00:00,45.0
2019-09-03 02:00:00+00:00,62.0
2019-09-03 05:00:00+00:00,96.0
2019-09-03 08:00:00+00:00,76.0
2019-09-03 11:00:00+00:00,96.0
2019-09-03 14:00:00+00:00,74.0
2019-09-03 17:00:00+00:00,31.0
2019-09-03 20:00:00+00:00,26.0
2019-09-03 23:00:00+00:00,0.0
2019-09-04 02:00:00+00:00,4.0
2019-09-04 05:00:00+00:00,0.0
2019-09-04 08:00:00+00:00,0.0
2019-09-04 11:00:00+00:00,0.0
2019-09-04 14:00:00+00:00,0.0
2019-09-04 17:00:00+00:00,0.0
2019-09-04 20:00:00+00:00,0.0
2019-09-04 23:00:00+00:00,0.0
2019-09-05 02:00:00+00:00,0.0
2019-09-05 05:00:00+00:00,0.0
2019-09-05 08:00:00+00:00,2.0
2019-09-05 11:00:00+00:00,90.0
2019-09-05 14:00:00+00:00,100.0
2019-09-05 17:00:00+00:00,92.0
2019-09-05 20:00:00+00:00,100.0
2019-09-05 23:00:00+00:00,78.0
2019-09-06 02:00:00+00:00,89.0
2019-09-06 05:00:00+00:00,98.0
2019-09-06 08:00:00+00:00,98.0
2019-09-06 11:00:00+00:00,100.0
2019-09-06 14:00:00+00:00,99.0
2019-09-06 17:00:00+00:00,85.0
2019-09-06 20:00:00+00:00,95.0
2019-09-06 23:00:00+00:00,42.0
2019-09-07 02:00:00+00:00,44.0
2019-09-07 05:00:00+00:00,97.0
2019-09-07 08:00:00+00:00,89.0
2019-09-07 11:00:00+00:00,37.0
2019-09-07 14:00:00+00:00,19.0
2019-09-07 17:00:00+00:00,0.0
2019-09-07 20:00:00+00:00,23.0
2019-09-07 23:00:00+00:00,38.0
2019-09-08 02:00:00+00:00,36.0
2019-09-08 05:00:00+00:00,38.0
2019-09-08 08:00:00+00:00,64.0
2019-09-08 11:00:00+00:00,83.0
2019-09-08 14:00:00+00:00,80.0
2019-09-08 17:00:00+00:00,71.0
2019-09-08 20:00:00+00:00,25.0
2019-09-08 23:00:00+00:00,19.0
2019-09-09 02:00:00+00:00,27.0
2019-09-09 05:00:00+00:00,40.0
2019-09-09 08:00:00+00:00,31.0
2019-09-09 11:00:00+00:00,1.0
2019-09-09 14:00:00+00:00,18.0
2019-09-09 17:00:00+00:00,100.0
2019-09-09 20:00:00+00:00,100.0
2019-09-09 23:00:00+00:00,100.0
2019-09-10 02:00:00+00:00,100.0
2019-09-10 05:00:00+00:00,100.0
2019-09-10 08:00:00+00:00,100.0
2019-09-10 11:00:00+00:00,100.0
2019-09-10 14:00:00+00:00,100.0
2019-09-10 17:00:00+00:00,100.0
2019-09-10 20:00:00+00:00,100.0
2019-09-10 23:00:00+00:00,94.0
2019-09-11 02:00:00+00:00,73.0
2019-09-11 05:00:00+00:00,95.0
2019-09-11 08:00:00+00:00,80.0
2019-09-11 11:00:00+00:00,74.0
2019-09-11 14:00:00+00:00,67.0
2019-09-11 17:00:00+00:00,99.0
2019-09-11 20:00:00+00:00,62.0
2019-09-11 23:00:00+00:00,26.0
2019-09-12 02:00:00+00:00,13.0
2019-09-12 05:00:00+00:00,0.0
2019-09-12 08:00:00+00:00,0.0
2019-09-12 11:00:00+00:00,0.0
2019-09-12 14:00:00+00:00,0.0
2019-09-12 17:00:00+00:00,0.0
2019-09-12 20:00:00+00:00,0.0
2019-09-12 23:00:00+00:00,0.0
2019-09-13 02:00:00+00:00,0.0
2019-09-13 05:00:00+00:00,0.0
2019-09-13 08:00:00+00:00,0.0
2019-09-13 11:00:00+00:00,0.0
2019-09-13 14:00:00+00:00,0.0
2019-09-13 17:00:00+00:00,0.0
2019-09-13 20:00:00+00:00,0.0
2019-09-13 23:00:00+00:00,58.0
2019-09-14 02:00:00+00:00,54.0
2019-09-14 05:00:00+00:00,16.0
2019-09-14 08:00:00+00:00,55.0
2019-09-14 11:00:00+00:00,100.0
2019-09-14 14:00:00+00:00,88.0
2019-09-14 17:00:00+00:00,100.0
2019-09-14 20:00:00+00:00,89.0
2019-09-14 23:00:00+00:00,100.0
2019-09-15 02:00:00+00:00,90.0
2019-09-15 05:00:00+00:00,54.0
2019-09-15 08:00:00+00:00,55.0
2019-09-15 11:00:00+00:00,0.0
2019-09-15 14:00:00+00:00,5.0
2019-09-15 17:00:00+00:00,50.0
2019-09-15 20:00:00+00:00,14.0
2019-09-15 23:00:00+00:00,23.0
2019-09-16 02:00:00+00:00,22.0
2019-09-16 05:00:00+00:00,0.0
2019-09-16 08:00:00+00:00,0.0
2019-09-16 11:00:00+00:00,0.0
2019-09-16 14:00:00+00:00,0.0
2019-09-16 17:00:00+00:00,0.0
2019-09-16 20:00:00+00:00,0.0
2019-09-16 23:00:00+00:00,0.0
2019-09-17 02:00:00+00:00,0.0
2019-09-17 05:00:00+00:00,0.0
2019-09-17 08:00:00+00:00,0.0
2019-09-17 11:00:00+00:00,0.0
2019-09-17 14:00:00+00:00,0.0
2019-09-17 17:00:00+00:00,0.0
2019-09-17 20:00:00+00:00,0.0
2019-09-17 23:00:00+00:00,0.0
2019-09-18 02:00:00+00:00,0.0
2019-09-18 05:00:00+00:00,0.0
2019-09-18 08:00:00+00:00,3.0
2019-09-18 11:00:00+00:00,14.0
2019-09-18 14:00:00+00:00,33.0
2019-09-18 17:00:00+00:00,0.0
2019-09-18 20:00:00+00:00,31.0
2019-09-18 23:00:00+00:00,0.0
2019-09-19 02:00:00+00:00,0.0
2019-09-19 05:00:00+00:00,0.0
2019-09-19 08:00:00+00:00,26.0
2019-09-19 11:00:00+00:00,98.0
2019-09-19 14:00:00+00:00,70.0
2019-09-19 17:00:00+00:00,0.0
2019-09-19 20:00:00+00:00,0.0
2019-09-19 23:00:00+00:00,0.0
2019-09-20 02:00:00+00:00,0.0
2019-09-20 05:00:00+00:00,0.0
2019-09-20 08:00:00+00:00,0.0
2019-09-20 11:00:00+00:00,0.0
2019-09-20 14:00:00+00:00,32.0
2019-09-20 17:00:00+00:00,79.0
2019-09-20 20:00:00+00:00,72.0
2019-09-20 23:00:00+00:00,92.0
2019-09-21 02:00:00+00:00,73.0
2019-09-21 05:00:00+00:00,1.0
2019-09-21 08:00:00+00:00,18.0
2019-09-21 11:00:00+00:00,42.0
2019-09-21 14:00:00+00:00,83.0
2019-09-21 17:00:00+00:00,100.0
2019-09-21 20:00:00+00:00,100.0
2019-09-21 23:00:00+00:00,100.0
2019-09-22 02:00:00+00:00,100.0
2019-09-22 05:00:00+00:00,100.0
2019-09-22 08:00:00+00:00,100.0
2019-09-22 11:00:00+00:00,62.0
2019-09-22 14:00:00+00:00,84.0
2019-09-22 17:00:00+00:00,83.0
2019-09-22 20:00:00+00:00,97.0
2019-09-22 23:00:00+00:00,100.0
2019-09-23 02:00:00+00:00,100.0
2019-09-23 05:00:00+00:00,85.0
2019-09-23 08:00:00+00:00,62.0
2019-09-23 11:00:00+00:00,77.0
2019-09-23 14:00:00+00:00,84.0
2019-09-23 17:00:00+00:00,100.0
2019-09-23 20:00:00+00:00,64.0
2019-09-23 23:00:00+00:00,100.0
2019-09-24 02:00:00+00:00,96.0
2019-09-24 05:00:00+00:00,94.0
2019-09-24 08:00:00+00:00,43.0
2019-09-24 11:00:00+00:00,85.0
2019-09-24 14:00:00+00:00,100.0
2019-09-24 17:00:00+00:00,80.0
2019-09-24 20:00:00+00:00,76.0
2019-09-24 23:00:00+00:00,100.0
2019-09-25 02:00:00+00:00,99.0
2019-09-25 05:00:00+00:00,68.0
2019-09-25 08:00:00+00:00,88.0
2019-09-25 11:00:00+00:00,100.0
2019-09-25 14:00:00+00:00,70.0
2019-09-25 17:00:00+00:00,99.0
2019-09-25 20:00:00+00:00,82.0
2019-09-25 23:00:00+00:00,25.0
2019-09-26 02:00:00+00:00,63.0
2019-09-26 05:00:00+00:00,100.0
2019-09-26 08:00:00+00:00,94.0
2019-09-26 11:00:00+00:00,93.0
2019-09-26 14:00:00+00:00,56.0
2019-09-26 17:00:00+00:00,1.0
2019-09-26 20:00:00+00:00,2.0
2019-09-26 23:00:00+00:00,0.0
2019-09-27 02:00:00+00:00,4.0
2019-09-27 05:00:00+00:00,11.0
2019-09-27 08:00:00+00:00,22.0
2019-09-27 11:00:00+00:00,38.0
2019-09-27 14:00:00+00:00,33.0
2019-09-27 17:00:00+00:00,46.0
2019-09-27 20:00:00+00:00,68.0
2019-09-27 23:00:00+00:00,18.0
2019-09-28 02:00:00+00:00,49.0
2019-09-28 05:00:00+00:00,62.0
2019-09-28 08:00:00+00:00,26.0
2019-09-28 11:00:00+00:00,59.0
2019-09-28 14:00:00+00:00,48.0
2019-09-28 17:00:00+00:00,63.0
2019-09-28 20:00:00+00:00,7.0
2019-09-28 23:00:00+00:00,0.0
2019-09-29 02:00:00+00:00,0.0
2019-09-29 05:00:00+00:00,0.0
2019-09-29 08:00:00+00:00,0.0
2019-09-29 11:00:00+00:00,0.0
2019-09-29 14:00:00+00:00,33.0
2019-09-29 17:00:00+00:00,0.0
2019-09-29 20:00:00+00:00,0.0
2019-09-29 23:00:00+00:00,34.0
2019-09-30 02:00:00+00:00,26.0
2019-09-30 05:00:00+00:00,0.0
2019-09-30 08:00:00+00:00,0.0
2019-09-30 11:00:00+00:00,47.0
2019-09-30 14:00:00+00:00,72.0
2019-09-30 17:00:00+00:00,86.0
2019-09-30 20:00:00+00:00,39.0
2019-09-30 23:00:00+00:00,0.0
2019-10-01 02:00:00+00:00,0.0
2019-10-01 05:00:00+00:00,0.0
2019-10-01 08:00:00+00:00,0.0
2019-10-01 11:00:00+00:00,0.0
2019-10-01 14:00:00+00:00,24.0
2019-10-01 17:00:00+00:00,0.0
2019-10-01 20:00:00+00:00,43.0
2019-10-01 23:00:00+00:00,100.0
2019-10-02 02:00:00+00:00,100.0
2019-10-02 05:00:00+00:00,75.0
2019-10-02 08:00:00+00:00,67.0
2019-10-02 11:00:00+00:00,35.0
2019-10-02 14:00:00+00:00,66.0
2019-10-02 17:00:00+00:00,81.0
2019-10-02 20:00:00+00:00,66.0
2019-10-02 23:00:00+00:00,99.0
2019-10-03 02:00:00+00:00,84.0
2019-10-03 05:00:00+00:00,90.0
2019-10-03 08:00:00+00:00,85.0
2019-10-03 11:00:00+00:00,97.0
2019-10-03 14:00:00+00:00,96.0
2019-10-03 17:00:00+00:00,99.0
2019-10-03 20:00:00+00:00,93.0
2019-10-03 23:00:00+00:00,33.0
2019-10-04 02:00:00+00:00,15.0
2019-10-04 05:00:00+00:00,2.0
2019-10-04 08:00:00+00:00,17.0
2019-10-04 11:00:00+00:00,100.0
2019-10-04 14:00:00+00:00,100.0
2019-10-04 17:00:00+00:00,84.0
2019-10-04 20:00:00+00:00,80.0
2019-10-04 23:00:00+00:00,98.0
2019-10-05 02:00:00+00:00,99.0
2019-10-05 05:00:00+00:00,82.0
2019-10-05 08:00:00+00:00,73.0
2019-10-05 11:00:00+00:00,98.0
2019-10-05 14:00:00+00:00,97.0
2019-10-05 17:00:00+00:00,69.0
2019-10-05 20:00:00+00:00,67.0
2019-10-05 23:00:00+00:00,88.0
2019-10-06 02:00:00+00:00,85.0
2019-10-06 05:00:00+00:00,96.0
2019-10-06 08:00:00+00:00,98.0
2019-10-06 11:00:00+00:00,86.0
2019-10-06 14:00:00+00:00,62.0
2019-10-06 17:00:00+00:00,100.0
2019-10-06 20:00:00+00:00,99.0
2019-10-06 23:00:00+00:00,100.0
2019-10-07 02:00:00+00:00,99.0
2019-10-07 05:00:00+00:00,100.0
2019-10-07 08:00:00+00:00,98.0
2019-10-07 11:00:00+00:00,99.0
2019-10-07 14:00:00+00:00,94.0
2019-10-07 17:00:00+00:00,97.0
2019-10-07 20:00:00+00:00,96.0
2019-10-07 23:00:00+00:00,68.0
2019-10-08 02:00:00+00:00,15.0
2019-10-08 05:00:00+00:00,0.0
2019-10-08 08:00:00+00:00,0.0
2019-10-08 11:00:00+00:00,0.0
2019-10-08 14:00:00+00:00,3.0
2019-10-08 17:00:00+00:00,36.0
2019-10-08 20:00:00+00:00,18.0
2019-10-08 23:00:00+00:00,100.0
2019-10-09 02:00:00+00:00,88.0
2019-10-09 05:00:00+00:00,100.0
2019-10-09 08:00:00+00:00,96.0
2019-10-09 11:00:00+00:00,100.0
2019-10-09 14:00:00+00:00,100.0
2019-10-09 17:00:00+00:00,74.0
2019-10-09 20:00:00+00:00,36.0
2019-10-09 23:00:00+00:00,0.0
2019-10-10 02:00:00+00:00,2.0
2019-10-10 05:00:00+00:00,12.0
2019-10-10 08:00:00+00:00,21.0
2019-10-10 11:00:00+00:00,10.0
2019-10-10 14:00:00+00:00,29.0
2019-10-10 17:00:00+00:00,71.0
2019-10-10 20:00:00+00:00,18.0
2019-10-10 23:00:00+00:00,0.0
2019-10-11 02:00:00+00:00,0.0
2019-10-11 05:00:00+00:00,0.0
2019-10-11 08:00:00+00:00,0.0
2019-10-11 11:00:00+00:00,0.0
2019-10-11 14:00:00+00:00,0.0
2019-10-11 17:00:00+00:00,0.0
2019-10-11 20:00:00+00:00,0.0
2019-10-11 23:00:00+00:00,0.0
2019-10-12 02:00:00+00:00,0.0
2019-10-12 05:00:00+00:00,0.0
2019-10-12 08:00:00+00:00,0.0
2019-10-12 11:00:00+00:00,95.0
2019-10-12 14:00:00+00:00,99.0
2019-10-12 17:00:00+00:00,100.0
2019-10-12 20:00:00+00:00,97.0
2019-10-12 23:00:00+00:00,57.0
2019-10-13 02:00:00+00:00,32.0
2019-10-13 05:00:00+00:00,72.0
2019-10-13 08:00:00+00:00,48.0
2019-10-13 11:00:00+00:00,52.0
2019-10-13 14:00:00+00:00,50.0
2019-10-13 17:00:00+00:00,0.0
2019-10-13 20:00:00+00:00,0.0
2019-10-13 23:00:00+00:00,0.0
2019-10-14 02:00:00+00:00,0.0
2019-10-14 05:00:00+00:00,0.0
2019-10-14 08:00:00+00:00,0.0
2019-10-14 11:00:00+00:00,0.0
2019-10-14 14:00:00+00:00,0.0
2019-10-14 17:00:00+00:00,0.0
2019-10-14 20:00:00+00:00,45.0
2019-10-14 23:00:00+00:00,100.0
2019-10-15 02:00:00+00:00,96.0
2019-10-15 05:00:00+00:00,96.0
2019-10-15 08:00:00+00:00,100.0
2019-10-15 11:00:00+00:00,100.0
2019-10-15 14:00:00+00:00,100.0
2019-10-15 17:00:00+00:00,99.0
2019-10-15 20:00:00+00:00,34.0
2019-10-15 23:00:00+00:00,0.0
2019-10-16 02:00:00+00:00,6.0
2019-10-16 05:00:00+00:00,0.0
2019-10-16 08:00:00+00:00,13.0
2019-10-16 11:00:00+00:00,0.0
2019-10-16 14:00:00+00:00,0.0
2019-10-16 17:00:00+00:00,10.0
2019-10-16 20:00:00+00:00,87.0
2019-10-16 23:00:00+00:00,100.0
2019-10-17 02:00:00+00:00,86.0
2019-10-17 05:00:00+00:00,100.0
2019-10-17 08:00:00+00:00,96.0
2019-10-17 11:00:00+00:00,25.0
2019-10-17 14:00:00+00:00,88.0
2019-10-17 17:00:00+00:00,100.0
2019-10-17 20:00:00+00:00,100.0
2019-10-17 23:00:00+00:00,100.0
2019-10-18 02:00:00+00:00,68.0
2019-10-18 05:00:00+00:00,10.0
2019-10-18 08:00:00+00:00,52.0
2019-10-18 11:00:00+00:00,100.0
2019-10-18 14:00:00+00:00,100.0
2019-10-18 17:00:00+00:00,100.0
2019-10-18 20:00:00+00:00,100.0
2019-10-18 23:00:00+00:00,100.0
2019-10-19 02:00:00+00:00,100.0
2019-10-19 05:00:00+00:00,100.0
2019-10-19 08:00:00+00:00,100.0
2019-10-19 11:00:00+00:00,100.0
2019-10-19 14:00:00+00:00,100.0
2019-10-19 17:00:00+00:00,100.0
2019-10-19 20:00:00+00:00,100.0
2019-10-19 23:00:00+00:00,80.0
2019-10-20 02:00:00+00:00,43.0
2019-10-20 05:00:00+00:00,0.0
2019-10-20 08:00:00+00:00,33.0
2019-10-20 11:00:00+00:00,100.0
2019-10-20 14:00:00+00:00,79.0
2019-10-20 17:00:00+00:00,51.0
2019-10-20 20:00:00+00:00,87.0
2019-10-20 23:00:00+00:00,100.0
2019-10-21 02:00:00+00:00,88.0
2019-10-21 05:00:00+00:00,100.0
2019-10-21 08:00:00+00:00,100.0
2019-10-21 11:00:00+00:00,100.0
2019-10-21 14:00:00+00:00,100.0
2019-10-21 17:00:00+00:00,100.0
2019-10-21 20:00:00+00:00,100.0
2019-10-21 23:00:00+00:00,100.0
2019-10-22 02:00:00+00:00,100.0
2019-10-22 05:00:00+00:00,100.0
2019-10-22 08:00:00+00:00,100.0
2019-10-22 11:00:00+00:00,69.0
2019-10-22 14:00:00+00:00,85.0
2019-10-22 17:00:00+00:00,100.0
2019-10-22 20:00:00+00:00,89.0
2019-10-22 23:00:00+00:00,100.0
2019-10-23 02:00:00+00:00,95.0
2019-10-23 05:00:00+00:00,65.0
2019-10-23 08:00:00+00:00,75.0
2019-10-23 11:00:00+00:00,100.0
2019-10-23 14:00:00+00:00,100.0
2019-10-23 17:00:00+00:00,100.0
2019-10-23 20:00:00+00:00,100.0
2019-10-23 23:00:00+00:00,87.0
2019-10-24 02:00:00+00:00,100.0
2019-10-24 05:00:00+00:00,100.0
2019-10-24 08:00:00+00:00,90.0
2019-10-24 11:00:00+00:00,90.0
2019-10-24 14:00:00+00:00,100.0
2019-10-24 17:00:00+00:00,68.0
2019-10-24 20:00:00+00:00,55.0
2019-10-24 23:00:00+00:00,18.0
2019-10-25 02:00:00+00:00,83.0
2019-10-25 05:00:00+00:00,100.0
2019-10-25 08:00:00+00:00,99.0
2019-10-25 11:00:00+00:00,97.0
2019-10-25 14:00:00+00:00,92.0
2019-10-25 17:00:00+00:00,86.0
2019-10-25 20:00:00+00:00,84.0
2019-10-25 23:00:00+00:00,2.0
2019-10-26 02:00:00+00:00,2.0
2019-10-26 05:00:00+00:00,0.0
2019-10-26 08:00:00+00:00,0.0
2019-10-26 11:00:00+00:00,0.0
2019-10-26 14:00:00+00:00,0.0
2019-10-26 17:00:00+00:00,0.0
2019-10-26 20:00:00+00:00,0.0
2019-10-26 23:00:00+00:00,0.0
2019-10-27 02:00:00+00:00,0.0
2019-10-27 04:00:00+00:00,0.0
2019-10-27 07:00:00+00:00,0.0
2019-10-27 10:00:00+00:00,73.0
2019-10-27 13:00:00+00:00,88.0
2019-10-27 16:00:00+00:00,86.0
2019-10-27 19:00:00+00:00,74.0
2019-10-27 22:00:00+00:00,100.0
2019-10-28 01:00:00+00:00,100.0
2019-10-28 04:00:00+00:00,100.0
2019-10-28 07:00:00+00:00,100.0
2019-10-28 10:00:00+00:00,100.0
2019-10-28 13:00:00+00:00,100.0
2019-10-28 16:00:00+00:00,100.0
2019-10-28 19:00:00+00:00,100.0
2019-10-28 22:00:00+00:00,100.0
2019-10-29 01:00:00+00:00,100.0
2019-10-29 04:00:00+00:00,100.0
2019-10-29 07:00:00+00:00,100.0
2019-10-29 10:00:00+00:00,53.0
2019-10-29 13:00:00+00:00,57.0
2019-10-29 16:00:00+00:00,39.0
2019-10-29 19:00:00+00:00,81.0
2019-10-29 22:00:00+00:00,93.0
2019-10-30 01:00:00+00:00,49.0
2019-10-30 04:00:00+00:00,3.0
2019-10-30 07:00:00+00:00,59.0
2019-10-30 10:00:00+00:00,0.0
2019-10-30 13:00:00+00:00,0.0
2019-10-30 16:00:00+00:00,37.0
2019-10-30 19:00:00+00:00,71.0
2019-10-30 22:00:00+00:00,100.0
2019-10-31 01:00:00+00:00,89.0
2019-10-31 04:00:00+00:00,100.0
2019-10-31 07:00:00+00:00,100.0
2019-10-31 10:00:00+00:00,100.0
2019-10-31 13:00:00+00:00,100.0
2019-10-31 16:00:00+00:00,100.0
2019-10-31 19:00:00+00:00,100.0
2019-10-31 22:00:00+00:00,99.0
2019-11-01 01:00:00+00:00,97.0
2019-11-01 04:00:00+00:00,100.0
2019-11-01 07:00:00+00:00,86.0
2019-11-01 10:00:00+00:00,100.0
2019-11-01 13:00:00+00:00,100.0
2019-11-01 16:00:00+00:00,100.0
2019-11-01 19:00:00+00:00,100.0
2019-11-01 22:00:00+00:00,100.0
2019-11-02 01:00:00+00:00,100.0
2019-11-02 04:00:00+00:00,100.0
2019-11-02 07:00:00+00:00,100.0
2019-11-02 10:00:00+00:00,100.0
2019-11-02 13:00:00+00:00,100.0
2019-11-02 16:00:00+00:00,97.0
2019-11-02 19:00:00+00:00,89.0
2019-11-02 22:00:00+00:00,100.0
2019-11-03 01:00:00+00:00,100.0
2019-11-03 04:00:00+00:00,100.0
2019-11-03 07:00:00+00:00,100.0
2019-11-03 10:00:00+00:00,100.0
2019-11-03 13:00:00+00:00,100.0
2019-11-03 16:00:00+00:00,100.0
2019-11-03 19:00:00+00:00,100.0
2019-11-03 22:00:00+00:00,100.0
2019-11-04 01:00:00+00:00,100.0
2019-11-04 04:00:00+00:00,67.0
2019-11-04 07:00:00+00:00,83.0
2019-11-04 10:00:00+00:00,100.0
2019-11-04 13:00:00+00:00,100.0
2019-11-04 16:00:00+00:00,100.0
2019-11-04 19:00:00+00:00,100.0
2019-11-04 22:00:00+00:00,100.0
2019-11-05 01:00:00+00:00,100.0
2019-11-05 04:00:00+00:00,78.0
2019-11-05 07:00:00+00:00,100.0
2019-11-05 10:00:00+00:00,90.0
2019-11-05 13:00:00+00:00,85.0
2019-11-05 16:00:00+00:00,42.0
2019-11-05 19:00:00+00:00,93.0
2019-11-05 22:00:00+00:00,77.0
2019-11-06 01:00:00+00:00,88.0
2019-11-06 04:00:00+00:00,100.0
2019-11-06 07:00:00+00:00,100.0
2019-11-06 10:00:00+00:00,98.0
2019-11-06 13:00:00+00:00,99.0
2019-11-06 16:00:00+00:00,91.0
2019-11-06 19:00:00+00:00,71.0
2019-11-06 22:00:00+00:00,61.0
2019-11-07 01:00:00+00:00,31.0
2019-11-07 04:00:00+00:00,43.0
2019-11-07 07:00:00+00:00,38.0
2019-11-07 10:00:00+00:00,100.0
2019-11-07 13:00:00+00:00,100.0
2019-11-07 16:00:00+00:00,100.0
2019-11-07 19:00:00+00:00,100.0
2019-11-07 22:00:00+00:00,100.0
2019-11-08 01:00:00+00:00,100.0
2019-11-08 04:00:00+00:00,100.0
2019-11-08 07:00:00+00:00,96.0
2019-11-08 10:00:00+00:00,10.0
2019-11-08 13:00:00+00:00,66.0
2019-11-08 16:00:00+00:00,48.0
2019-11-08 19:00:00+00:00,41.0
2019-11-08 22:00:00+00:00,17.0
2019-11-09 01:00:00+00:00,38.0
2019-11-09 04:00:00+00:00,100.0
2019-11-09 07:00:00+00:00,98.0
2019-11-09 10:00:00+00:00,100.0
2019-11-09 13:00:00+00:00,99.0
2019-11-09 16:00:00+00:00,100.0
2019-11-09 19:00:00+00:00,70.0
2019-11-09 22:00:00+00:00,32.0
2019-11-10 01:00:00+00:00,38.0
2019-11-10 04:00:00+00:00,100.0
2019-11-10 07:00:00+00:00,100.0
2019-11-10 10:00:00+00:00,100.0
2019-11-10 13:00:00+00:00,100.0
2019-11-10 16:00:00+00:00,100.0
2019-11-10 19:00:00+00:00,100.0
2019-11-10 22:00:00+00:00,100.0
2019-11-11 01:00:00+00:00,99.0
2019-11-11 04:00:00+00:00,99.0
2019-11-11 07:00:00+00:00,99.0
2019-11-11 10:00:00+00:00,100.0
2019-11-11 13:00:00+00:00,100.0
2019-11-11 16:00:00+00:00,100.0
2019-11-11 19:00:00+00:00,99.0
2019-11-11 22:00:00+00:00,0.0
2019-11-12 01:00:00+00:00,51.0
2019-11-12 04:00:00+00:00,99.0
2019-11-12 07:00:00+00:00,99.0
2019-11-12 10:00:00+00:00,77.0
2019-11-12 13:00:00+00:00,35.0
2019-11-12 16:00:00+00:00,0.0
2019-11-12 19:00:00+00:00,0.0
2019-11-12 22:00:00+00:00,1.0
2019-11-13 01:00:00+00:00,6.0
2019-11-13 04:00:00+00:00,60.0
2019-11-13 07:00:00+00:00,65.0
2019-11-13 10:00:00+00:00,98.0
2019-11-13 13:00:00+00:00,98.0
2019-11-13 16:00:00+00:00,95.0
2019-11-13 19:00:00+00:00,89.0
2019-11-13 22:00:00+00:00,58.0
2019-11-14 01:00:00+00:00,58.0
2019-11-14 04:00:00+00:00,100.0
2019-11-14 07:00:00+00:00,100.0
2019-11-14 10:00:00+00:00,100.0
2019-11-14 13:00:00+00:00,100.0
2019-11-14 16:00:00+00:00,100.0
2019-11-14 19:00:00+00:00,100.0
2019-11-14 22:00:00+00:00,100.0
2019-11-15 01:00:00+00:00,100.0
2019-11-15 04:00:00+00:00,100.0
2019-11-15 07:00:00+00:00,100.0
2019-11-15 10:00:00+00:00,2.0
2019-11-15 13:00:00+00:00,37.0
2019-11-15 16:00:00+00:00,79.0
2019-11-15 19:00:00+00:00,100.0
2019-11-15 22:00:00+00:00,100.0
2019-11-16 01:00:00+00:00,100.0
2019-11-16 04:00:00+00:00,100.0
2019-11-16 07:00:00+00:00,100.0
2019-11-16 10:00:00+00:00,52.0
2019-11-16 13:00:00+00:00,44.0
2019-11-16 16:00:00+00:00,3.0
2019-11-16 19:00:00+00:00,1.0
2019-11-16 22:00:00+00:00,32.0
2019-11-17 01:00:00+00:00,71.0
2019-11-17 04:00:00+00:00,84.0
2019-11-17 07:00:00+00:00,82.0
2019-11-17 10:00:00+00:00,100.0
2019-11-17 13:00:00+00:00,100.0
2019-11-17 16:00:00+00:00,100.0
2019-11-17 19:00:00+00:00,100.0
2019-11-17 22:00:00+00:00,100.0
2019-11-18 01:00:00+00:00,100.0
2019-11-18 04:00:00+00:00,100.0
2019-11-18 07:00:00+00:00,100.0
2019-11-18 10:00:00+00:00,100.0
2019-11-18 13:00:00+00:00,99.0
2019-11-18 16:00:00+00:00,100.0
2019-11-18 19:00:00+00:00,100.0
2019-11-18 22:00:00+00:00,100.0
2019-11-19 01:00:00+00:00,100.0
2019-11-19 04:00:00+00:00,100.0
2019-11-19 07:00:00+00:00,100.0
2019-11-19 10:00:00+00:00,100.0
2019-11-19 13:00:00+00:00,100.0
2019-11-19 16:00:00+00:00,99.0
2019-11-19 19:00:00+00:00,100.0
2019-11-19 22:00:00+00:00,96.0
2019-11-20 01:00:00+00:00,53.0
2019-11-20 04:00:00+00:00,0.0
2019-11-20 07:00:00+00:00,0.0
2019-11-20 10:00:00+00:00,0.0
2019-11-20 13:00:00+00:00,17.0
2019-11-20 16:00:00+00:00,100.0
2019-11-20 19:00:00+00:00,100.0
2019-11-20 22:00:00+00:00,99.0
2019-11-21 01:00:00+00:00,97.0
2019-11-21 04:00:00+00:00,100.0
2019-11-21 07:00:00+00:00,100.0
2019-11-21 10:00:00+00:00,59.0
2019-11-21 13:00:00+00:00,66.0
2019-11-21 16:00:00+00:00,88.0
2019-11-21 19:00:00+00:00,95.0
2019-11-21 22:00:00+00:00,100.0
2019-11-22 01:00:00+00:00,100.0
2019-11-22 04:00:00+00:00,100.0
2019-11-22 07:00:00+00:00,100.0
2019-11-22 10:00:00+00:00,52.0
2019-11-22 13:00:00+00:00,33.0
2019-11-22 16:00:00+00:00,55.0
2019-11-22 19:00:00+00:00,74.0
2019-11-22 22:00:00+00:00,100.0
2019-11-23 01:00:00+00:00,100.0
2019-11-23 04:00:00+00:00,100.0
2019-11-23 07:00:00+00:00,100.0
2019-11-23 10:00:00+00:00,100.0
2019-11-23 13:00:00+00:00,100.0
2019-11-23 16:00:00+00:00,100.0
2019-11-23 19:00:00+00:00,100.0
2019-11-23 22:00:00+00:00,100.0
2019-11-24 01:00:00+00:00,100.0
2019-11-24 04:00:00+00:00,100.0
2019-11-24 07:00:00+00:00,100.0
2019-11-24 10:00:00+00:00,100.0
2019-11-24 13:00:00+00:00,100.0
2019-11-24 16:00:00+00:00,100.0
2019-11-24 19:00:00+00:00,100.0
2019-11-24 22:00:00+00:00,100.0
2019-11-25 01:00:00+00:00,100.0
2019-11-25 04:00:00+00:00,100.0
2019-11-25 07:00:00+00:00,95.0
2019-11-25 10:00:00+00:00,64.0
2019-11-25 13:00:00+00:00,78.0
2019-11-25 16:00:00+00:00,95.0
2019-11-25 19:00:00+00:00,76.0
2019-11-25 22:00:00+00:00,35.0
2019-11-26 01:00:00+00:00,79.0
2019-11-26 04:00:00+00:00,89.0
2019-11-26 07:00:00+00:00,92.0
2019-11-26 10:00:00+00:00,100.0
2019-11-26 13:00:00+00:00,83.0
2019-11-26 16:00:00+00:00,18.0
2019-11-26 19:00:00+00:00,59.0
2019-11-26 22:00:00+00:00,100.0
2019-11-27 01:00:00+00:00,100.0
2019-11-27 04:00:00+00:00,100.0
2019-11-27 07:00:00+00:00,100.0
2019-11-27 10:00:00+00:00,90.0
2019-11-27 13:00:00+00:00,90.0
2019-11-27 16:00:00+00:00,100.0
2019-11-27 19:00:00+00:00,86.0
2019-11-27 22:00:00+00:00,100.0
2019-11-28 01:00:00+00:00,100.0
2019-11-28 04:00:00+00:00,100.0
2019-11-28 07:00:00+00:00,100.0
2019-11-28 10:00:00+00:00,100.0
2019-11-28 13:00:00+00:00,100.0
2019-11-28 16:00:00+00:00,97.0
2019-11-28 19:00:00+00:00,83.0
2019-11-28 22:00:00+00:00,100.0
2019-11-29 01:00:00+00:00,100.0
2019-11-29 04:00:00+00:00,100.0
2019-11-29 07:00:00+00:00,97.0
2019-11-29 10:00:00+00:00,100.0
2019-11-29 13:00:00+00:00,100.0
2019-11-29 16:00:00+00:00,92.0
2019-11-29 19:00:00+00:00,87.0
2019-11-29 22:00:00+00:00,100.0
2019-11-30 01:00:00+00:00,91.0
2019-11-30 04:00:00+00:00,99.0
2019-11-30 07:00:00+00:00,96.0
2019-11-30 10:00:00+00:00,66.0
2019-11-30 13:00:00+00:00,75.0
2019-11-30 16:00:00+00:00,100.0
2019-11-30 19:00:00+00:00,100.0
2019-11-30 22:00:00+00:00,100.0
2019-12-01 01:00:00+00:00,100.0
2019-12-01 04:00:00+00:00,100.0
2019-12-01 07:00:00+00:00,100.0
2019-12-01 10:00:00+00:00,100.0
2019-12-01 13:00:00+00:00,100.0
2019-12-01 16:00:00+00:00,100.0
2019-12-01 19:00:00+00:00,100.0
2019-12-01 22:00:00+00:00,100.0
2019-12-02 01:00:00+00:00,100.0
2019-12-02 04:00:00+00:00,100.0
2019-12-02 07:00:00+00:00,100.0
2019-12-02 10:00:00+00:00,100.0
2019-12-02 13:00:00+00:00,100.0
2019-12-02 16:00:00+00:00,100.0
2019-12-02 19:00:00+00:00,100.0
2019-12-02 22:00:00+00:00,100.0
2019-12-03 01:00:00+00:00,100.0
2019-12-03 04:00:00+00:00,100.0
2019-12-03 07:00:00+00:00,97.0
2019-12-03 10:00:00+00:00,84.0
2019-12-03 13:00:00+00:00,63.0
2019-12-03 16:00:00+00:00,0.0
2019-12-03 19:00:00+00:00,0.0
2019-12-03 22:00:00+00:00,0.0
2019-12-04 01:00:00+00:00,0.0
2019-12-04 04:00:00+00:00,0.0
2019-12-04 07:00:00+00:00,27.0
2019-12-04 10:00:00+00:00,6.0
2019-12-04 13:00:00+00:00,40.0
2019-12-04 16:00:00+00:00,100.0
2019-12-04 19:00:00+00:00,86.0
2019-12-04 22:00:00+00:00,92.0
2019-12-05 01:00:00+00:00,30.0
2019-12-05 04:00:00+00:00,99.0
2019-12-05 07:00:00+00:00,76.0
2019-12-05 10:00:00+00:00,58.0
2019-12-05 13:00:00+00:00,70.0
2019-12-05 16:00:00+00:00,100.0
2019-12-05 19:00:00+00:00,93.0
2019-12-05 22:00:00+00:00,56.0
2019-12-06 01:00:00+00:00,39.0
2019-12-06 04:00:00+00:00,0.0
2019-12-06 07:00:00+00:00,8.0
2019-12-06 10:00:00+00:00,0.0
2019-12-06 13:00:00+00:00,0.0
2019-12-06 16:00:00+00:00,0.0
2019-12-06 19:00:00+00:00,3.0
2019-12-06 22:00:00+00:00,96.0
2019-12-07 01:00:00+00:00,97.0
2019-12-07 04:00:00+00:00,62.0
2019-12-07 07:00:00+00:00,66.0
2019-12-07 10:00:00+00:00,19.0
2019-12-07 13:00:00+00:00,1.0
2019-12-07 16:00:00+00:00,0.0
2019-12-07 19:00:00+00:00,1.0
2019-12-07 22:00:00+00:00,16.0
2019-12-08 01:00:00+00:00,19.0
2019-12-08 04:00:00+00:00,32.0
2019-12-08 07:00:00+00:00,12.0
2019-12-08 10:00:00+00:00,0.0
2019-12-08 13:00:00+00:00,8.0
2019-12-08 16:00:00+00:00,76.0
2019-12-08 19:00:00+00:00,90.0
2019-12-08 22:00:00+00:00,100.0
2019-12-09 01:00:00+00:00,100.0
2019-12-09 04:00:00+00:00,83.0
2019-12-09 07:00:00+00:00,96.0
2019-12-09 10:00:00+00:00,100.0
2019-12-09 13:00:00+00:00,100.0
2019-12-09 16:00:00+00:00,100.0
2019-12-09 19:00:00+00:00,100.0
2019-12-09 22:00:00+00:00,100.0
2019-12-10 01:00:00+00:00,100.0
2019-12-10 04:00:00+00:00,100.0
2019-12-10 07:00:00+00:00,100.0
2019-12-10 10:00:00+00:00,99.0
2019-12-10 13:00:00+00:00,98.0
2019-12-10 16:00:00+00:00,93.0
2019-12-10 19:00:00+00:00,83.0
2019-12-10 22:00:00+00:00,0.0
2019-12-11 01:00:00+00:00,87.0
2019-12-11 04:00:00+00:00,100.0
2019-12-11 07:00:00+00:00,100.0
2019-12-11 10:00:00+00:00,100.0
2019-12-11 13:00:00+00:00,100.0
2019-12-11 16:00:00+00:00,100.0
2019-12-11 19:00:00+00:00,100.0
2019-12-11 22:00:00+00:00,100.0
2019-12-12 01:00:00+00:00,83.0
2019-12-12 04:00:00+00:00,100.0
2019-12-12 07:00:00+00:00,96.0
2019-12-12 10:00:00+00:00,97.0
2019-12-12 13:00:00+00:00,93.0
2019-12-12 16:00:00+00:00,17.0
2019-12-12 19:00:00+00:00,21.0
2019-12-12 22:00:00+00:00,100.0
2019-12-13 01:00:00+00:00,100.0
2019-12-13 04:00:00+00:00,100.0
2019-12-13 07:00:00+00:00,100.0
2019-12-13 10:00:00+00:00,100.0
2019-12-13 13:00:00+00:00,100.0
2019-12-13 16:00:00+00:00,100.0
2019-12-13 19:00:00+00:00,100.0
2019-12-13 22:00:00+00:00,100.0
2019-12-14 01:00:00+00:00,100.0
2019-12-14 04:00:00+00:00,100.0
2019-12-14 07:00:00+00:00,100.0
2019-12-14 10:00:00+00:00,99.0
2019-12-14 13:00:00+00:00,100.0
2019-12-14 16:00:00+00:00,100.0
2019-12-14 19:00:00+00:00,100.0
2019-12-14 22:00:00+00:00,100.0
2019-12-15 01:00:00+00:00,98.0
2019-12-15 04:00:00+00:00,100.0
2019-12-15 07:00:00+00:00,98.0
2019-12-15 10:00:00+00:00,92.0
2019-12-15 13:00:00+00:00,98.0
2019-12-15 16:00:00+00:00,20.0
2019-12-15 19:00:00+00:00,56.0
2019-12-15 22:00:00+00:00,100.0
2019-12-16 01:00:00+00:00,100.0
2019-12-16 04:00:00+00:00,100.0
2019-12-16 07:00:00+00:00,100.0
2019-12-16 10:00:00+00:00,100.0
2019-12-16 13:00:00+00:00,100.0
2019-12-16 16:00:00+00:00,100.0
2019-12-16 19:00:00+00:00,100.0
2019-12-16 22:00:00+00:00,100.0
2019-12-17 01:00:00+00:00,100.0
2019-12-17 04:00:00+00:00,100.0
2019-12-17 07:00:00+00:00,100.0
2019-12-17 10:00:00+00:00,100.0
2019-12-17 13:00:00+00:00,100.0
2019-12-17 16:00:00+00:00,98.0
2019-12-17 19:00:00+00:00,98.0
2019-12-17 22:00:00+00:00,57.0
2019-12-18 01:00:00+00:00,61.0
2019-12-18 04:00:00+00:00,96.0
2019-12-18 07:00:00+00:00,81.0
2019-12-18 10:00:00+00:00,82.0
2019-12-18 13:00:00+00:00,89.0
2019-12-18 16:00:00+00:00,89.0
2019-12-18 19:00:00+00:00,52.0
2019-12-18 22:00:00+00:00,17.0
2019-12-19 01:00:00+00:00,23.0
2019-12-19 04:00:00+00:00,0.0
2019-12-19 07:00:00+00:00,3.0
2019-12-19 10:00:00+00:00,65.0
2019-12-19 13:00:00+00:00,9.0
2019-12-19 16:00:00+00:00,100.0
2019-12-19 19:00:00+00:00,95.0
2019-12-19 22:00:00+00:00,89.0
2019-12-20 01:00:00+00:00,91.0
2019-12-20 04:00:00+00:00,100.0
2019-12-20 07:00:00+00:00,100.0
2019-12-20 10:00:00+00:00,100.0
2019-12-20 13:00:00+00:00,100.0
2019-12-20 16:00:00+00:00,100.0
2019-12-20 19:00:00+00:00,92.0
2019-12-20 22:00:00+00:00,100.0
2019-12-21 01:00:00+00:00,100.0
2019-12-21 04:00:00+00:00,99.0
2019-12-21 07:00:00+00:00,100.0
2019-12-21 10:00:00+00:00,100.0
2019-12-21 13:00:00+00:00,77.0
2019-12-21 16:00:00+00:00,0.0
2019-12-21 19:00:00+00:00,52.0
2019-12-21 22:00:00+00:00,100.0
2019-12-22 01:00:00+00:00,100.0
2019-12-22 04:00:00+00:00,96.0
2019-12-22 07:00:00+00:00,100.0
2019-12-22 10:00:00+00:00,100.0
2019-12-22 13:00:00+00:00,100.0
2019-12-22 16:00:00+00:00,100.0
2019-12-22 19:00:00+00:00,98.0
2019-12-22 22:00:00+00:00,100.0
2019-12-23 01:00:00+00:00,100.0
2019-12-23 04:00:00+00:00,100.0
2019-12-23 07:00:00+00:00,100.0
2019-12-23 10:00:00+00:00,100.0
2019-12-23 13:00:00+00:00,100.0
2019-12-23 16:00:00+00:00,100.0
2019-12-23 19:00:00+00:00,100.0
2019-12-23 22:00:00+00:00,73.0
2019-12-24 01:00:00+00:00,43.0
2019-12-24 04:00:00+00:00,95.0
2019-12-24 07:00:00+00:00,81.0
2019-12-24 10:00:00+00:00,100.0
2019-12-24 13:00:00+00:00,100.0
2019-12-24 16:00:00+00:00,100.0
2019-12-24 19:00:00+00:00,77.0
2019-12-24 22:00:00+00:00,0.0
2019-12-25 01:00:00+00:00,0.0
2019-12-25 04:00:00+00:00,0.0
2019-12-25 07:00:00+00:00,27.0
2019-12-25 10:00:00+00:00,0.0
2019-12-25 13:00:00+00:00,0.0
2019-12-25 16:00:00+00:00,50.0
2019-12-25 19:00:00+00:00,70.0
2019-12-25 22:00:00+00:00,91.0
2019-12-26 01:00:00+00:00,94.0
2019-12-26 04:00:00+00:00,87.0
2019-12-26 07:00:00+00:00,75.0
2019-12-26 10:00:00+00:00,100.0
2019-12-26 13:00:00+00:00,83.0
2019-12-26 16:00:00+00:00,68.0
2019-12-26 19:00:00+00:00,33.0
2019-12-26 22:00:00+00:00,81.0
2019-12-27 01:00:00+00:00,74.0
2019-12-27 04:00:00+00:00,95.0
2019-12-27 07:00:00+00:00,100.0
2019-12-27 10:00:00+00:00,100.0
2019-12-27 13:00:00+00:00,100.0
2019-12-27 16:00:00+00:00,90.0
2019-12-27 19:00:00+00:00,86.0
2019-12-27 22:00:00+00:00,100.0
2019-12-28 01:00:00+00:00,99.0
2019-12-28 04:00:00+00:00,100.0
2019-12-28 07:00:00+00:00,99.0
2019-12-28 10:00:00+00:00,100.0
2019-12-28 13:00:00+00:00,100.0
2019-12-28 16:00:00+00:00,100.0
2019-12-28 19:00:00+00:00,98.0
2019-12-28 22:00:00+00:00,90.0
2019-12-29 01:00:00+00:00,100.0
2019-12-29 04:00:00+00:00,64.0
2019-12-29 07:00:00+00:00,64.0
2019-12-29 10:00:00+00:00,1.0
2019-12-29 13:00:00+00:00,9.0
2019-12-29 16:00:00+00:00,96.0
2019-12-29 19:00:00+00:00,64.0
2019-12-29 22:00:00+00:00,63.0
2019-12-30 01:00:00+00:00,1.0
2019-12-30 04:00:00+00:00,0.0
2019-12-30 07:00:00+00:00,0.0
2019-12-30 10:00:00+00:00,0.0
2019-12-30 13:00:00+00:00,0.0
2019-12-30 16:00:00+00:00,0.0
2019-12-30 19:00:00+00:00,0.0
2019-12-30 22:00:00+00:00,0.0
2019-12-31 01:00:00+00:00,0.0
2019-12-31 04:00:00+00:00,0.0
2019-12-31 07:00:00+00:00,0.0
2019-12-31 10:00:00+00:00,2.0
2019-12-31 13:00:00+00:00,10.0
2019-12-31 16:00:00+00:00,67.0
2019-12-31 19:00:00+00:00,67.0
2019-12-31 22:00:00+00:00,36.0
