Time,XGBOOST,LGBM,GAMS,Naive,Naive2,SVM,Measured
2022-01-01,-0.28757328,-0.19753958058075544,-8.111131911796761,0.0,0.0,-0.5786870906755677,0.0
2022-01-02,-0.28757328,-0.35871769859363567,-6.4198598958227855,0.0,0.0,-0.48162532570998967,0.0
2022-01-03,5.858804,5.5153362026049235,9.427502492026774,0.0,20.0,5.272475498836338,96.0
2022-01-04,15.222497,14.88843115658581,20.53802148920688,0.0,0.0,7.413657933126251,1.0013388108427534
2022-01-05,13.632975,11.040579224557671,11.954702293998903,0.0,0.0,1.2475138016615803,21.0
2022-01-06,7.0576296,15.285183665887438,13.134379537027133,0.0,0.0,2.05088133553042,49.99545088707691
2022-01-07,16.061646,19.86621472678901,23.61951907474282,0.0,0.0,4.218089204779194,77.0
2022-01-08,4.8623013,7.467966671337104,6.2939344484415845,0.0,0.0,4.8942065624259214,0.0
2022-01-09,0.9755862,4.8813168594340866,15.16312041441476,0.0,0.0,1.3690658732570233,0.0
2022-01-10,19.3122,27.82981957651353,39.33237822242731,96.0,0.0,40.21384720787449,12.0
2022-01-11,8.747374,12.374393712513642,0.5189779223969957,1.0013388108427534,0.0,-0.8205360437343636,38.0
2022-01-12,21.435844,22.285395652530116,14.002950698854127,21.0,0.0,11.100295027446236,5.999529307297053
2022-01-13,33.758236,30.218700979330894,30.1400599566974,49.99545088707691,0.0,22.137840728367834,12.999071836829899
2022-01-14,18.029942,28.194423627628193,38.20476448119152,77.0,0.0,33.0200608310846,121.99074507610294
2022-01-15,0.25682533,6.617490881660583,7.6845098871684865,0.0,0.0,6.266084433647103,0.0
2022-01-16,4.6038175,0.8167669777127428,2.7923345882429427,0.0,0.0,0.26040730375697246,0.0
2022-01-17,23.917309,28.049967199036175,33.65199508040351,12.0,96.0,29.14583002283501,25.001866427141863
2022-01-18,24.420002,26.070304404251495,30.096529256281627,38.0,1.0013388108427534,18.21201832928585,49.0
2022-01-19,28.229004,24.06610678684749,7.356502549898275,5.999529307297053,21.0,9.11586723829335,31.99955267726
2022-01-20,37.809906,31.375685872567658,35.64272270778237,12.999071836829899,49.99545088707691,21.220373578734478,64.0
2022-01-21,50.987644,40.88771006827614,80.9146332613735,121.99074507610294,77.0,74.44598992590139,63.99927672693934
2022-01-22,1.0363224,8.210530896668006,4.11759178061469,0.0,0.0,2.2428446240614566,0.0
2022-01-23,0.5829546,4.659871126830515,3.0538331085614576,0.0,0.0,-0.6279683557269775,0.0
2022-01-24,20.248472,29.100806327741935,21.726075412117154,25.001866427141863,12.0,13.835160051985968,24.0
2022-01-25,22.743946,27.987635769499082,33.945998974471536,49.0,38.0,31.571903861953555,0.0
2022-01-26,15.693195,24.153266161502746,11.88348359667211,31.99955267726,5.999529307297053,13.292143432433095,0.0
2022-01-27,28.62608,25.387898523466543,33.21429476729361,64.0,12.999071836829899,29.68680906332285,17.0
2022-01-28,29.383856,29.744753883984696,50.77139517806128,63.99927672693934,121.99074507610294,56.29701407006984,51.987487287114845
2022-01-29,2.3771725,5.735342582011487,5.2708503112186005,0.0,0.0,2.087234672529826,0.0
2022-01-30,0.5906458,3.735937547783833,7.9393007479066835,0.0,0.0,0.2052373254228092,0.0
2022-01-31,23.137894,28.79054864935547,25.089129206407968,24.0,25.001866427141863,16.747781785753457,5.0
2022-02-01,37.28207,20.871220559663982,17.742338070667397,0.0,49.0,11.979780143899797,34.0
2022-02-02,26.612328,22.93963771205595,13.012718873310153,0.0,31.99955267726,9.695187233317123,12.0
2022-02-03,17.95596,25.610937994598622,31.82454317809171,17.0,64.0,24.44651387309497,62.98762752523453
2022-02-04,25.251392,37.34722307132233,47.71203354736744,51.987487287114845,63.99927672693934,41.992606744650736,49.0
2022-02-05,1.4895158,6.002157966328407,12.097903480098939,0.0,0.0,2.560510757279056,0.0
2022-02-06,0.46836415,2.8457699610494127,3.020721051440871,0.0,0.0,-0.2262824781033997,0.0
2022-02-07,14.284426,23.76431586931369,19.673230798328753,5.0,24.0,8.599212473734022,43.0
2022-02-08,22.15878,27.26137922745701,21.917802931337004,34.0,0.0,17.300775487678646,44.99305142445792
2022-02-09,22.522545,21.25104092881535,23.41371973038059,12.0,0.0,7.911696145765339,8.000511700780066
2022-02-10,12.959773,32.00142890309768,37.44668606047135,62.98762752523453,17.0,31.62554976355364,49.0
2022-02-11,50.91879,40.2626513807908,39.91496656912342,49.0,51.987487287114845,35.56250185194457,74.0
2022-02-12,0.46862066,4.911846497961615,10.794967820692733,0.0,0.0,4.0456443862471705,0.0
2022-02-13,0.5620121,4.2853124948115955,7.048747090019473,0.0,0.0,0.07094020781732818,0.0
2022-02-14,39.73749,33.42355038814121,29.838385995879115,43.0,5.0,20.24268434107486,28.0
2022-02-15,20.569859,28.498959760109962,27.812454284030764,44.99305142445792,34.0,27.94455955681445,19.998688595614112
2022-02-16,18.2088,20.571281544389183,11.45439963700251,8.000511700780066,12.0,6.360329350639061,5.998866931049406
2022-02-17,35.994583,33.01838759778566,38.06544165999267,49.0,62.98762752523453,36.78188081871152,97.9903173669527
2022-02-18,35.24226,37.0726367313808,50.83527071255086,74.0,49.0,49.39547976896784,51.99171824020141
2022-02-19,0.90809155,4.911846497961615,8.571831639503076,0.0,0.0,2.3646083839219845,0.0
2022-02-20,0.6143628,6.630971430207203,5.723917073276477,0.0,0.0,-0.161400830272102,0.0
2022-02-21,27.391258,33.3141526384534,29.863761706275255,28.0,43.0,22.84586563169827,19.0
2022-02-22,39.999,21.486687293158283,16.54723034179984,19.998688595614112,44.99305142445792,19.599878892162987,37.0
2022-02-23,18.140694,21.21412494583482,17.778672035717324,5.998866931049406,8.000511700780066,6.884907237973669,11.0
2022-02-24,32.337883,34.72175324360674,54.28943462203555,97.9903173669527,49.0,54.25089084220675,13.0
2022-02-25,50.951466,36.976393202948415,32.86897651909466,51.99171824020141,74.0,38.945697455388476,0.0
2022-02-26,0.23637012,0.5389740482993947,-4.686312904774695,0.0,0.0,-1.7939160125614586,0.0
2022-02-27,-0.05381625,-0.7234683768494773,-3.077821239447296,0.0,0.0,-0.6194066373126075,0.0
2022-02-28,9.605831,13.431664356342026,23.46545345543467,19.0,28.0,15.976921238583708,34.0
2022-03-01,20.295261,27.043444548167646,26.857863804240196,37.0,19.998688595614112,22.495561649041232,21.0
2022-03-02,16.6078,18.109759599740453,18.71748677085575,11.0,5.998866931049406,7.051814993453336,37.99956664716581
2022-03-03,34.28274,34.30566731321987,41.04531448350801,13.0,97.9903173669527,31.92651566226746,38.0
2022-03-04,36.746975,31.3385410223899,28.697357937396063,0.0,51.99171824020141,15.823859074029537,31.999011534871215
2022-03-05,1.1089119,8.210530896668006,8.77602913269652,0.0,0.0,2.342968139001309,0.0
2022-03-06,0.7049084,5.568766182798373,9.966616709082754,0.0,0.0,0.14745306988001355,0.0
2022-03-07,17.715805,29.561264913689914,21.21896532173744,34.0,19.0,18.945199390140157,24.99090186511785
2022-03-08,24.314852,24.95206438089118,22.84796525252421,21.0,37.0,18.955194507869802,14.997933756912971
2022-03-09,21.280338,27.34587696159839,20.493320887132125,37.99956664716581,11.0,19.50069576916184,37.0
2022-03-10,25.603752,34.4175587060546,29.756400328338785,38.0,13.0,21.515054862916305,60.99945504904554
2022-03-11,34.437496,33.85091901862309,31.22456841740211,31.999011534871215,0.0,17.691938580682628,30.0
2022-03-12,0.8932393,6.3550950853513655,9.50059373373107,0.0,0.0,1.413809339565683,0.0
2022-03-13,0.40888655,6.007152925833412,6.53981269549743,0.0,0.0,0.25867648581620467,0.0
2022-03-14,33.763702,33.09322823508486,22.536054845358226,24.99090186511785,34.0,18.813609470631175,22.0
2022-03-15,29.917028,20.759153573528913,17.798866554617067,14.997933756912971,21.0,12.406235453508069,62.99999999999999
2022-03-16,27.197422,30.972429732926877,35.4102763288556,37.0,37.99956664716581,29.23286448532458,3.0
2022-03-17,31.127398,34.59946779789045,36.438581355431836,60.99945504904554,38.0,35.00814797000857,26.0
2022-03-18,36.636757,32.48516886921203,25.134993264727033,30.0,31.999011534871215,21.228382709514047,73.0
2022-03-19,0.18958357,5.961114008301605,12.373184315429082,0.0,0.0,4.202377400098948,0.0
2022-03-20,0.15194501,3.082786597344689,0.8378910786456721,0.0,0.0,0.05453506578592221,0.0
2022-03-21,26.678957,30.261907934777117,28.82747752875645,22.0,24.99090186511785,16.39265840279887,19.0
2022-03-22,21.593239,25.576989679146784,31.109384375988142,62.99999999999999,14.997933756912971,30.736979729216554,8.991301739652044
2022-03-23,23.099428,21.503162288016348,6.030056883412195,3.0,37.0,9.067760012993938,4.0
2022-03-24,30.703327,27.385970167856375,30.117802816402776,26.0,60.99945504904554,26.533661775955945,4.0
2022-03-25,22.533401,29.07561794362572,33.9008150847277,73.0,30.0,37.95269575362489,22.96890788508972
2022-03-26,1.5772239,-1.1907523077580247,-2.059858286626394,0.0,0.0,0.05780403427645292,4.0
2022-03-27,0.47000846,2.17575656740187,3.2771358655215383,0.0,0.0,-0.2089230438184016,0.0
2022-03-28,9.419104,14.908053993022564,18.49950691951069,19.0,22.0,13.847988967880676,17.0
2022-03-29,29.223637,22.152846001637528,26.852215669712606,8.991301739652044,62.99999999999999,20.573939712088244,21.0
2022-03-30,10.179708,15.084801650898795,11.094818065402794,4.0,3.0,3.540644691353788,32.97644955308624
2022-03-31,21.57381,27.77452401228113,22.987482402000843,4.0,26.0,10.886848745625679,15.0
2022-04-01,29.854944,28.757068757400397,34.18673016617595,22.96890788508972,73.0,29.01850582176962,40.0
2022-04-02,2.157664,10.083559218843297,11.187530953876713,4.0,0.0,3.9150100382835067,0.0
2022-04-03,0.12854414,1.0228340747187161,2.42100833287304,0.0,0.0,-0.04497752671741734,0.0
2022-04-04,11.388308,20.014685199348797,16.452910555890128,17.0,19.0,11.911553826139292,8.0
2022-04-05,18.249844,20.578836075174262,17.691492913956868,21.0,8.991301739652044,11.802399575022685,20.997750438664298
2022-04-06,19.978168,20.856084483521308,15.763799909160026,32.97644955308624,4.0,15.749383798703422,6.995914150503268
2022-04-07,10.344505,15.310667238175053,16.707758382683576,15.0,4.0,7.772490144224861,13.0
2022-04-08,22.34781,25.48930508183789,24.167145727279088,40.0,22.96890788508972,23.27145139549172,32.0
2022-04-09,0.78556645,6.530022475692291,5.283067459703396,0.0,4.0,2.364071880143607,0.0
2022-04-10,0.36799967,0.3030948867755751,0.6691187153888798,0.0,0.0,-0.012662667680620576,0.0
2022-04-11,8.725553,20.309208762148685,18.006622227449277,8.0,17.0,7.894557500250878,7.0
2022-04-12,17.27383,17.634263557806943,17.57355868826224,20.997750438664298,21.0,14.677193265642723,21.990975243573303
2022-04-13,21.424639,19.5108837423484,15.678481848443177,6.995914150503268,32.97644955308624,11.962654207410162,8.996084096934283
2022-04-14,13.011927,16.511822036975445,17.412090129019216,13.0,15.0,10.26897904022952,5.0
2022-04-15,25.94636,30.62403574073798,24.105469641109092,32.0,40.0,23.591125789165243,31.99118243189605
2022-04-16,1.4148362,6.5429314741662665,4.447729031020826,0.0,0.0,1.5962757898184583,0.0
2022-04-17,0.36799967,-0.7360490407433821,-1.1103282942554777,0.0,0.0,-0.1875064415181827,0.0
2022-04-18,2.8754249,15.978873101535516,9.91184929512461,7.0,8.0,4.974561037938367,0.0
2022-04-19,18.96842,16.670932059294707,16.158770328043726,21.990975243573303,20.997750438664298,14.684406241022112,22.0
2022-04-20,8.311558,9.124153044696241,11.233754052771236,8.996084096934283,6.995914150503268,6.44862839689617,0.0
2022-04-21,10.945414,11.087789309160657,12.071648199236712,5.0,13.0,5.759369692488194,0.0
2022-04-22,21.710758,28.104814604342835,20.130050273434666,31.99118243189605,32.0,21.395396315269448,37.0
2022-04-23,2.7069669,6.883514150988996,5.7231355989141175,0.0,0.0,2.0470764849418632,0.0
2022-04-24,0.47636092,1.2006640351729396,-2.0592936787981238,0.0,0.0,-0.1966506755559559,0.0
2022-04-25,8.729407,14.76067268872446,14.74509889710901,0.0,7.0,2.307251613745466,23.98437091256892
2022-04-26,24.268574,21.45607537431621,22.427408709387453,22.0,21.990975243573303,16.845970162514757,10.0
2022-04-27,12.677143,15.399643481439517,8.825009947052708,0.0,8.996084096934283,2.4416226206732485,0.0
2022-04-28,7.3949246,9.971465147899876,11.896984418326232,0.0,5.0,1.9212184347532963,6.0
2022-04-29,23.561255,29.160931492092832,24.050130330906406,37.0,31.99118243189605,24.002270680480077,56.0
2022-04-30,3.2284706,4.089652661534074,6.978364487497181,0.0,0.0,3.15995265590656,0.0
2022-05-01,0.79688466,2.5596604952028965,-2.6012284035173536,0.0,0.0,-0.26485138002112724,0.0
2022-05-02,17.099493,21.696519581549726,18.921359666498216,23.98437091256892,0.0,10.525083461931482,2.0009330953939752
2022-05-03,12.4955435,13.581613619170957,13.269881799253035,10.0,22.0,9.724232339353785,0.0
2022-05-04,3.9841022,4.032839075995664,-1.2102832504836236,0.0,0.0,-0.6476256960384883,21.0
2022-05-05,9.818241,11.704296111205808,17.179456160473066,6.0,0.0,4.856263855252149,0.0
2022-05-06,18.63144,24.227275008766384,28.733227463845914,56.0,37.0,32.887638843392686,49.0
2022-05-07,3.824142,7.168025521373977,7.725511447490989,0.0,0.0,2.181485311069034,0.0
2022-05-08,1.6428764,0.19523316265328255,-2.2344527342486877,0.0,0.0,-0.4476755582973107,0.0
2022-05-09,8.343995,19.443322553425848,13.025621844174077,2.0009330953939752,23.98437091256892,6.892723848989997,0.0
2022-05-10,10.249085,11.108735365818418,12.60246785788787,0.0,10.0,3.374565277623299,52.9986237232788
2022-05-11,21.292353,18.72308905897009,18.3920069840433,21.0,0.0,12.167624301467082,31.0
2022-05-12,28.826836,21.55622548451846,23.397874379358278,0.0,6.0,4.427018544792668,24.0
2022-05-13,23.550299,35.66483983842833,37.934483177712764,49.0,56.0,36.261026532200525,27.98400471860805
2022-05-14,1.3653775,7.748803787959231,10.2632268301042,0.0,0.0,1.0825356369786852,0.0
2022-05-15,-0.060401246,-0.4921980963399983,-2.2795352394423745,0.0,0.0,-0.464571332361947,0.0
2022-05-16,13.5402155,14.260121958078399,13.032716286704611,0.0,2.0009330953939752,0.9156269261205472,0.0
2022-05-17,22.551062,23.529838555241643,23.243827257748997,52.9986237232788,0.0,22.850211736788165,30.0
2022-05-18,17.71457,22.76778406496225,21.499152430696107,31.0,21.0,19.01249842624269,0.0
2022-05-19,13.7086935,19.60058258098465,15.601378947186578,24.0,0.0,9.895291993973272,28.99810053818055
2022-05-20,20.626978,33.27536762940886,27.523887318517566,27.98400471860805,49.0,25.33388638429272,28.983034806804426
2022-05-21,0.87719333,4.446072413642863,6.954470062563262,0.0,0.0,1.9489559617593903,0.0
2022-05-22,0.32984114,1.3876960416940942,0.2935448167733874,0.0,0.0,-0.3091100510491723,0.0
2022-05-23,14.573518,15.344768574617488,16.250526436673915,0.0,0.0,0.6662649011923867,0.0
2022-05-24,25.009966,23.60596195383064,20.54427414759261,30.0,52.9986237232788,25.430977486079623,4.997692297438334
2022-05-25,13.300881,17.276553360637788,11.4292420132054,0.0,31.0,7.353142820233424,32.99753743099291
2022-05-26,8.012301,20.94235640158962,19.60548027295795,28.99810053818055,24.0,20.346975849357758,0.0
2022-05-27,24.662899,22.916357540187434,20.998461734536118,28.983034806804426,27.98400471860805,18.861297721687546,0.0
2022-05-28,0.7960979,4.669436944443485,-2.138851279826234,0.0,0.0,-0.5595021241850924,0.0
2022-05-29,1.1469511,0.3093783684632408,-2.329021709513338,0.0,0.0,-0.3892077817836748,0.0
2022-05-30,3.9443636,7.6465367460838936,5.187015740741488,0.0,0.0,0.3214718091321577,26.0
2022-05-31,11.228083,20.61211657093748,21.636076206210802,4.997692297438334,30.0,11.97810545438423,21.001161298921943
2022-06-01,23.849312,28.30060103911612,23.422262536786775,32.99753743099291,0.0,15.604776871419906,7.998058870379282
2022-06-02,13.923467,19.714366748629494,16.103302836737107,0.0,28.99810053818055,7.405561158008206,0.0
2022-06-03,9.494618,15.590866338132415,12.213763043345107,0.0,28.983034806804426,7.3475728419949125,65.0
2022-06-04,1.5254292,5.995927209495607,9.250495938201503,0.0,0.0,4.446110462546779,0.0
2022-06-05,0.69262713,0.9593133023348994,4.373424052305472,0.0,0.0,0.6810279813646167,0.0
2022-06-06,1.4993014,17.04087901233757,13.754790412415957,26.0,0.0,10.751416913438998,0.0
2022-06-07,18.909365,13.923284124640407,15.027955529860463,21.001161298921943,4.997692297438334,9.831462121115763,45.0
2022-06-08,20.055325,23.444874666510806,12.121326648740787,7.998058870379282,32.99753743099291,13.677925823493561,4.0
2022-06-09,23.554436,15.954212907592986,14.128715763100523,0.0,0.0,1.3343633570298625,0.0
2022-06-10,51.242313,30.458577883529347,28.740745460547622,65.0,0.0,27.730124072486905,58.0
2022-06-11,2.7956471,6.988143847872356,9.291196207898961,0.0,0.0,2.7314707602981816,0.0
2022-06-12,0.3659301,1.2175356820970515,-1.2907707190052982,0.0,0.0,-0.47993144433645246,0.0
2022-06-13,12.177158,19.47661146462917,18.692179713320666,0.0,26.0,7.00649895382003,2.995836179748949
2022-06-14,18.82996,20.927379399096843,25.94747811913539,45.0,21.001161298921943,24.96677637246381,5.0
2022-06-15,11.04491,8.834057292413036,2.8372145595832396,4.0,7.998058870379282,2.415942620640772,43.0
2022-06-16,15.658214,15.46598369297365,19.779166316280044,0.0,0.0,3.719188178260663,8.99700246600878
2022-06-17,23.884275,31.316398755013743,38.387044033285534,58.0,65.0,41.21108397687046,6.0
2022-06-18,1.2701479,5.844426175698793,2.3797978829855886,0.0,0.0,-0.4788852318417918,2.0
2022-06-19,-0.05483739,0.639239427003082,1.535275904716034,0.0,0.0,-0.36814145066829324,0.0
2022-06-20,6.1088424,6.748643302616384,5.460002000704046,2.995836179748949,0.0,1.2116663939701715,17.98961965966464
2022-06-21,16.899265,20.002955815905818,23.19445306201291,5.0,45.0,15.308904442394544,27.999198878429524
2022-06-22,21.215292,27.76654997870075,26.25582465382064,43.0,4.0,21.034090362135945,2.0
2022-06-23,11.49182,13.658073243566063,12.38746250665941,8.99700246600878,0.0,3.550967928895017,18.000915980268474
2022-06-24,28.28389,24.073204739453626,22.826088434297,6.0,58.0,17.887842906579575,94.99223715536755
2022-06-25,1.1232836,5.57811675545045,11.942146221818565,2.0,0.0,7.470209987649534,0.0
2022-06-26,0.4004904,1.9350493991415993,4.557026839921866,0.0,0.0,0.7713791364653793,0.0
2022-06-27,22.655054,16.359781797539785,18.200086784358742,17.98961965966464,2.995836179748949,8.734265154159734,0.0
2022-06-28,20.867542,17.476672518019136,15.574004342588065,27.999198878429524,5.0,12.65347369506844,22.0
2022-06-29,16.418974,17.6866071328819,5.136682642213392,2.0,43.0,11.597213672426316,21.999366849225225
2022-06-30,13.328888,19.8871202141703,23.127000002310755,18.000915980268474,8.99700246600878,12.456847467968794,34.0
2022-07-01,39.412052,32.71041354065459,49.596659787532424,94.99223715536755,6.0,43.80123896520089,0.0
2022-07-02,0.6277131,-0.4168402024719105,-5.604354205859032,0.0,2.0,-1.3849553667679808,0.0
2022-07-03,0.42265245,4.292344836342853,-0.5945310160690731,0.0,0.0,-0.8723928750841023,0.0
2022-07-04,12.383856,15.210194626178957,10.896514703011558,0.0,17.98961965966464,4.805111433578171,0.0
2022-07-05,12.61596,13.697728507193096,18.165603285306354,22.0,27.999198878429524,16.78714134161319,28.999369127292994
2022-07-06,18.11628,18.703612823756426,22.25447592944259,21.999366849225225,2.0,11.430523763488978,24.99704919890155
2022-07-07,22.87163,29.841118948667823,24.339749419564058,34.0,18.000915980268474,20.282007833161426,31.0
2022-07-08,32.787373,30.976111468191604,35.40586965028045,0.0,94.99223715536755,24.922035192151295,2.0
2022-07-09,0.24784067,0.3606215611762504,2.493816686476883,0.0,0.0,0.36819469163818946,2.0
2022-07-10,-0.10635231,4.438162681531892,1.3443284262858235,0.0,0.0,-0.11535543713039492,0.0
2022-07-11,12.017266,12.3648953259649,10.454433317667577,0.0,0.0,0.5395139155885664,19.0
2022-07-12,15.024742,18.091699911171023,21.614205528855823,28.999369127292994,22.0,18.853981711482046,0.0
2022-07-13,14.753064,18.022980584553824,19.522536746922306,24.99704919890155,21.999366849225225,15.851578835790841,40.0
2022-07-14,8.53671,29.73910412056537,20.38266136287515,31.0,34.0,23.29503378786495,0.0
2022-07-15,8.908191,11.854256971600146,9.400387938824034,2.0,0.0,0.7805443515720574,0.0
2022-07-16,0.40115654,5.520107801179942,-2.6362545159181145,2.0,0.0,0.6557723187577784,0.0
2022-07-17,1.2585214,1.3309175801517013,2.362447628234431,0.0,0.0,0.10691759705905407,0.0
2022-07-18,4.457222,6.1188826759482575,9.021451054804418,19.0,0.0,7.978601721564425,7.0
2022-07-19,13.390882,11.598745311843393,16.72559059843131,0.0,28.999369127292994,7.668687413617983,24.997480700938468
2022-07-20,16.895958,23.39703537767557,24.28449903922674,40.0,24.99704919890155,24.871986291205832,6.0
2022-07-21,14.184882,21.378699328421995,14.13403671344055,0.0,31.0,7.640200924282334,0.0
2022-07-22,5.7740064,8.557724345065889,8.72513351973519,0.0,2.0,0.9494052901547951,81.97919882640826
2022-07-23,1.614998,7.0823530894428135,12.714525801322601,0.0,2.0,6.219505810903359,0.0
2022-07-24,0.53988475,0.07028753426298733,3.3104847408964115,0.0,0.0,0.6716159903057479,0.0
2022-07-25,19.265297,17.64189002912925,16.4683882620877,7.0,19.0,7.908309511895661,6.0
2022-07-26,17.91985,15.795920827348516,17.63863543796982,24.997480700938468,0.0,11.125372120220192,2.0
2022-07-27,17.152037,15.607844629717224,2.93182469755606,6.0,40.0,11.279762382732367,31.999999999999996
2022-07-28,15.301895,14.920953843889697,17.520950105148163,0.0,0.0,3.2137849289984173,0.0
2022-07-29,29.2185,27.23259013878471,34.07831438987905,81.97919882640826,0.0,34.840754400341055,0.0
2022-07-30,0.8596231,5.420527713933784,-5.512585205061175,0.0,0.0,-1.7524994952458834,4.0
2022-07-31,0.97103333,0.5964922071518007,-5.627676491869231,0.0,0.0,-0.667004813834813,0.0
2022-08-01,5.6573563,2.57082826968411,1.8333758341143067,6.0,7.0,3.8072133509489117,0.0
2022-08-02,2.8777583,5.681293903174869,11.389626779654769,2.0,24.997480700938468,7.607820751679094,0.0
2022-08-03,4.2727113,17.126352336264027,8.55478714875804,31.999999999999996,6.0,14.22828945609599,0.0
2022-08-04,1.5854628,-0.6653047589471438,0.21200071233958084,0.0,0.0,-0.8450687039964118,0.0
2022-08-05,1.7999015,10.167308965289108,13.320983904030332,0.0,81.97919882640826,19.67792712478089,0.0
2022-08-06,-0.2794034,0.26896708265245495,-7.273299491881172,4.0,0.0,1.1763027025720476,0.0
2022-08-07,-0.28757328,-0.5510538629072913,-6.638960924624499,0.0,0.0,-0.3249882949428747,0.0
2022-08-08,2.3124695,-1.8819027272909261,2.7503290971380636,0.0,6.0,1.2413310774269777,0.0
2022-08-09,2.6274116,-0.6125665268792659,1.8260160328963124,0.0,2.0,0.4526017088354621,0.0
2022-08-10,1.1561785,9.723007096231457,4.335708154487021,0.0,31.999999999999996,7.743804963857764,0.0
2022-08-11,1.5848908,-0.33243970228545433,0.43775479103037185,0.0,0.0,-0.015323825018003723,0.0
2022-08-12,1.5848908,0.0008876968913082378,1.609725057183418,0.0,0.0,0.006505361249094566,0.0
2022-08-13,-0.28757328,-0.8705499257293688,-8.106171465360521,0.0,4.0,0.4976702663714205,0.0
2022-08-14,-0.28757328,-0.24860379703036495,-7.171365686764371,0.0,0.0,-0.46293218955673915,0.0
2022-08-15,1.5848908,0.09288500326347071,1.6160651277086657,0.0,0.0,-0.001840177889969874,0.0
2022-08-16,3.3795123,4.363291821980426,6.2673504047297826,0.0,0.0,0.4573790528263411,0.0
2022-08-17,3.3795123,4.250653399109045,5.8273555855078225,0.0,0.0,0.460400094418766,0.0
2022-08-18,3.3795123,3.9576536809901874,5.92278763089679,0.0,0.0,0.4634211360111637,36.0
2022-08-19,10.944898,14.63605655849208,15.406920702937786,0.0,0.0,3.075046757717059,0.0
2022-08-20,0.5252519,1.5389391026734893,0.46252976204665686,0.0,0.0,0.25820325435498787,0.0
2022-08-21,0.56753325,4.9823996397328,2.104451278715249,0.0,0.0,0.01513635330165991,0.0
2022-08-22,5.567378,7.454585618407383,8.567983234855655,0.0,0.0,0.4438570419782712,0.0
2022-08-23,3.7040348,4.876567916603012,2.349888205121058,0.0,0.0,0.05982287412497611,0.0
2022-08-24,8.556176,6.560613880010404,9.081563688287492,0.0,0.0,0.7564542321416585,3.0
2022-08-25,11.849958,18.563314081037042,15.642725292564755,36.0,0.0,15.662417598819824,32.9955939049014
2022-08-26,10.959413,15.482460585873895,14.447399991412144,0.0,0.0,2.0688149777220306,2.0
2022-08-27,0.3533657,1.834275727738932,-1.4948425913719205,0.0,0.0,0.20240108768657644,4.0
2022-08-28,0.529353,5.384732157047414,3.4560196123831712,0.0,0.0,0.3128306196255723,0.0
2022-08-29,4.233011,8.921016133064226,9.360564163768474,0.0,0.0,0.718127595693199,6.0
2022-08-30,7.3300405,8.006809398658625,6.036872653219758,0.0,0.0,0.3513655263329672,68.0
2022-08-31,17.879404,17.290762660774494,24.29587075052044,3.0,0.0,6.895337597595222,0.0
2022-09-01,31.6011,25.98963762106775,24.227320796907676,32.9955939049014,36.0,23.281835506695412,27.999999999999996
2022-09-02,7.946946,19.122229723729983,17.18361019432251,2.0,0.0,2.641920849226184,54.98958616242635
2022-09-03,2.3989635,6.098984132711837,11.70679568094913,4.0,0.0,5.551243380046737,0.0
2022-09-04,0.39624652,1.7918247323572685,-0.8766671064262965,0.0,0.0,-0.3631369751997509,0.0
2022-09-05,13.751789,16.570235038460897,19.05032024989349,6.0,0.0,3.751115283457432,20.0
2022-09-06,20.444618,22.73904146723589,29.847866244261972,68.0,0.0,29.570847747401633,19.0
2022-09-07,12.73623,15.175208358810908,6.187916674054209,0.0,3.0,0.7585982874051178,55.0
2022-09-08,28.083092,31.918086143627573,36.209237806538155,27.999999999999996,32.9955939049014,24.290291588179368,5.0
2022-09-09,33.243492,29.504842737555634,30.5261419150412,54.98958616242635,2.0,24.013215006502733,31.0
2022-09-10,1.643032,9.888556893120384,6.4421555708593505,0.0,4.0,2.1523049830404037,0.0
2022-09-11,0.07252021,1.0700137693137375,2.927920157131579,0.0,0.0,-0.5018505731412117,0.0
2022-09-12,6.338453,16.760891058255503,12.78952313486104,20.0,6.0,9.933283297980731,12.999500130799108
2022-09-13,27.366867,20.69225689036952,32.18807269688681,19.0,68.0,25.88852015753974,40.99981140263026
2022-09-14,19.232058,27.80019787595715,27.231290810148643,55.0,0.0,25.25122432387328,19.998338787398097
2022-09-15,22.101524,25.826564673719417,20.28687461584159,5.0,27.999999999999996,9.918960680079204,0.0
2022-09-16,32.73123,36.138328722597514,27.567518786480093,31.0,54.98958616242635,26.54744425945699,48.99948346127394
2022-09-17,1.0523293,6.942493527876496,9.671825491256456,0.0,0.0,2.7002383903105684,0.0
2022-09-18,0.42219257,-0.9578803218968938,0.5353227565265009,0.0,0.0,0.14568965473281476,0.0
2022-09-19,19.96132,21.58463865611879,20.57664566885789,12.999500130799108,20.0,10.535144627124504,0.0
2022-09-20,16.653633,21.032966184474944,22.72061668101215,40.99981140263026,19.0,22.111950959097623,18.0
2022-09-21,16.872585,17.044933676973898,15.994779448889142,19.998338787398097,55.0,21.6278913598756,7.0
2022-09-22,10.035752,14.690434957163172,12.871932330805162,0.0,5.0,2.0259274087466217,44.99894528125833
2022-09-23,28.421465,34.52989460711249,34.101769702086,48.99948346127394,31.0,31.644128050393558,48.0
2022-09-24,2.5933433,6.064668395012715,13.199121317980204,0.0,0.0,2.936789106189986,10.0
2022-09-25,1.3092568,4.664436111016988,8.078154203955647,0.0,0.0,0.5662341600985406,0.0
2022-09-26,12.760375,22.03880108266464,17.518676696497998,0.0,12.999500130799108,3.5902575759123696,4.0
2022-09-27,25.11337,19.47499604452108,17.27744152473442,18.0,40.99981140263026,18.02417128122917,70.0
2022-09-28,16.16441,19.96494818888001,24.028074893147135,7.0,19.998338787398097,12.44871136874526,7.0
2022-09-29,16.883135,27.311443393689938,26.389234622574513,44.99894528125833,0.0,20.211436529792337,49.99907190951694
2022-09-30,50.824245,39.041754445311824,39.80455285415702,48.0,48.99948346127394,34.99412916772544,39.0
2022-10-01,2.975539,8.034705646709787,12.544206455250057,10.0,0.0,6.1201651646593636,8.0
2022-10-02,0.76909363,4.5881023246438,-0.3221998755644435,0.0,0.0,-0.36734357988831495,0.0
2022-10-03,10.56449,19.13301705626972,19.73540309899886,4.0,0.0,2.918291646781819,46.0
2022-10-04,30.105284,29.285935293460938,38.29601724650013,70.0,18.0,36.772607416232795,16.991222471737274
2022-10-05,24.958397,19.46976992531936,15.133727559411087,7.0,7.0,4.778815780934822,30.0
2022-10-06,24.82052,35.705870816459424,39.50164100139043,49.99907190951694,44.99894528125833,34.06223518761231,12.0
2022-10-07,30.265074,34.12020129712918,31.022462837013933,39.0,48.0,28.26716026532426,15.99841710723922
2022-10-08,7.121457,12.298768395012965,4.869600225894748,8.0,10.0,5.86610810230456,0.0
2022-10-09,0.29422018,2.3836826397476365,3.2473493318336235,0.0,0.0,-0.42460534364184516,0.0
2022-10-10,23.633974,24.384817585239766,20.19095015631634,46.0,4.0,20.60886572752268,23.999745098998574
2022-10-11,21.176418,20.938588952609305,30.201314772719616,16.991222471737274,70.0,25.21342963389665,45.997777311245954
2022-10-12,23.124891,27.762112100131304,25.524819654225983,30.0,7.0,17.246845547190933,0.0
2022-10-13,25.967325,26.86366372700721,21.727565279739135,12.0,49.99907190951694,17.143037890943102,2.0
2022-10-14,26.08338,25.281048364949406,20.3298527500055,15.99841710723922,39.0,16.607582316244926,14.996677591403568
2022-10-15,15.416221,3.899866172591848,0.8836793641888647,0.0,8.0,2.187341865068058,4.0
2022-10-16,2.0060422,2.3659298652859877,-2.118619399973042,0.0,0.0,0.09467878436020721,0.0
2022-10-17,13.151768,20.22387278472137,27.100323646709036,23.999745098998574,46.0,21.845173623011643,42.98691370778215
2022-10-18,24.838009,27.53619984171041,31.262549849197377,45.997777311245954,16.991222471737274,26.269966853541757,14.99319192537223
2022-10-19,20.883366,22.448766239651853,13.073813245078071,0.0,30.0,7.686071546163086,27.99899527295065
2022-10-20,13.563142,25.652202728707348,19.941885839369608,2.0,12.0,6.1842456022838,47.997217461467244
2022-10-21,24.610897,28.41868919149085,29.79114684455564,14.996677591403568,15.99841710723922,14.410416994473374,35.997257443724266
2022-10-22,1.5920975,4.979524656620303,10.948976650104285,4.0,0.0,4.0274374633827765,0.0
2022-10-23,0.6619208,5.738325914956703,9.594363262308285,0.0,0.0,0.0230314374568083,0.0
2022-10-24,18.728592,28.09811313446806,24.50396533268782,42.98691370778215,23.999745098998574,23.897752840862875,30.0
2022-10-25,17.990398,24.414139347538455,21.09711962214226,14.99319192537223,45.997777311245954,18.77636309580023,30.99693418906645
2022-10-26,19.075024,24.63740292136795,21.246977346455253,27.99899527295065,0.0,13.970267104414768,21.0
2022-10-27,23.682217,35.8929935664141,31.448378850235386,47.997217461467244,2.0,22.2387902767722,0.0
2022-10-28,23.979881,31.773762881110194,21.59339863868849,35.997257443724266,14.996677591403568,18.32833683583939,85.0
2022-10-29,0.14872617,5.7883405773625345,10.793179836207779,0.0,4.0,5.603541343079039,0.0
2022-10-30,0.57772785,1.3766129802305997,3.005042301517607,0.0,0.0,0.42788008155556606,0.0
2022-10-31,20.660929,32.22431193720206,25.692243610607385,30.0,42.98691370778215,23.560663967450974,0.0
2022-11-01,6.741396,15.81162719506829,16.716167298428367,30.99693418906645,14.99319192537223,15.963674651540979,0.0
2022-11-02,12.186101,11.362146850020709,3.143824757857189,21.0,27.99899527295065,13.910031803599134,53.00109471902215
2022-11-03,21.450174,24.04110239956983,27.583709954712717,0.0,47.997217461467244,15.90037079503528,14.0
2022-11-04,36.54322,32.05637006925112,43.24048780564564,85.0,35.997257443724266,46.041376128592354,33.99855707549614
2022-11-05,2.1844747,11.982366731830888,6.199920884366213,0.0,0.0,0.7413125256480788,0.0
2022-11-06,-0.022734925,0.5680203899254477,4.669980110994322,0.0,0.0,-0.2280943718648894,0.0
2022-11-07,13.854881,26.176189594308898,10.509700982225288,0.0,30.0,6.955219738821421,51.99268695014689
2022-11-08,16.915184,27.102121541696707,30.59820238192242,0.0,30.99693418906645,12.594463832000281,18.999371844643974
2022-11-09,19.581596,26.886125655157738,29.17807086127403,53.00109471902215,21.0,28.600416165031408,15.998662030147898
2022-11-10,12.763918,21.607032531678243,22.223763882579597,14.0,0.0,6.628250767606812,77.0
2022-11-11,19.633987,33.9492333385487,42.36369969188984,33.99855707549614,85.0,39.75030704613871,0.0
2022-11-12,0.30509204,-0.6207328235112873,-2.870129186193669,0.0,0.0,-0.8488470485073714,0.0
2022-11-13,0.81997937,5.331503304972638,3.5308503815376557,0.0,0.0,0.4869413046588226,0.0
2022-11-14,28.015177,26.300729656527725,24.35790883144137,51.99268695014689,0.0,21.852836328621503,12.0
2022-11-15,7.2908306,9.552549261638948,6.206116734959309,18.999371844643974,0.0,7.475544936170076,28.994529856796362
2022-11-16,21.154196,24.197073783377757,30.300878693009594,15.998662030147898,53.00109471902215,21.81724521078942,32.99841381641363
2022-11-17,38.439034,36.67205445415708,39.809997758405444,77.0,14.0,38.00083270105958,2.0
2022-11-18,26.741997,23.773488671078237,13.372301466722917,0.0,33.99855707549614,7.642786837063904,69.99996161266836
2022-11-19,0.39162844,10.33021691379947,14.034870533241321,0.0,0.0,4.421514001622251,0.0
